06/Figs-Tabs/dat1.csv

Record Length,2500,Points,-12.5000E-6,-519.999981E-3,
Sample Interval,10.00000E-9,s,-12.4900E-6,-500.000000E-3,
Trigger Point,1.2500E3,Samples,-12.4800E-6,-539.999962E-3,
,,,-12.4700E-6,-519.999981E-3,
,,,-12.4600E-6,-519.999981E-3,
,,,-12.4500E-6,-500.000000E-3,
Source,CH1,,-12.4400E-6,-519.999981E-3,
Vertical Units,Volts,,-12.4300E-6,-539.999962E-3,
Vertical Scale,499.999989E-3,,-12.4200E-6,-539.999962E-3,
Vertical Offset,0,,-12.4100E-6,-539.999962E-3,
Horizontal Units,s,,-12.4000E-6,-519.999981E-3,
Horizontal Scale,2.5000E-6,,-12.3900E-6,-519.999981E-3,
Pt Fmt,Y,,-12.3800E-6,-539.999962E-3,
Yzero,0.0,,-12.3700E-6,-519.999981E-3,
Probe Atten,1.000,,-12.3600E-6,-539.999962E-3,
,,,-12.3500E-6,-539.999962E-3,
Note,TDS 1012B - 16:02:10   14/11/2016,,-12.3400E-6,-519.999981E-3,
,,,-12.3300E-6,-519.999981E-3,
,,,-12.3200E-6,-519.999981E-3,
,,,-12.3100E-6,-539.999962E-3,
,,,-12.3000E-6,-519.999981E-3,
,,,-12.2900E-6,-519.999981E-3,
,,,-12.2800E-6,-519.999981E-3,
,,,-12.2700E-6,-519.999981E-3,
,,,-12.2600E-6,-500.000000E-3,
,,,-12.2500E-6,-539.999962E-3,
,,,-12.2400E-6,-519.999981E-3,
,,,-12.2300E-6,-560.000002E-3,
,,,-12.2200E-6,-500.000000E-3,
,,,-12.2100E-6,-500.000000E-3,
,,,-12.2000E-6,-519.999981E-3,
,,,-12.1900E-6,-519.999981E-3,
,,,-12.1800E-6,-500.000000E-3,
,,,-12.1700E-6,-539.999962E-3,
,,,-12.1600E-6,-519.999981E-3,
,,,-12.1500E-6,-500.000000E-3,
,,,-12.1400E-6,-519.999981E-3,
,,,-12.1300E-6,-500.000000E-3,
,,,-12.1200E-6,-519.999981E-3,
,,,-12.1100E-6,-539.999962E-3,
,,,-12.1000E-6,-519.999981E-3,
,,,-12.0900E-6,-519.999981E-3,
,,,-12.0800E-6,-500.000000E-3,
,,,-12.0700E-6,-500.000000E-3,
,,,-12.0600E-6,-519.999981E-3,
,,,-12.0500E-6,-519.999981E-3,
,,,-12.0400E-6,-479.999989E-3,
,,,-12.0300E-6,-519.999981E-3,
,,,-12.0200E-6,-500.000000E-3,
,,,-12.0100E-6,-519.999981E-3,
,,,-12.0000E-6,-500.000000E-3,
,,,-11.9900E-6,-519.999981E-3,
,,,-11.9800E-6,-519.999981E-3,
,,,-11.9700E-6,-479.999989E-3,
,,,-11.9600E-6,-479.999989E-3,
,,,-11.9500E-6,-519.999981E-3,
,,,-11.9400E-6,-500.000000E-3,
,,,-11.9300E-6,-479.999989E-3,
,,,-11.9200E-6,-479.999989E-3,
,,,-11.9100E-6,-459.999979E-3,
,,,-11.9000E-6,-500.000000E-3,
,,,-11.8900E-6,-459.999979E-3,
,,,-11.8800E-6,-479.999989E-3,
,,,-11.8700E-6,-479.999989E-3,
,,,-11.8600E-6,-500.000000E-3,
,,,-11.8500E-6,-500.000000E-3,
,,,-11.8400E-6,-459.999979E-3,
,,,-11.8300E-6,-500.000000E-3,
,,,-11.8200E-6,-479.999989E-3,
,,,-11.8100E-6,-479.999989E-3,
,,,-11.8000E-6,-500.000000E-3,
,,,-11.7900E-6,-479.999989E-3,
,,,-11.7800E-6,-479.999989E-3,
,,,-11.7700E-6,-500.000000E-3,
,,,-11.7600E-6,-479.999989E-3,
,,,-11.7500E-6,-459.999979E-3,
,,,-11.7400E-6,-479.999989E-3,
,,,-11.7300E-6,-459.999979E-3,
,,,-11.7200E-6,-459.999979E-3,
,,,-11.7100E-6,-459.999979E-3,
,,,-11.7000E-6,-459.999979E-3,
,,,-11.6900E-6,-479.999989E-3,
,,,-11.6800E-6,-459.999979E-3,
,,,-11.6700E-6,-459.999979E-3,
,,,-11.6600E-6,-479.999989E-3,
,,,-11.6500E-6,-439.999998E-3,
,,,-11.6400E-6,-439.999998E-3,
,,,-11.6300E-6,-459.999979E-3,
,,,-11.6200E-6,-439.999998E-3,
,,,-11.6100E-6,-459.999979E-3,
,,,-11.6000E-6,-459.999979E-3,
,,,-11.5900E-6,-439.999998E-3,
,,,-11.5800E-6,-439.999998E-3,
,,,-11.5700E-6,-459.999979E-3,
,,,-11.5600E-6,-439.999998E-3,
,,,-11.5500E-6,-459.999979E-3,
,,,-11.5400E-6,-459.999979E-3,
,,,-11.5300E-6,-439.999998E-3,
,,,-11.5200E-6,-439.999998E-3,
,,,-11.5100E-6,-439.999998E-3,
,,,-11.5000E-6,-459.999979E-3,
,,,-11.4900E-6,-419.999987E-3,
,,,-11.4800E-6,-439.999998E-3,
,,,-11.4700E-6,-459.999979E-3,
,,,-11.4600E-6,-419.999987E-3,
,,,-11.4500E-6,-419.999987E-3,
,,,-11.4400E-6,-419.999987E-3,
,,,-11.4300E-6,-419.999987E-3,
,,,-11.4200E-6,-419.999987E-3,
,,,-11.4100E-6,-419.999987E-3,
,,,-11.4000E-6,-399.99998E-3,
,,,-11.3900E-6,-439.999998E-3,
,,,-11.3800E-6,-419.999987E-3,
,,,-11.3700E-6,-439.999998E-3,
,,,-11.3600E-6,-439.999998E-3,
,,,-11.3500E-6,-419.999987E-3,
,,,-11.3400E-6,-419.999987E-3,
,,,-11.3300E-6,-419.999987E-3,
,,,-11.3200E-6,-419.999987E-3,
,,,-11.3100E-6,-439.999998E-3,
,,,-11.3000E-6,-399.99998E-3,
,,,-11.2900E-6,-399.99998E-3,
,,,-11.2800E-6,-399.99998E-3,
,,,-11.2700E-6,-419.999987E-3,
,,,-11.2600E-6,-419.999987E-3,
,,,-11.2500E-6,-399.99998E-3,
,,,-11.2400E-6,-380.00000E-3,
,,,-11.2300E-6,-380.00000E-3,
,,,-11.2200E-6,-399.99998E-3,
,,,-11.2100E-6,-380.00000E-3,
,,,-11.2000E-6,-380.00000E-3,
,,,-11.1900E-6,-399.99998E-3,
,,,-11.1800E-6,-419.999987E-3,
,,,-11.1700E-6,-399.99998E-3,
,,,-11.1600E-6,-399.99998E-3,
,,,-11.1500E-6,-399.99998E-3,
,,,-11.1400E-6,-399.99998E-3,
,,,-11.1300E-6,-380.00000E-3,
,,,-11.1200E-6,-380.00000E-3,
,,,-11.1100E-6,-359.99998E-3,
,,,-11.1000E-6,-380.00000E-3,
,,,-11.0900E-6,-359.99998E-3,
,,,-11.0800E-6,-399.99998E-3,
,,,-11.0700E-6,-359.99998E-3,
,,,-11.0600E-6,-380.00000E-3,
,,,-11.0500E-6,-340.00000E-3,
,,,-11.0400E-6,-380.00000E-3,
,,,-11.0300E-6,-359.99998E-3,
,,,-11.0200E-6,-359.99998E-3,
,,,-11.0100E-6,-359.99998E-3,
,,,-11.0000E-6,-359.99998E-3,
,,,-10.9900E-6,-340.00000E-3,
,,,-10.9800E-6,-359.99998E-3,
,,,-10.9700E-6,-340.00000E-3,
,,,-10.9600E-6,-380.00000E-3,
,,,-10.9500E-6,-359.99998E-3,
,,,-10.9400E-6,-340.00000E-3,
,,,-10.9300E-6,-340.00000E-3,
,,,-10.9200E-6,-340.00000E-3,
,,,-10.9100E-6,-340.00000E-3,
,,,-10.9000E-6,-319.99999E-3,
,,,-10.8900E-6,-319.99999E-3,
,,,-10.8800E-6,-319.99999E-3,
,,,-10.8700E-6,-340.00000E-3,
,,,-10.8600E-6,-319.99999E-3,
,,,-10.8500E-6,-319.99999E-3,
,,,-10.8400E-6,-319.99999E-3,
,,,-10.8300E-6,-319.99999E-3,
,,,-10.8200E-6,-340.00000E-3,
,,,-10.8100E-6,-340.00000E-3,
,,,-10.8000E-6,-340.00000E-3,
,,,-10.7900E-6,-340.00000E-3,
,,,-10.7800E-6,-319.99999E-3,
,,,-10.7700E-6,-280.00000E-3,
,,,-10.7600E-6,-319.99999E-3,
,,,-10.7500E-6,-319.99999E-3,
,,,-10.7400E-6,-319.99999E-3,
,,,-10.7300E-6,-299.99998E-3,
,,,-10.7200E-6,-319.99999E-3,
,,,-10.7100E-6,-319.99999E-3,
,,,-10.7000E-6,-299.99998E-3,
,,,-10.6900E-6,-299.99998E-3,
,,,-10.6800E-6,-299.99998E-3,
,,,-10.6700E-6,-280.00000E-3,
,,,-10.6600E-6,-280.00000E-3,
,,,-10.6500E-6,-280.00000E-3,
,,,-10.6400E-6,-299.99998E-3,
,,,-10.6300E-6,-259.99999E-3,
,,,-10.6200E-6,-280.00000E-3,
,,,-10.6100E-6,-259.99999E-3,
,,,-10.6000E-6,-280.00000E-3,
,,,-10.5900E-6,-280.00000E-3,
,,,-10.5800E-6,-259.99999E-3,
,,,-10.5700E-6,-239.99999E-3,
,,,-10.5600E-6,-259.99999E-3,
,,,-10.5500E-6,-259.99999E-3,
,,,-10.5400E-6,-280.00000E-3,
,,,-10.5300E-6,-259.99999E-3,
,,,-10.5200E-6,-239.99999E-3,
,,,-10.5100E-6,-280.00000E-3,
,,,-10.5000E-6,-239.99999E-3,
,,,-10.4900E-6,-239.99999E-3,
,,,-10.4800E-6,-280.00000E-3,
,,,-10.4700E-6,-259.99999E-3,
,,,-10.4600E-6,-239.99999E-3,
,,,-10.4500E-6,-220.00000E-3,
,,,-10.4400E-6,-239.99999E-3,
,,,-10.4300E-6,-239.99999E-3,
,,,-10.4200E-6,-239.99999E-3,
,,,-10.4100E-6,-239.99999E-3,
,,,-10.4000E-6,-239.99999E-3,
,,,-10.3900E-6,-220.00000E-3,
,,,-10.3800E-6,-220.00000E-3,
,,,-10.3700E-6,-220.00000E-3,
,,,-10.3600E-6,-239.99999E-3,
,,,-10.3500E-6,-259.99999E-3,
,,,-10.3400E-6,-199.99999E-3,
,,,-10.3300E-6,-199.99999E-3,
,,,-10.3200E-6,-220.00000E-3,
,,,-10.3100E-6,-199.99999E-3,
,,,-10.3000E-6,-199.99999E-3,
,,,-10.2900E-6,-199.99999E-3,
,,,-10.2800E-6,-179.99999E-3,
,,,-10.2700E-6,-220.00000E-3,
,,,-10.2600E-6,-179.99999E-3,
,,,-10.2500E-6,-179.99999E-3,
,,,-10.2400E-6,-179.99999E-3,
,,,-10.2300E-6,-179.99999E-3,
,,,-10.2200E-6,-179.99999E-3,
,,,-10.2100E-6,-179.99999E-3,
,,,-10.2000E-6,-160.00000E-3,
,,,-10.1900E-6,-179.99999E-3,
,,,-10.1800E-6,-199.99999E-3,
,,,-10.1700E-6,-160.00000E-3,
,,,-10.1600E-6,-160.00000E-3,
,,,-10.1500E-6,-179.99999E-3,
,,,-10.1400E-6,-160.00000E-3,
,,,-10.1300E-6,-160.00000E-3,
,,,-10.1200E-6,-160.00000E-3,
,,,-10.1100E-6,-160.00000E-3,
,,,-10.1000E-6,-179.99999E-3,
,,,-10.0900E-6,-179.99999E-3,
,,,-10.0800E-6,-140.0000E-3,
,,,-10.0700E-6,-140.0000E-3,
,,,-10.0600E-6,-160.00000E-3,
,,,-10.0500E-6,-140.0000E-3,
,,,-10.0400E-6,-120.0000E-3,
,,,-10.0300E-6,-140.0000E-3,
,,,-10.0200E-6,-160.00000E-3,
,,,-10.0100E-6,-99.999994E-3,
,,,-10.00000E-6,-140.0000E-3,
,,,-9.990000E-6,-120.0000E-3,
,,,-9.980000E-6,-140.0000E-3,
,,,-9.970000E-6,-120.0000E-3,
,,,-9.959999E-6,-120.0000E-3,
,,,-9.949999E-6,-120.0000E-3,
,,,-9.939999E-6,-140.0000E-3,
,,,-9.930000E-6,-120.0000E-3,
,,,-9.920000E-6,-140.0000E-3,
,,,-9.910000E-6,-99.999994E-3,
,,,-9.900000E-6,-120.0000E-3,
,,,-9.890000E-6,-99.999994E-3,
,,,-9.880000E-6,-99.999994E-3,
,,,-9.869999E-6,-79.999998E-3,
,,,-9.859999E-6,-79.999998E-3,
,,,-9.850000E-6,-99.999994E-3,
,,,-9.840000E-6,-99.999994E-3,
,,,-9.830000E-6,-79.999998E-3,
,,,-9.820000E-6,-99.999994E-3,
,,,-9.810000E-6,-59.999999E-3,
,,,-9.800000E-6,-99.999994E-3,
,,,-9.790000E-6,-59.999999E-3,
,,,-9.779999E-6,-79.999998E-3,
,,,-9.769999E-6,-59.999999E-3,
,,,-9.760000E-6,-79.999998E-3,
,,,-9.750000E-6,-59.999999E-3,
,,,-9.740000E-6,-59.999999E-3,
,,,-9.730000E-6,-59.999999E-3,
,,,-9.720000E-6,-59.999999E-3,
,,,-9.710000E-6,-40.00000E-3,
,,,-9.699999E-6,-59.999999E-3,
,,,-9.689999E-6,-40.00000E-3,
,,,-9.679999E-6,-40.00000E-3,
,,,-9.670000E-6,-59.999999E-3,
,,,-9.660000E-6,-20.0000E-3,
,,,-9.650000E-6,-40.00000E-3,
,,,-9.640000E-6,-59.999999E-3,
,,,-9.630000E-6,-20.0000E-3,
,,,-9.620000E-6,-20.0000E-3,
,,,-9.609999E-6,-20.0000E-3,
,,,-9.599999E-6,-20.0000E-3,
,,,-9.590000E-6,-20.0000E-3,
,,,-9.580000E-6,-20.0000E-3,
,,,-9.570000E-6,-20.0000E-3,
,,,-9.560000E-6,0.0,
,,,-9.550000E-6,0.0,
,,,-9.540000E-6,-20.0000E-3,
,,,-9.529999E-6,20.0000E-3,
,,,-9.519999E-6,0.0,
,,,-9.509999E-6,0.0,
,,,-9.500000E-6,20.0000E-3,
,,,-9.490000E-6,0.0,
,,,-9.480000E-6,20.0000E-3,
,,,-9.470000E-6,20.0000E-3,
,,,-9.460000E-6,20.0000E-3,
,,,-9.450000E-6,20.0000E-3,
,,,-9.439999E-6,20.0000E-3,
,,,-9.429999E-6,40.00000E-3,
,,,-9.420000E-6,20.0000E-3,
,,,-9.410000E-6,20.0000E-3,
,,,-9.400000E-6,59.999999E-3,
,,,-9.390000E-6,20.0000E-3,
,,,-9.380000E-6,40.00000E-3,
,,,-9.370000E-6,20.0000E-3,
,,,-9.360000E-6,20.0000E-3,
,,,-9.349999E-6,40.00000E-3,
,,,-9.339999E-6,20.0000E-3,
,,,-9.330000E-6,40.00000E-3,
,,,-9.320000E-6,40.00000E-3,
,,,-9.310000E-6,40.00000E-3,
,,,-9.300000E-6,79.999998E-3,
,,,-9.290000E-6,59.999999E-3,
,,,-9.280000E-6,79.999998E-3,
,,,-9.269999E-6,99.999994E-3,
,,,-9.259999E-6,59.999999E-3,
,,,-9.249999E-6,99.999994E-3,
,,,-9.240000E-6,59.999999E-3,
,,,-9.230000E-6,59.999999E-3,
,,,-9.220000E-6,99.999994E-3,
,,,-9.210000E-6,99.999994E-3,
,,,-9.200000E-6,79.999998E-3,
,,,-9.190000E-6,99.999994E-3,
,,,-9.179999E-6,99.999994E-3,
,,,-9.169999E-6,99.999994E-3,
,,,-9.160000E-6,79.999998E-3,
,,,-9.150000E-6,120.0000E-3,
,,,-9.140000E-6,99.999994E-3,
,,,-9.130000E-6,99.999994E-3,
,,,-9.120000E-6,99.999994E-3,
,,,-9.110000E-6,99.999994E-3,
,,,-9.099999E-6,99.999994E-3,
,,,-9.089999E-6,99.999994E-3,
,,,-9.079999E-6,120.0000E-3,
,,,-9.070000E-6,120.0000E-3,
,,,-9.060000E-6,120.0000E-3,
,,,-9.050000E-6,120.0000E-3,
,,,-9.040000E-6,99.999994E-3,
,,,-9.030000E-6,99.999994E-3,
,,,-9.020000E-6,140.0000E-3,
,,,-9.009999E-6,99.999994E-3,
,,,-8.999999E-6,120.0000E-3,
,,,-8.990000E-6,140.0000E-3,
,,,-8.980000E-6,140.0000E-3,
,,,-8.970000E-6,120.0000E-3,
,,,-8.960000E-6,140.0000E-3,
,,,-8.950000E-6,140.0000E-3,
,,,-8.940000E-6,140.0000E-3,
,,,-8.930000E-6,160.00000E-3,
,,,-8.919999E-6,160.00000E-3,
,,,-8.909999E-6,160.00000E-3,
,,,-8.900000E-6,120.0000E-3,
,,,-8.890000E-6,140.0000E-3,
,,,-8.880000E-6,160.00000E-3,
,,,-8.870000E-6,140.0000E-3,
,,,-8.860000E-6,140.0000E-3,
,,,-8.850000E-6,140.0000E-3,
,,,-8.839999E-6,160.00000E-3,
,,,-8.829999E-6,140.0000E-3,
,,,-8.819999E-6,179.99999E-3,
,,,-8.810000E-6,160.00000E-3,
,,,-8.800000E-6,179.99999E-3,
,,,-8.790000E-6,199.99999E-3,
,,,-8.780000E-6,179.99999E-3,
,,,-8.770000E-6,179.99999E-3,
,,,-8.760000E-6,179.99999E-3,
,,,-8.749999E-6,179.99999E-3,
,,,-8.739999E-6,199.99999E-3,
,,,-8.730000E-6,199.99999E-3,
,,,-8.720000E-6,220.00000E-3,
,,,-8.710000E-6,220.00000E-3,
,,,-8.700000E-6,199.99999E-3,
,,,-8.690000E-6,179.99999E-3,
,,,-8.680000E-6,199.99999E-3,
,,,-8.669999E-6,179.99999E-3,
,,,-8.659999E-6,199.99999E-3,
,,,-8.649999E-6,220.00000E-3,
,,,-8.640000E-6,239.99999E-3,
,,,-8.630000E-6,239.99999E-3,
,,,-8.620000E-6,220.00000E-3,
,,,-8.610000E-6,239.99999E-3,
,,,-8.600000E-6,239.99999E-3,
,,,-8.590000E-6,239.99999E-3,
,,,-8.579999E-6,239.99999E-3,
,,,-8.569999E-6,239.99999E-3,
,,,-8.560000E-6,239.99999E-3,
,,,-8.550000E-6,239.99999E-3,
,,,-8.540000E-6,239.99999E-3,
,,,-8.530000E-6,259.99999E-3,
,,,-8.520000E-6,259.99999E-3,
,,,-8.510000E-6,259.99999E-3,
,,,-8.500000E-6,239.99999E-3,
,,,-8.489999E-6,239.99999E-3,
,,,-8.479999E-6,259.99999E-3,
,,,-8.470000E-6,239.99999E-3,
,,,-8.460000E-6,259.99999E-3,
,,,-8.450000E-6,299.99998E-3,
,,,-8.440000E-6,280.00000E-3,
,,,-8.430000E-6,259.99999E-3,
,,,-8.420000E-6,280.00000E-3,
,,,-8.409999E-6,259.99999E-3,
,,,-8.399999E-6,259.99999E-3,
,,,-8.389999E-6,280.00000E-3,
,,,-8.380000E-6,280.00000E-3,
,,,-8.370000E-6,280.00000E-3,
,,,-8.360000E-6,259.99999E-3,
,,,-8.350000E-6,299.99998E-3,
,,,-8.340000E-6,299.99998E-3,
,,,-8.330000E-6,299.99998E-3,
,,,-8.319999E-6,299.99998E-3,
,,,-8.309999E-6,299.99998E-3,
,,,-8.300000E-6,319.99999E-3,
,,,-8.290000E-6,299.99998E-3,
,,,-8.280000E-6,340.00000E-3,
,,,-8.270000E-6,319.99999E-3,
,,,-8.260000E-6,299.99998E-3,
,,,-8.250000E-6,299.99998E-3,
,,,-8.239999E-6,319.99999E-3,
,,,-8.229999E-6,319.99999E-3,
,,,-8.219999E-6,319.99999E-3,
,,,-8.210000E-6,299.99998E-3,
,,,-8.200000E-6,319.99999E-3,
,,,-8.190000E-6,319.99999E-3,
,,,-8.180000E-6,319.99999E-3,
,,,-8.170000E-6,340.00000E-3,
,,,-8.160000E-6,340.00000E-3,
,,,-8.149999E-6,319.99999E-3,
,,,-8.139999E-6,340.00000E-3,
,,,-8.130000E-6,319.99999E-3,
,,,-8.120000E-6,340.00000E-3,
,,,-8.110000E-6,340.00000E-3,
,,,-8.100000E-6,340.00000E-3,
,,,-8.090000E-6,359.99998E-3,
,,,-8.080000E-6,359.99998E-3,
,,,-8.070000E-6,340.00000E-3,
,,,-8.059999E-6,340.00000E-3,
,,,-8.049999E-6,340.00000E-3,
,,,-8.040000E-6,359.99998E-3,
,,,-8.030000E-6,319.99999E-3,
,,,-8.020000E-6,340.00000E-3,
,,,-8.010000E-6,340.00000E-3,
,,,-8.000000E-6,359.99998E-3,
,,,-7.990000E-6,359.99998E-3,
,,,-7.979999E-6,399.99998E-3,
,,,-7.969999E-6,340.00000E-3,
,,,-7.959999E-6,359.99998E-3,
,,,-7.950000E-6,380.00000E-3,
,,,-7.940000E-6,380.00000E-3,
,,,-7.930000E-6,380.00000E-3,
,,,-7.920000E-6,380.00000E-3,
,,,-7.910000E-6,359.99998E-3,
,,,-7.900000E-6,380.00000E-3,
,,,-7.889999E-6,380.00000E-3,
,,,-7.879999E-6,399.99998E-3,
,,,-7.870000E-6,359.99998E-3,
,,,-7.860000E-6,380.00000E-3,
,,,-7.850000E-6,380.00000E-3,
,,,-7.840000E-6,380.00000E-3,
,,,-7.830000E-6,380.00000E-3,
,,,-7.820000E-6,399.99998E-3,
,,,-7.809999E-6,399.99998E-3,
,,,-7.799999E-6,399.99998E-3,
,,,-7.789999E-6,399.99998E-3,
,,,-7.780000E-6,359.99998E-3,
,,,-7.770000E-6,399.99998E-3,
,,,-7.760000E-6,380.00000E-3,
,,,-7.750000E-6,399.99998E-3,
,,,-7.740000E-6,399.99998E-3,
,,,-7.730000E-6,439.999998E-3,
,,,-7.719999E-6,399.99998E-3,
,,,-7.709999E-6,419.999987E-3,
,,,-7.700000E-6,419.999987E-3,
,,,-7.690000E-6,399.99998E-3,
,,,-7.680000E-6,399.99998E-3,
,,,-7.670000E-6,399.99998E-3,
,,,-7.660000E-6,439.999998E-3,
,,,-7.650000E-6,459.999979E-3,
,,,-7.640000E-6,419.999987E-3,
,,,-7.629999E-6,419.999987E-3,
,,,-7.620000E-6,439.999998E-3,
,,,-7.610000E-6,419.999987E-3,
,,,-7.600000E-6,419.999987E-3,
,,,-7.590000E-6,439.999998E-3,
,,,-7.580000E-6,439.999998E-3,
,,,-7.570000E-6,419.999987E-3,
,,,-7.560000E-6,419.999987E-3,
,,,-7.550000E-6,439.999998E-3,
,,,-7.540000E-6,439.999998E-3,
,,,-7.529999E-6,439.999998E-3,
,,,-7.520000E-6,459.999979E-3,
,,,-7.510000E-6,439.999998E-3,
,,,-7.500000E-6,439.999998E-3,
,,,-7.490000E-6,439.999998E-3,
,,,-7.480000E-6,459.999979E-3,
,,,-7.470000E-6,459.999979E-3,
,,,-7.460000E-6,459.999979E-3,
,,,-7.450000E-6,459.999979E-3,
,,,-7.440000E-6,479.999989E-3,
,,,-7.430000E-6,439.999998E-3,
,,,-7.420000E-6,459.999979E-3,
,,,-7.410000E-6,439.999998E-3,
,,,-7.400000E-6,479.999989E-3,
,,,-7.390000E-6,439.999998E-3,
,,,-7.38000E-6,439.999998E-3,
,,,-7.37000E-6,459.999979E-3,
,,,-7.36000E-6,459.999979E-3,
,,,-7.35000E-6,479.999989E-3,
,,,-7.34000E-6,479.999989E-3,
,,,-7.33000E-6,479.999989E-3,
,,,-7.32000E-6,500.000000E-3,
,,,-7.31000E-6,479.999989E-3,
,,,-7.30000E-6,439.999998E-3,
,,,-7.29000E-6,459.999979E-3,
,,,-7.28000E-6,479.999989E-3,
,,,-7.27000E-6,479.999989E-3,
,,,-7.26000E-6,459.999979E-3,
,,,-7.25000E-6,500.000000E-3,
,,,-7.24000E-6,459.999979E-3,
,,,-7.23000E-6,479.999989E-3,
,,,-7.22000E-6,459.999979E-3,
,,,-7.21000E-6,459.999979E-3,
,,,-7.20000E-6,500.000000E-3,
,,,-7.19000E-6,500.000000E-3,
,,,-7.18000E-6,500.000000E-3,
,,,-7.17000E-6,500.000000E-3,
,,,-7.16000E-6,459.999979E-3,
,,,-7.15000E-6,479.999989E-3,
,,,-7.14000E-6,519.999981E-3,
,,,-7.13000E-6,500.000000E-3,
,,,-7.12000E-6,479.999989E-3,
,,,-7.11000E-6,500.000000E-3,
,,,-7.10000E-6,500.000000E-3,
,,,-7.09000E-6,479.999989E-3,
,,,-7.08000E-6,479.999989E-3,
,,,-7.07000E-6,479.999989E-3,
,,,-7.06000E-6,500.000000E-3,
,,,-7.05000E-6,479.999989E-3,
,,,-7.04000E-6,459.999979E-3,
,,,-7.03000E-6,459.999979E-3,
,,,-7.02000E-6,519.999981E-3,
,,,-7.01000E-6,500.000000E-3,
,,,-7.00000E-6,500.000000E-3,
,,,-6.99000E-6,479.999989E-3,
,,,-6.98000E-6,479.999989E-3,
,,,-6.97000E-6,500.000000E-3,
,,,-6.96000E-6,500.000000E-3,
,,,-6.95000E-6,500.000000E-3,
,,,-6.94000E-6,500.000000E-3,
,,,-6.93000E-6,500.000000E-3,
,,,-6.92000E-6,519.999981E-3,
,,,-6.91000E-6,500.000000E-3,
,,,-6.90000E-6,500.000000E-3,
,,,-6.89000E-6,500.000000E-3,
,,,-6.88000E-6,500.000000E-3,
,,,-6.87000E-6,500.000000E-3,
,,,-6.86000E-6,519.999981E-3,
,,,-6.85000E-6,500.000000E-3,
,,,-6.84000E-6,539.999962E-3,
,,,-6.83000E-6,500.000000E-3,
,,,-6.82000E-6,500.000000E-3,
,,,-6.81000E-6,500.000000E-3,
,,,-6.80000E-6,500.000000E-3,
,,,-6.79000E-6,519.999981E-3,
,,,-6.78000E-6,519.999981E-3,
,,,-6.77000E-6,479.999989E-3,
,,,-6.76000E-6,519.999981E-3,
,,,-6.75000E-6,519.999981E-3,
,,,-6.74000E-6,539.999962E-3,
,,,-6.73000E-6,500.000000E-3,
,,,-6.72000E-6,500.000000E-3,
,,,-6.71000E-6,519.999981E-3,
,,,-6.70000E-6,500.000000E-3,
,,,-6.69000E-6,500.000000E-3,
,,,-6.68000E-6,539.999962E-3,
,,,-6.67000E-6,500.000000E-3,
,,,-6.66000E-6,519.999981E-3,
,,,-6.65000E-6,500.000000E-3,
,,,-6.64000E-6,539.999962E-3,
,,,-6.63000E-6,500.000000E-3,
,,,-6.62000E-6,500.000000E-3,
,,,-6.61000E-6,519.999981E-3,
,,,-6.60000E-6,519.999981E-3,
,,,-6.59000E-6,519.999981E-3,
,,,-6.58000E-6,519.999981E-3,
,,,-6.57000E-6,519.999981E-3,
,,,-6.56000E-6,539.999962E-3,
,,,-6.55000E-6,519.999981E-3,
,,,-6.54000E-6,500.000000E-3,
,,,-6.53000E-6,500.000000E-3,
,,,-6.52000E-6,500.000000E-3,
,,,-6.51000E-6,519.999981E-3,
,,,-6.50000E-6,539.999962E-3,
,,,-6.49000E-6,519.999981E-3,
,,,-6.48000E-6,560.000002E-3,
,,,-6.47000E-6,519.999981E-3,
,,,-6.46000E-6,539.999962E-3,
,,,-6.45000E-6,519.999981E-3,
,,,-6.44000E-6,519.999981E-3,
,,,-6.43000E-6,500.000000E-3,
,,,-6.42000E-6,500.000000E-3,
,,,-6.41000E-6,519.999981E-3,
,,,-6.40000E-6,519.999981E-3,
,,,-6.39000E-6,500.000000E-3,
,,,-6.38000E-6,500.000000E-3,
,,,-6.37000E-6,500.000000E-3,
,,,-6.36000E-6,539.999962E-3,
,,,-6.35000E-6,519.999981E-3,
,,,-6.34000E-6,519.999981E-3,
,,,-6.33000E-6,479.999989E-3,
,,,-6.32000E-6,519.999981E-3,
,,,-6.31000E-6,519.999981E-3,
,,,-6.30000E-6,519.999981E-3,
,,,-6.29000E-6,560.000002E-3,
,,,-6.28000E-6,539.999962E-3,
,,,-6.27000E-6,479.999989E-3,
,,,-6.26000E-6,500.000000E-3,
,,,-6.25000E-6,500.000000E-3,
,,,-6.24000E-6,500.000000E-3,
,,,-6.23000E-6,479.999989E-3,
,,,-6.22000E-6,500.000000E-3,
,,,-6.21000E-6,519.999981E-3,
,,,-6.20000E-6,519.999981E-3,
,,,-6.19000E-6,500.000000E-3,
,,,-6.18000E-6,519.999981E-3,
,,,-6.17000E-6,500.000000E-3,
,,,-6.16000E-6,539.999962E-3,
,,,-6.15000E-6,519.999981E-3,
,,,-6.14000E-6,519.999981E-3,
,,,-6.13000E-6,500.000000E-3,
,,,-6.12000E-6,519.999981E-3,
,,,-6.11000E-6,500.000000E-3,
,,,-6.10000E-6,539.999962E-3,
,,,-6.09000E-6,519.999981E-3,
,,,-6.08000E-6,479.999989E-3,
,,,-6.07000E-6,500.000000E-3,
,,,-6.06000E-6,519.999981E-3,
,,,-6.05000E-6,519.999981E-3,
,,,-6.04000E-6,500.000000E-3,
,,,-6.03000E-6,500.000000E-3,
,,,-6.02000E-6,519.999981E-3,
,,,-6.01000E-6,500.000000E-3,
,,,-6.00000E-6,500.000000E-3,
,,,-5.99000E-6,479.999989E-3,
,,,-5.98000E-6,519.999981E-3,
,,,-5.97000E-6,500.000000E-3,
,,,-5.96000E-6,500.000000E-3,
