06/Figs-Tabs/slewrate.csv

Record Length,2500,Points,-540.000030E-9,472.000033E-3,,Record Length,2500,Points,-540.000030E-9,-4.64000,
Sample Interval,2.0000E-9,s,-538.000052E-9,464.000016E-3,,Sample Interval,2.0000E-9,s,-538.000052E-9,-4.64000,
Trigger Point,270.00002,Samples,-536.000016E-9,472.000033E-3,,Trigger Point,270.00002,Samples,-536.000016E-9,-4.56000,
,,,-534.000037E-9,480.000019E-3,,,,,-534.000037E-9,-4.56000,
,,,-532.000058E-9,480.000019E-3,,,,,-532.000058E-9,-4.56000,
,,,-530.000023E-9,472.000033E-3,,,,,-530.000023E-9,-4.56000,
Source,CH1,,-528.000044E-9,480.000019E-3,,Source,CH2,,-528.000044E-9,-4.64000,
Vertical Units,Volts,,-526.000008E-9,480.000019E-3,,Vertical Units,Volts,,-526.000008E-9,-4.64000,
Vertical Scale,200.00001E-3,,-524.000029E-9,480.000019E-3,,Vertical Scale,2.0000,,-524.000029E-9,-4.64000,
Vertical Offset,0,,-522.000050E-9,480.000019E-3,,Vertical Offset,0,,-522.000050E-9,-4.64000,
Horizontal Units,s,,-520.000015E-9,480.000019E-3,,Horizontal Units,s,,-520.000015E-9,-4.64000,
Horizontal Scale,499.999986E-9,,-518.000036E-9,472.000033E-3,,Horizontal Scale,499.999986E-9,,-518.000036E-9,-4.64000,
Pt Fmt,Y,,-516.000057E-9,480.000019E-3,,Pt Fmt,Y,,-516.000057E-9,-4.64000,
Yzero,0.0,,-514.000021E-9,480.000019E-3,,Yzero,0.0,,-514.000021E-9,-4.64000,
Probe Atten,1.000,,-512.000042E-9,480.000019E-3,,Probe Atten,1.000,,-512.000042E-9,-4.72000,
,,,-510.000007E-9,472.000033E-3,,,,,-510.000007E-9,-4.56000,
Note,TDS 1012B - 17:07:12   14/11/2016,,-508.000028E-9,480.000019E-3,,Note,TDS 1012B - 17:07:12   14/11/2016,,-508.000028E-9,-4.64000,
,,,-506.000049E-9,472.000033E-3,,,,,-506.000049E-9,-4.64000,
,,,-504.000013E-9,480.000019E-3,,,,,-504.000013E-9,-4.64000,
,,,-502.000034E-9,480.000019E-3,,,,,-502.000034E-9,-4.48000,
,,,-500.000056E-9,480.000019E-3,,,,,-500.000056E-9,-4.64000,
,,,-498.000020E-9,456.000030E-3,,,,,-498.000020E-9,-4.56000,
,,,-496.000041E-9,480.000019E-3,,,,,-496.000041E-9,-4.56000,
,,,-494.000005E-9,480.000019E-3,,,,,-494.000005E-9,-4.56000,
,,,-492.000026E-9,480.000019E-3,,,,,-492.000026E-9,-4.64000,
,,,-490.000048E-9,472.000033E-3,,,,,-490.000048E-9,-4.64000,
,,,-488.000012E-9,480.000019E-3,,,,,-488.000012E-9,-4.64000,
,,,-486.000033E-9,480.000019E-3,,,,,-486.000033E-9,-4.56000,
,,,-484.000054E-9,488.000035E-3,,,,,-484.000054E-9,-4.48000,
,,,-482.000019E-9,472.000033E-3,,,,,-482.000019E-9,-4.56000,
,,,-480.000040E-9,480.000019E-3,,,,,-480.000040E-9,-4.56000,
,,,-478.000004E-9,480.000019E-3,,,,,-478.000004E-9,-4.48000,
,,,-476.000025E-9,480.000019E-3,,,,,-476.000025E-9,-4.56000,
,,,-474.000046E-9,480.000019E-3,,,,,-474.000046E-9,-4.56000,
,,,-472.000039E-9,480.000019E-3,,,,,-472.000039E-9,-4.56000,
,,,-470.000032E-9,472.000033E-3,,,,,-470.000032E-9,-4.64000,
,,,-468.000025E-9,480.000019E-3,,,,,-468.000025E-9,-4.56000,
,,,-466.000046E-9,480.000019E-3,,,,,-466.000046E-9,-4.64000,
,,,-464.000038E-9,472.000033E-3,,,,,-464.000038E-9,-4.56000,
,,,-462.000031E-9,488.000035E-3,,,,,-462.000031E-9,-4.56000,
,,,-460.000024E-9,488.000035E-3,,,,,-460.000024E-9,-4.64000,
,,,-458.000045E-9,480.000019E-3,,,,,-458.000045E-9,-4.64000,
,,,-456.000038E-9,480.000019E-3,,,,,-456.000038E-9,-4.56000,
,,,-454.000030E-9,472.000033E-3,,,,,-454.000030E-9,-4.56000,
,,,-452.000023E-9,480.000019E-3,,,,,-452.000023E-9,-4.56000,
,,,-450.000044E-9,472.000033E-3,,,,,-450.000044E-9,-4.64000,
,,,-448.000037E-9,472.000033E-3,,,,,-448.000037E-9,-4.56000,
,,,-446.000030E-9,480.000019E-3,,,,,-446.000030E-9,-4.64000,
,,,-444.000023E-9,480.000019E-3,,,,,-444.000023E-9,-4.56000,
,,,-442.000044E-9,480.000019E-3,,,,,-442.000044E-9,-4.56000,
,,,-440.000036E-9,472.000033E-3,,,,,-440.000036E-9,-4.56000,
,,,-438.000029E-9,480.000019E-3,,,,,-438.000029E-9,-4.48000,
,,,-436.000022E-9,472.000033E-3,,,,,-436.000022E-9,-4.56000,
,,,-434.000043E-9,488.000035E-3,,,,,-434.000043E-9,-4.48000,
,,,-432.000036E-9,464.000016E-3,,,,,-432.000036E-9,-4.64000,
,,,-430.000028E-9,488.000035E-3,,,,,-430.000028E-9,-4.56000,
,,,-428.000021E-9,472.000033E-3,,,,,-428.000021E-9,-4.64000,
,,,-426.000042E-9,480.000019E-3,,,,,-426.000042E-9,-4.56000,
,,,-424.000035E-9,472.000033E-3,,,,,-424.000035E-9,-4.56000,
,,,-422.000028E-9,472.000033E-3,,,,,-422.000028E-9,-4.56000,
,,,-420.000021E-9,480.000019E-3,,,,,-420.000021E-9,-4.48000,
,,,-418.000042E-9,480.000019E-3,,,,,-418.000042E-9,-4.56000,
,,,-416.000034E-9,464.000016E-3,,,,,-416.000034E-9,-4.56000,
,,,-414.000027E-9,480.000019E-3,,,,,-414.000027E-9,-4.64000,
,,,-412.000020E-9,480.000019E-3,,,,,-412.000020E-9,-4.56000,
,,,-410.000041E-9,480.000019E-3,,,,,-410.000041E-9,-4.56000,
,,,-408.000034E-9,472.000033E-3,,,,,-408.000034E-9,-4.64000,
,,,-406.000026E-9,480.000019E-3,,,,,-406.000026E-9,-4.56000,
,,,-404.000048E-9,480.000019E-3,,,,,-404.000048E-9,-4.72000,
,,,-402.00004E-9,480.000019E-3,,,,,-402.00004E-9,-4.56000,
,,,-400.00003E-9,480.000019E-3,,,,,-400.00003E-9,-4.56000,
,,,-398.00003E-9,480.000019E-3,,,,,-398.00003E-9,-4.48000,
,,,-396.00005E-9,488.000035E-3,,,,,-396.00005E-9,-4.64000,
,,,-394.00004E-9,480.000019E-3,,,,,-394.00004E-9,-4.56000,
,,,-392.00003E-9,480.000019E-3,,,,,-392.00003E-9,-4.64000,
,,,-390.00003E-9,464.000016E-3,,,,,-390.00003E-9,-4.72000,
,,,-388.00005E-9,480.000019E-3,,,,,-388.00005E-9,-4.64000,
,,,-386.00004E-9,472.000033E-3,,,,,-386.00004E-9,-4.56000,
,,,-384.00003E-9,472.000033E-3,,,,,-384.00003E-9,-4.56000,
,,,-382.00002E-9,480.000019E-3,,,,,-382.00002E-9,-4.48000,
,,,-380.00005E-9,480.000019E-3,,,,,-380.00005E-9,-4.48000,
,,,-378.00004E-9,488.000035E-3,,,,,-378.00004E-9,-4.64000,
,,,-376.00003E-9,480.000019E-3,,,,,-376.00003E-9,-4.64000,
,,,-374.00002E-9,472.000033E-3,,,,,-374.00002E-9,-4.56000,
,,,-372.00004E-9,472.000033E-3,,,,,-372.00004E-9,-4.56000,
,,,-370.00004E-9,480.000019E-3,,,,,-370.00004E-9,-4.56000,
,,,-368.00003E-9,480.000019E-3,,,,,-368.00003E-9,-4.48000,
,,,-366.00002E-9,464.000016E-3,,,,,-366.00002E-9,-4.56000,
,,,-364.00004E-9,480.000019E-3,,,,,-364.00004E-9,-4.64000,
,,,-362.00004E-9,480.000019E-3,,,,,-362.00004E-9,-4.56000,
,,,-360.00003E-9,480.000019E-3,,,,,-360.00003E-9,-4.64000,
,,,-358.00002E-9,464.000016E-3,,,,,-358.00002E-9,-4.64000,
,,,-356.00004E-9,472.000033E-3,,,,,-356.00004E-9,-4.56000,
,,,-354.00004E-9,480.000019E-3,,,,,-354.00004E-9,-4.48000,
,,,-352.00003E-9,472.000033E-3,,,,,-352.00003E-9,-4.56000,
,,,-350.00002E-9,472.000033E-3,,,,,-350.00002E-9,-4.64000,
,,,-348.00004E-9,480.000019E-3,,,,,-348.00004E-9,-4.64000,
,,,-346.00004E-9,472.000033E-3,,,,,-346.00004E-9,-4.56000,
,,,-344.00003E-9,472.000033E-3,,,,,-344.00003E-9,-4.56000,
,,,-342.00005E-9,472.000033E-3,,,,,-342.00005E-9,-4.64000,
,,,-340.00004E-9,472.000033E-3,,,,,-340.00004E-9,-4.56000,
,,,-338.00004E-9,480.000019E-3,,,,,-338.00004E-9,-4.56000,
,,,-336.00003E-9,480.000019E-3,,,,,-336.00003E-9,-4.56000,
,,,-334.00005E-9,472.000033E-3,,,,,-334.00005E-9,-4.56000,
,,,-332.00004E-9,472.000033E-3,,,,,-332.00004E-9,-4.56000,
,,,-330.00003E-9,472.000033E-3,,,,,-330.00003E-9,-4.56000,
,,,-328.00003E-9,480.000019E-3,,,,,-328.00003E-9,-4.56000,
,,,-326.00005E-9,480.000019E-3,,,,,-326.00005E-9,-4.72000,
,,,-324.00004E-9,480.000019E-3,,,,,-324.00004E-9,-4.64000,
,,,-322.00003E-9,480.000019E-3,,,,,-322.00003E-9,-4.56000,
,,,-320.00003E-9,480.000019E-3,,,,,-320.00003E-9,-4.56000,
,,,-318.00005E-9,472.000033E-3,,,,,-318.00005E-9,-4.56000,
,,,-316.00004E-9,480.000019E-3,,,,,-316.00004E-9,-4.64000,
,,,-314.00003E-9,480.000019E-3,,,,,-314.00003E-9,-4.64000,
,,,-312.00003E-9,480.000019E-3,,,,,-312.00003E-9,-4.56000,
,,,-310.00005E-9,488.000035E-3,,,,,-310.00005E-9,-4.64000,
,,,-308.00004E-9,480.000019E-3,,,,,-308.00004E-9,-4.48000,
,,,-306.00003E-9,472.000033E-3,,,,,-306.00003E-9,-4.64000,
,,,-304.00003E-9,480.000019E-3,,,,,-304.00003E-9,-4.56000,
,,,-302.00005E-9,472.000033E-3,,,,,-302.00005E-9,-4.64000,
,,,-300.00004E-9,472.000033E-3,,,,,-300.00004E-9,-4.56000,
,,,-298.00003E-9,480.000019E-3,,,,,-298.00003E-9,-4.48000,
,,,-296.00002E-9,480.000019E-3,,,,,-296.00002E-9,-4.48000,
,,,-294.00005E-9,480.000019E-3,,,,,-294.00005E-9,-4.56000,
,,,-292.00004E-9,472.000033E-3,,,,,-292.00004E-9,-4.56000,
,,,-290.00003E-9,472.000033E-3,,,,,-290.00003E-9,-4.64000,
,,,-288.00002E-9,472.000033E-3,,,,,-288.00002E-9,-4.48000,
,,,-286.00004E-9,480.000019E-3,,,,,-286.00004E-9,-4.64000,
,,,-284.00004E-9,472.000033E-3,,,,,-284.00004E-9,-4.56000,
,,,-282.00003E-9,480.000019E-3,,,,,-282.00003E-9,-4.48000,
,,,-280.00005E-9,472.000033E-3,,,,,-280.00005E-9,-4.56000,
,,,-278.00004E-9,472.000033E-3,,,,,-278.00004E-9,-4.56000,
,,,-276.00004E-9,464.000016E-3,,,,,-276.00004E-9,-4.64000,
,,,-274.00003E-9,472.000033E-3,,,,,-274.00003E-9,-4.56000,
,,,-272.00005E-9,480.000019E-3,,,,,-272.00005E-9,-4.56000,
,,,-270.00004E-9,480.000019E-3,,,,,-270.00004E-9,-4.56000,
,,,-268.00004E-9,480.000019E-3,,,,,-268.00004E-9,-4.56000,
,,,-266.00003E-9,464.000016E-3,,,,,-266.00003E-9,-4.56000,
,,,-264.00005E-9,472.000033E-3,,,,,-264.00005E-9,-4.48000,
,,,-262.00004E-9,480.000019E-3,,,,,-262.00004E-9,-4.48000,
,,,-260.00004E-9,480.000019E-3,,,,,-260.00004E-9,-4.56000,
,,,-258.00003E-9,472.000033E-3,,,,,-258.00003E-9,-4.56000,
,,,-256.00005E-9,472.000033E-3,,,,,-256.00005E-9,-4.64000,
,,,-254.00004E-9,480.000019E-3,,,,,-254.00004E-9,-4.64000,
,,,-252.00004E-9,480.000019E-3,,,,,-252.00004E-9,-4.64000,
,,,-250.00003E-9,472.000033E-3,,,,,-250.00003E-9,-4.56000,
,,,-248.00005E-9,480.000019E-3,,,,,-248.00005E-9,-4.48000,
,,,-246.00004E-9,480.000019E-3,,,,,-246.00004E-9,-4.56000,
,,,-244.00003E-9,480.000019E-3,,,,,-244.00003E-9,-4.56000,
,,,-242.00003E-9,472.000033E-3,,,,,-242.00003E-9,-4.64000,
,,,-240.00005E-9,480.000019E-3,,,,,-240.00005E-9,-4.64000,
,,,-238.00004E-9,472.000033E-3,,,,,-238.00004E-9,-4.56000,
,,,-236.00003E-9,488.000035E-3,,,,,-236.00003E-9,-4.48000,
,,,-234.00004E-9,472.000033E-3,,,,,-234.00004E-9,-4.56000,
,,,-232.00003E-9,480.000019E-3,,,,,-232.00003E-9,-4.64000,
,,,-230.00004E-9,480.000019E-3,,,,,-230.00004E-9,-4.56000,
,,,-228.00003E-9,480.000019E-3,,,,,-228.00003E-9,-4.56000,
,,,-226.00004E-9,488.000035E-3,,,,,-226.00004E-9,-4.56000,
,,,-224.00003E-9,480.000019E-3,,,,,-224.00003E-9,-4.48000,
,,,-222.00004E-9,480.000019E-3,,,,,-222.00004E-9,-4.64000,
,,,-220.00003E-9,472.000033E-3,,,,,-220.00003E-9,-4.64000,
,,,-218.00004E-9,464.000016E-3,,,,,-218.00004E-9,-4.64000,
,,,-216.00005E-9,472.000033E-3,,,,,-216.00005E-9,-4.64000,
,,,-214.00004E-9,488.000035E-3,,,,,-214.00004E-9,-4.64000,
,,,-212.00005E-9,480.000019E-3,,,,,-212.00005E-9,-4.56000,
,,,-210.00004E-9,472.000033E-3,,,,,-210.00004E-9,-4.56000,
,,,-208.00005E-9,472.000033E-3,,,,,-208.00005E-9,-4.56000,
,,,-206.00004E-9,472.000033E-3,,,,,-206.00004E-9,-4.64000,
,,,-204.00005E-9,480.000019E-3,,,,,-204.00005E-9,-4.56000,
,,,-202.00004E-9,480.000019E-3,,,,,-202.00004E-9,-4.56000,
,,,-200.00004E-9,472.000033E-3,,,,,-200.00004E-9,-4.56000,
,,,-198.00004E-9,472.000033E-3,,,,,-198.00004E-9,-4.64000,
,,,-196.00004E-9,464.000016E-3,,,,,-196.00004E-9,-4.48000,
,,,-194.00004E-9,472.000033E-3,,,,,-194.00004E-9,-4.56000,
,,,-192.00004E-9,472.000033E-3,,,,,-192.00004E-9,-4.56000,
,,,-190.00004E-9,472.000033E-3,,,,,-190.00004E-9,-4.56000,
,,,-188.00004E-9,480.000019E-3,,,,,-188.00004E-9,-4.48000,
,,,-186.00004E-9,472.000033E-3,,,,,-186.00004E-9,-4.48000,
,,,-184.00004E-9,472.000033E-3,,,,,-184.00004E-9,-4.56000,
,,,-182.00004E-9,480.000019E-3,,,,,-182.00004E-9,-4.48000,
,,,-180.00004E-9,480.000019E-3,,,,,-180.00004E-9,-4.56000,
,,,-178.00004E-9,472.000033E-3,,,,,-178.00004E-9,-4.48000,
,,,-176.00004E-9,464.000016E-3,,,,,-176.00004E-9,-4.64000,
,,,-174.00004E-9,480.000019E-3,,,,,-174.00004E-9,-4.64000,
,,,-172.00004E-9,472.000033E-3,,,,,-172.00004E-9,-4.56000,
,,,-170.00004E-9,472.000033E-3,,,,,-170.00004E-9,-4.48000,
,,,-168.00004E-9,464.000016E-3,,,,,-168.00004E-9,-4.64000,
,,,-166.00004E-9,480.000019E-3,,,,,-166.00004E-9,-4.56000,
,,,-164.00004E-9,480.000019E-3,,,,,-164.00004E-9,-4.56000,
,,,-162.00003E-9,488.000035E-3,,,,,-162.00003E-9,-4.56000,
,,,-160.00004E-9,464.000016E-3,,,,,-160.00004E-9,-4.64000,
,,,-158.00003E-9,472.000033E-3,,,,,-158.00003E-9,-4.56000,
,,,-156.00004E-9,472.000033E-3,,,,,-156.00004E-9,-4.56000,
,,,-154.00005E-9,480.000019E-3,,,,,-154.00005E-9,-4.56000,
,,,-152.00004E-9,480.000019E-3,,,,,-152.00004E-9,-4.56000,
,,,-150.00005E-9,480.000019E-3,,,,,-150.00005E-9,-4.56000,
,,,-148.0000E-9,480.000019E-3,,,,,-148.0000E-9,-4.64000,
,,,-146.0000E-9,480.000019E-3,,,,,-146.0000E-9,-4.56000,
,,,-144.0000E-9,472.000033E-3,,,,,-144.0000E-9,-4.56000,
,,,-142.0000E-9,472.000033E-3,,,,,-142.0000E-9,-4.64000,
,,,-140.0000E-9,472.000033E-3,,,,,-140.0000E-9,-4.48000,
,,,-138.0000E-9,472.000033E-3,,,,,-138.0000E-9,-4.56000,
,,,-136.0000E-9,480.000019E-3,,,,,-136.0000E-9,-4.56000,
,,,-134.0000E-9,472.000033E-3,,,,,-134.0000E-9,-4.56000,
,,,-132.0000E-9,480.000019E-3,,,,,-132.0000E-9,-4.56000,
,,,-130.0000E-9,472.000033E-3,,,,,-130.0000E-9,-4.56000,
,,,-128.0000E-9,480.000019E-3,,,,,-128.0000E-9,-4.56000,
,,,-126.0000E-9,472.000033E-3,,,,,-126.0000E-9,-4.56000,
,,,-124.0000E-9,480.000019E-3,,,,,-124.0000E-9,-4.56000,
,,,-122.0000E-9,480.000019E-3,,,,,-122.0000E-9,-4.56000,
,,,-120.0000E-9,480.000019E-3,,,,,-120.0000E-9,-4.64000,
,,,-118.0000E-9,472.000033E-3,,,,,-118.0000E-9,-4.48000,
,,,-116.0000E-9,480.000019E-3,,,,,-116.0000E-9,-4.56000,
,,,-114.0000E-9,480.000019E-3,,,,,-114.0000E-9,-4.56000,
,,,-112.0000E-9,488.000035E-3,,,,,-112.0000E-9,-4.64000,
,,,-110.0000E-9,480.000019E-3,,,,,-110.0000E-9,-4.56000,
,,,-108.0000E-9,488.000035E-3,,,,,-108.0000E-9,-4.56000,
,,,-106.0000E-9,472.000033E-3,,,,,-106.0000E-9,-4.56000,
,,,-104.0000E-9,480.000019E-3,,,,,-104.0000E-9,-4.64000,
,,,-102.0000E-9,472.000033E-3,,,,,-102.0000E-9,-4.56000,
,,,-100.0000E-9,480.000019E-3,,,,,-100.0000E-9,-4.48000,
,,,-98.000044E-9,472.000033E-3,,,,,-98.000044E-9,-4.56000,
,,,-96.000043E-9,480.000019E-3,,,,,-96.000043E-9,-4.48000,
,,,-94.000043E-9,472.000033E-3,,,,,-94.000043E-9,-4.56000,
,,,-92.000043E-9,480.000019E-3,,,,,-92.000043E-9,-4.64000,
,,,-90.000043E-9,480.000019E-3,,,,,-90.000043E-9,-4.56000,
,,,-88.000043E-9,480.000019E-3,,,,,-88.000043E-9,-4.56000,
,,,-86.000043E-9,464.000016E-3,,,,,-86.000043E-9,-4.56000,
,,,-84.000042E-9,472.000033E-3,,,,,-84.000042E-9,-4.64000,
,,,-82.000042E-9,488.000035E-3,,,,,-82.000042E-9,-4.56000,
,,,-80.000042E-9,472.000033E-3,,,,,-80.000042E-9,-4.56000,
,,,-78.000042E-9,472.000033E-3,,,,,-78.000042E-9,-4.64000,
,,,-76.000042E-9,488.000035E-3,,,,,-76.000042E-9,-4.64000,
,,,-74.000042E-9,480.000019E-3,,,,,-74.000042E-9,-4.56000,
,,,-72.000041E-9,480.000019E-3,,,,,-72.000041E-9,-4.48000,
,,,-70.000041E-9,472.000033E-3,,,,,-70.000041E-9,-4.56000,
,,,-68.000041E-9,464.000016E-3,,,,,-68.000041E-9,-4.48000,
,,,-66.000041E-9,472.000033E-3,,,,,-66.000041E-9,-4.56000,
,,,-64.000041E-9,472.000033E-3,,,,,-64.000041E-9,-4.64000,
,,,-62.000041E-9,480.000019E-3,,,,,-62.000041E-9,-4.56000,
,,,-60.000048E-9,464.000016E-3,,,,,-60.000048E-9,-4.56000,
,,,-58.000044E-9,464.000016E-3,,,,,-58.000044E-9,-4.56000,
,,,-56.000044E-9,480.000019E-3,,,,,-56.000044E-9,-4.48000,
,,,-54.00004E-9,472.000033E-3,,,,,-54.00004E-9,-4.56000,
,,,-52.00004E-9,464.000016E-3,,,,,-52.00004E-9,-4.56000,
,,,-50.00004E-9,472.000033E-3,,,,,-50.00004E-9,-4.56000,
,,,-48.00004E-9,464.000016E-3,,,,,-48.00004E-9,-4.56000,
,,,-46.00004E-9,480.000019E-3,,,,,-46.00004E-9,-4.56000,
,,,-44.00005E-9,472.000033E-3,,,,,-44.00005E-9,-4.64000,
,,,-42.00005E-9,464.000016E-3,,,,,-42.00005E-9,-4.64000,
,,,-40.00005E-9,472.000033E-3,,,,,-40.00005E-9,-4.56000,
,,,-38.00005E-9,472.000033E-3,,,,,-38.00005E-9,-4.48000,
,,,-36.00005E-9,464.000016E-3,,,,,-36.00005E-9,-4.56000,
,,,-34.00005E-9,480.000019E-3,,,,,-34.00005E-9,-4.48000,
,,,-32.00005E-9,464.000016E-3,,,,,-32.00005E-9,-4.56000,
,,,-30.00005E-9,472.000033E-3,,,,,-30.00005E-9,-4.64000,
,,,-28.00004E-9,464.000016E-3,,,,,-28.00004E-9,-4.56000,
,,,-26.00004E-9,464.000016E-3,,,,,-26.00004E-9,-4.48000,
,,,-24.00004E-9,472.000033E-3,,,,,-24.00004E-9,-4.48000,
,,,-22.00004E-9,464.000016E-3,,,,,-22.00004E-9,-4.56000,
,,,-20.0000E-9,456.000030E-3,,,,,-20.0000E-9,-4.56000,
,,,-18.0000E-9,472.000033E-3,,,,,-18.0000E-9,-4.56000,
,,,-16.0000E-9,472.000033E-3,,,,,-16.0000E-9,-4.56000,
,,,-14.0000E-9,472.000033E-3,,,,,-14.0000E-9,-4.56000,
,,,-12.0000E-9,456.000030E-3,,,,,-12.0000E-9,-4.56000,
,,,-10.0000E-9,472.000033E-3,,,,,-10.0000E-9,-4.56000,
,,,-8.000045E-9,464.000016E-3,,,,,-8.000045E-9,-4.56000,
,,,-6.00005E-9,472.000033E-3,,,,,-6.00005E-9,-4.56000,
,,,-4.00005E-9,464.000016E-3,,,,,-4.00005E-9,-4.56000,
,,,-2.0000E-9,456.000030E-3,,,,,-2.0000E-9,-4.48000,
,,,-45.74119E-15,464.000016E-3,,,,,-45.74119E-15,-4.64000,
,,,2.0000E-9,464.000016E-3,,,,,2.0000E-9,-4.64000,
,,,3.99995E-9,464.000016E-3,,,,,3.99995E-9,-4.48000,
,,,5.99995E-9,456.000030E-3,,,,,5.99995E-9,-4.64000,
,,,7.999954E-9,448.000014E-3,,,,,7.999954E-9,-4.56000,
,,,9.999954E-9,464.000016E-3,,,,,9.999954E-9,-4.56000,
,,,12.0000E-9,456.000030E-3,,,,,12.0000E-9,-4.56000,
,,,14.0000E-9,440.000027E-3,,,,,14.0000E-9,-4.56000,
,,,16.0000E-9,440.000027E-3,,,,,16.0000E-9,-4.56000,
,,,18.0000E-9,440.000027E-3,,,,,18.0000E-9,-4.48000,
,,,20.0000E-9,432.000011E-3,,,,,20.0000E-9,-4.56000,
,,,21.99995E-9,424.000025E-3,,,,,21.99995E-9,-4.64000,
,,,23.99995E-9,408.000022E-3,,,,,23.99995E-9,-4.64000,
,,,25.99995E-9,392.00002E-3,,,,,25.99995E-9,-4.56000,
,,,27.99995E-9,360.00001E-3,,,,,27.99995E-9,-4.48000,
,,,29.99995E-9,320.00002E-3,,,,,29.99995E-9,-4.48000,
,,,31.99995E-9,296.00000E-3,,,,,31.99995E-9,-4.56000,
,,,33.99995E-9,264.00000E-3,,,,,33.99995E-9,-4.56000,
,,,35.99995E-9,240.00001E-3,,,,,35.99995E-9,-4.64000,
,,,37.99995E-9,200.00000E-3,,,,,37.99995E-9,-4.56000,
,,,39.99995E-9,160.00001E-3,,,,,39.99995E-9,-4.64000,
,,,41.99995E-9,120.0000E-3,,,,,41.99995E-9,-4.56000,
,,,43.99995E-9,80.000006E-3,,,,,43.99995E-9,-4.56000,
,,,45.99995E-9,56.000002E-3,,,,,45.99995E-9,-4.56000,
,,,47.99995E-9,16.0000E-3,,,,,47.99995E-9,-4.64000,
,,,49.99995E-9,-24.00000E-3,,,,,49.99995E-9,-4.64000,
,,,51.99995E-9,-56.000002E-3,,,,,51.99995E-9,-4.56000,
,,,53.99995E-9,-96.000001E-3,,,,,53.99995E-9,-4.56000,
,,,55.999951E-9,-128.0000E-3,,,,,55.999951E-9,-4.64000,
,,,57.999952E-9,-144.0000E-3,,,,,57.999952E-9,-4.56000,
,,,59.999955E-9,-184.00002E-3,,,,,59.999955E-9,-4.56000,
,,,61.999955E-9,-216.00001E-3,,,,,61.999955E-9,-4.56000,
,,,63.999956E-9,-248.00001E-3,,,,,63.999956E-9,-4.64000,
,,,65.999956E-9,-256.00001E-3,,,,,65.999956E-9,-4.56000,
,,,67.999949E-9,-272.00001E-3,,,,,67.999949E-9,-4.72000,
,,,69.999949E-9,-288.00002E-3,,,,,69.999949E-9,-4.72000,
,,,71.999949E-9,-304.00002E-3,,,,,71.999949E-9,-4.64000,
,,,73.999949E-9,-328.00001E-3,,,,,73.999949E-9,-4.48000,
,,,75.999949E-9,-344.00001E-3,,,,,75.999949E-9,-4.64000,
,,,77.999950E-9,-360.00001E-3,,,,,77.999950E-9,-4.56000,
,,,79.999950E-9,-384.00000E-3,,,,,79.999950E-9,-4.64000,
,,,81.999950E-9,-392.00002E-3,,,,,81.999950E-9,-4.64000,
,,,83.999950E-9,-408.000022E-3,,,,,83.999950E-9,-4.56000,
,,,85.999950E-9,-408.000022E-3,,,,,85.999950E-9,-4.56000,
,,,87.999950E-9,-416.000009E-3,,,,,87.999950E-9,-4.64000,
,,,89.999951E-9,-432.000011E-3,,,,,89.999951E-9,-4.64000,
,,,91.999951E-9,-456.000030E-3,,,,,91.999951E-9,-4.48000,
,,,93.999951E-9,-464.000016E-3,,,,,93.999951E-9,-4.56000,
,,,95.999951E-9,-472.000033E-3,,,,,95.999951E-9,-4.56000,
,,,97.999951E-9,-480.000019E-3,,,,,97.999951E-9,-4.48000,
,,,99.999951E-9,-488.000035E-3,,,,,99.999951E-9,-4.48000,
,,,102.0000E-9,-488.000035E-3,,,,,102.0000E-9,-4.48000,
,,,104.0000E-9,-504.000008E-3,,,,,104.0000E-9,-4.48000,
,,,106.0000E-9,-504.000008E-3,,,,,106.0000E-9,-4.56000,
,,,108.0000E-9,-512.000024E-3,,,,,108.0000E-9,-4.56000,
,,,110.0000E-9,-512.000024E-3,,,,,110.0000E-9,-4.56000,
,,,112.0000E-9,-520.000041E-3,,,,,112.0000E-9,-4.56000,
,,,114.0000E-9,-520.000041E-3,,,,,114.0000E-9,-4.56000,
,,,116.0000E-9,-527.999997E-3,,,,,116.0000E-9,-4.48000,
,,,118.0000E-9,-536.000013E-3,,,,,118.0000E-9,-4.56000,
,,,120.0000E-9,-527.999997E-3,,,,,120.0000E-9,-4.56000,
,,,121.9999E-9,-544.000030E-3,,,,,121.9999E-9,-4.56000,
,,,124.0000E-9,-536.000013E-3,,,,,124.0000E-9,-4.48000,
