08/Figs-Tabs/parte5_con.csv

Record Length,2500,Points,-499.999966E-6,1.5600,,Record Length,2500,Points,-499.999966E-6,-4.48000,
Sample Interval,400.00000E-9,s,-499.599962E-6,1.5400,,Sample Interval,400.00000E-9,s,-499.599962E-6,-4.40000,
Trigger Point,1.2500E3,Samples,-499.199959E-6,1.5400,,Trigger Point,1.2500E3,Samples,-499.199959E-6,-4.48000,
,,,-498.799956E-6,1.5400,,,,,-498.799956E-6,-4.48000,
,,,-498.399953E-6,1.5400,,,,,-498.399953E-6,-4.48000,
,,,-497.999950E-6,1.5400,,,,,-497.999950E-6,-4.48000,
Source,CH1,,-497.599947E-6,1.5400,,Source,CH2,,-497.599947E-6,-4.48000,
Vertical Units,Volts,,-497.199944E-6,1.5400,,Vertical Units,Volts,,-497.199944E-6,-4.48000,
Vertical Scale,499.999989E-3,,-496.799941E-6,1.5400,,Vertical Scale,2.0000,,-496.799941E-6,-4.48000,
Vertical Offset,0,,-496.399938E-6,1.5600,,Vertical Offset,0,,-496.399938E-6,-4.48000,
Horizontal Units,s,,-495.999993E-6,1.5400,,Horizontal Units,s,,-495.999993E-6,-4.48000,
Horizontal Scale,100.0000E-6,,-495.599990E-6,1.5400,,Horizontal Scale,100.0000E-6,,-495.599990E-6,-4.48000,
Pt Fmt,Y,,-495.199987E-6,1.5600,,Pt Fmt,Y,,-495.199987E-6,-4.48000,
Yzero,0.0,,-494.799984E-6,1.5600,,Yzero,0.0,,-494.799984E-6,-4.48000,
Probe Atten,1.000,,-494.399981E-6,1.5600,,Probe Atten,1.000,,-494.399981E-6,-4.48000,
,,,-493.999978E-6,1.5600,,,,,-493.999978E-6,-4.48000,
Note,TDS 1012B - 17:14:48   28/11/2016,,-493.599975E-6,1.5400,,Note,TDS 1012B - 17:14:48   28/11/2016,,-493.599975E-6,-4.48000,
,,,-493.199972E-6,1.5400,,,,,-493.199972E-6,-4.48000,
,,,-492.799969E-6,1.5600,,,,,-492.799969E-6,-4.48000,
,,,-492.399966E-6,1.5400,,,,,-492.399966E-6,-4.48000,
,,,-491.999963E-6,1.5400,,,,,-491.999963E-6,-4.48000,
,,,-491.599960E-6,1.5400,,,,,-491.599960E-6,-4.48000,
,,,-491.199957E-6,1.5600,,,,,-491.199957E-6,-4.48000,
,,,-490.799954E-6,1.5600,,,,,-490.799954E-6,-4.48000,
,,,-490.399951E-6,1.5600,,,,,-490.399951E-6,-4.48000,
,,,-489.999948E-6,1.5600,,,,,-489.999948E-6,-4.48000,
,,,-489.599945E-6,1.5400,,,,,-489.599945E-6,-4.48000,
,,,-489.199942E-6,1.5600,,,,,-489.199942E-6,-4.48000,
,,,-488.799938E-6,1.5600,,,,,-488.799938E-6,-4.48000,
,,,-488.399994E-6,1.5600,,,,,-488.399994E-6,-4.48000,
,,,-487.999961E-6,1.5600,,,,,-487.999961E-6,-4.48000,
,,,-487.599958E-6,1.5600,,,,,-487.599958E-6,-4.48000,
,,,-487.199955E-6,1.5600,,,,,-487.199955E-6,-4.48000,
,,,-486.799952E-6,1.5400,,,,,-486.799952E-6,-4.48000,
,,,-486.399978E-6,1.5600,,,,,-486.399978E-6,-4.48000,
,,,-485.999975E-6,1.5600,,,,,-485.999975E-6,-4.48000,
,,,-485.599972E-6,1.5600,,,,,-485.599972E-6,-4.48000,
,,,-485.199969E-6,1.5400,,,,,-485.199969E-6,-4.48000,
,,,-484.799966E-6,1.5600,,,,,-484.799966E-6,-4.48000,
,,,-484.399963E-6,1.5600,,,,,-484.399963E-6,-4.48000,
,,,-483.999960E-6,1.5400,,,,,-483.999960E-6,-4.48000,
,,,-483.599957E-6,1.5400,,,,,-483.599957E-6,-4.48000,
,,,-483.199954E-6,1.5400,,,,,-483.199954E-6,-4.48000,
,,,-482.799951E-6,1.5600,,,,,-482.799951E-6,-4.48000,
,,,-482.399977E-6,1.5400,,,,,-482.399977E-6,-4.48000,
,,,-481.999974E-6,1.5600,,,,,-481.999974E-6,-4.48000,
,,,-481.599971E-6,1.5600,,,,,-481.599971E-6,-4.48000,
,,,-481.199968E-6,1.5400,,,,,-481.199968E-6,-4.48000,
,,,-480.799965E-6,1.5600,,,,,-480.799965E-6,-4.48000,
,,,-480.399962E-6,1.5600,,,,,-480.399962E-6,-4.48000,
,,,-479.999959E-6,1.5400,,,,,-479.999959E-6,-4.48000,
,,,-479.599956E-6,1.5600,,,,,-479.599956E-6,-4.40000,
,,,-479.199953E-6,1.5400,,,,,-479.199953E-6,-4.48000,
,,,-478.799979E-6,1.5600,,,,,-478.799979E-6,-4.48000,
,,,-478.399976E-6,1.5600,,,,,-478.399976E-6,-4.48000,
,,,-477.999973E-6,1.5400,,,,,-477.999973E-6,-4.48000,
,,,-477.599970E-6,1.5400,,,,,-477.599970E-6,-4.48000,
,,,-477.199967E-6,1.5400,,,,,-477.199967E-6,-4.48000,
,,,-476.799964E-6,1.5600,,,,,-476.799964E-6,-4.48000,
,,,-476.399960E-6,1.5400,,,,,-476.399960E-6,-4.48000,
,,,-475.999957E-6,1.5600,,,,,-475.999957E-6,-4.40000,
,,,-475.599954E-6,1.5400,,,,,-475.599954E-6,-4.40000,
,,,-475.199951E-6,1.5600,,,,,-475.199951E-6,-4.48000,
,,,-474.799977E-6,1.5400,,,,,-474.799977E-6,-4.40000,
,,,-474.399974E-6,1.5400,,,,,-474.399974E-6,-4.48000,
,,,-473.999971E-6,1.5400,,,,,-473.999971E-6,-4.40000,
,,,-473.599968E-6,1.5400,,,,,-473.599968E-6,-4.40000,
,,,-473.199965E-6,1.5400,,,,,-473.199965E-6,-4.40000,
,,,-472.799962E-6,1.5400,,,,,-472.799962E-6,-4.48000,
,,,-472.399959E-6,1.5400,,,,,-472.399959E-6,-4.40000,
,,,-471.999956E-6,1.5400,,,,,-471.999956E-6,-4.48000,
,,,-471.599953E-6,1.5400,,,,,-471.599953E-6,-4.40000,
,,,-471.199979E-6,1.5400,,,,,-471.199979E-6,-4.40000,
,,,-470.799976E-6,1.5400,,,,,-470.799976E-6,-4.40000,
,,,-470.399973E-6,1.5400,,,,,-470.399973E-6,-4.40000,
,,,-469.999970E-6,1.5400,,,,,-469.999970E-6,-4.40000,
,,,-469.599967E-6,1.5400,,,,,-469.599967E-6,-4.40000,
,,,-469.199964E-6,1.5400,,,,,-469.199964E-6,-4.40000,
,,,-468.799961E-6,1.5400,,,,,-468.799961E-6,-4.40000,
,,,-468.399958E-6,1.5200,,,,,-468.399958E-6,-4.40000,
,,,-467.999955E-6,1.5400,,,,,-467.999955E-6,-4.40000,
,,,-467.599952E-6,1.5200,,,,,-467.599952E-6,-4.40000,
,,,-467.199978E-6,1.5200,,,,,-467.199978E-6,-4.40000,
,,,-466.799975E-6,1.5200,,,,,-466.799975E-6,-4.40000,
,,,-466.399972E-6,1.5200,,,,,-466.399972E-6,-4.40000,
,,,-465.999969E-6,1.5200,,,,,-465.999969E-6,-4.40000,
,,,-465.599966E-6,1.5200,,,,,-465.599966E-6,-4.40000,
,,,-465.199962E-6,1.5000,,,,,-465.199962E-6,-4.40000,
,,,-464.799959E-6,1.5200,,,,,-464.799959E-6,-4.40000,
,,,-464.399956E-6,1.5000,,,,,-464.399956E-6,-4.40000,
,,,-463.999953E-6,1.5200,,,,,-463.999953E-6,-4.32000,
,,,-463.599979E-6,1.5200,,,,,-463.599979E-6,-4.40000,
,,,-463.199976E-6,1.5000,,,,,-463.199976E-6,-4.32000,
,,,-462.799973E-6,1.5200,,,,,-462.799973E-6,-4.40000,
,,,-462.399970E-6,1.5000,,,,,-462.399970E-6,-4.32000,
,,,-461.999967E-6,1.5200,,,,,-461.999967E-6,-4.40000,
,,,-461.599964E-6,1.5000,,,,,-461.599964E-6,-4.40000,
,,,-461.199961E-6,1.5000,,,,,-461.199961E-6,-4.32000,
,,,-460.799958E-6,1.5000,,,,,-460.799958E-6,-4.32000,
,,,-460.399955E-6,1.5000,,,,,-460.399955E-6,-4.32000,
,,,-459.999952E-6,1.4800,,,,,-459.999952E-6,-4.32000,
,,,-459.599978E-6,1.5000,,,,,-459.599978E-6,-4.32000,
,,,-459.199975E-6,1.4800,,,,,-459.199975E-6,-4.32000,
,,,-458.799972E-6,1.5000,,,,,-458.799972E-6,-4.32000,
,,,-458.399969E-6,1.4800,,,,,-458.399969E-6,-4.32000,
,,,-457.999966E-6,1.4800,,,,,-457.999966E-6,-4.32000,
,,,-457.599963E-6,1.4800,,,,,-457.599963E-6,-4.32000,
,,,-457.199960E-6,1.4800,,,,,-457.199960E-6,-4.24000,
,,,-456.799957E-6,1.4800,,,,,-456.799957E-6,-4.32000,
,,,-456.399954E-6,1.4800,,,,,-456.399954E-6,-4.32000,
,,,-455.999951E-6,1.4600,,,,,-455.999951E-6,-4.32000,
,,,-455.599977E-6,1.4800,,,,,-455.599977E-6,-4.24000,
,,,-455.199974E-6,1.4800,,,,,-455.199974E-6,-4.32000,
,,,-454.799971E-6,1.4800,,,,,-454.799971E-6,-4.24000,
,,,-454.399968E-6,1.4800,,,,,-454.399968E-6,-4.24000,
,,,-453.999965E-6,1.4600,,,,,-453.999965E-6,-4.24000,
,,,-453.599961E-6,1.4800,,,,,-453.599961E-6,-4.24000,
,,,-453.199958E-6,1.4600,,,,,-453.199958E-6,-4.24000,
,,,-452.799955E-6,1.4600,,,,,-452.799955E-6,-4.24000,
,,,-452.399952E-6,1.4600,,,,,-452.399952E-6,-4.24000,
,,,-451.999978E-6,1.4400,,,,,-451.999978E-6,-4.24000,
,,,-451.599975E-6,1.4600,,,,,-451.599975E-6,-4.24000,
,,,-451.199972E-6,1.4600,,,,,-451.199972E-6,-4.24000,
,,,-450.799969E-6,1.4600,,,,,-450.799969E-6,-4.24000,
,,,-450.399966E-6,1.4600,,,,,-450.399966E-6,-4.24000,
,,,-449.999963E-6,1.4600,,,,,-449.999963E-6,-4.24000,
,,,-449.599960E-6,1.4600,,,,,-449.599960E-6,-4.16000,
,,,-449.199957E-6,1.4600,,,,,-449.199957E-6,-4.16000,
,,,-448.799954E-6,1.4400,,,,,-448.799954E-6,-4.16000,
,,,-448.399951E-6,1.4400,,,,,-448.399951E-6,-4.24000,
,,,-447.999977E-6,1.4400,,,,,-447.999977E-6,-4.16000,
,,,-447.599974E-6,1.4200,,,,,-447.599974E-6,-4.16000,
,,,-447.199971E-6,1.4400,,,,,-447.199971E-6,-4.16000,
,,,-446.799968E-6,1.4400,,,,,-446.799968E-6,-4.16000,
,,,-446.399965E-6,1.4400,,,,,-446.399965E-6,-4.16000,
,,,-445.999962E-6,1.4200,,,,,-445.999962E-6,-4.08000,
,,,-445.599959E-6,1.4200,,,,,-445.599959E-6,-4.16000,
,,,-445.199956E-6,1.4200,,,,,-445.199956E-6,-4.16000,
,,,-444.799953E-6,1.4400,,,,,-444.799953E-6,-4.16000,
,,,-444.399979E-6,1.4200,,,,,-444.399979E-6,-4.08000,
,,,-443.999976E-6,1.4000,,,,,-443.999976E-6,-4.16000,
,,,-443.599973E-6,1.4000,,,,,-443.599973E-6,-4.08000,
,,,-443.199970E-6,1.4000,,,,,-443.199970E-6,-4.08000,
,,,-442.799967E-6,1.4000,,,,,-442.799967E-6,-4.08000,
,,,-442.399964E-6,1.4000,,,,,-442.399964E-6,-4.08000,
,,,-441.999960E-6,1.4000,,,,,-441.999960E-6,-4.08000,
,,,-441.599957E-6,1.4000,,,,,-441.599957E-6,-4.08000,
,,,-441.199954E-6,1.4000,,,,,-441.199954E-6,-4.08000,
,,,-440.799951E-6,1.4000,,,,,-440.799951E-6,-4.08000,
,,,-440.399977E-6,1.3800,,,,,-440.399977E-6,-4.08000,
,,,-439.999974E-6,1.3800,,,,,-439.999974E-6,-4.00000,
,,,-439.599971E-6,1.3800,,,,,-439.599971E-6,-4.00000,
,,,-439.199968E-6,1.3800,,,,,-439.199968E-6,-4.08000,
,,,-438.799965E-6,1.3800,,,,,-438.799965E-6,-4.00000,
,,,-438.399962E-6,1.3800,,,,,-438.399962E-6,-4.08000,
,,,-437.999959E-6,1.3800,,,,,-437.999959E-6,-4.08000,
,,,-437.599956E-6,1.3600,,,,,-437.599956E-6,-4.00000,
,,,-437.199953E-6,1.3600,,,,,-437.199953E-6,-4.00000,
,,,-436.799979E-6,1.3800,,,,,-436.799979E-6,-4.00000,
,,,-436.399976E-6,1.3600,,,,,-436.399976E-6,-4.00000,
,,,-435.999973E-6,1.3600,,,,,-435.999973E-6,-4.00000,
,,,-435.599970E-6,1.3600,,,,,-435.599970E-6,-3.92000,
,,,-435.199967E-6,1.3400,,,,,-435.199967E-6,-4.00000,
,,,-434.799964E-6,1.3600,,,,,-434.799964E-6,-4.00000,
,,,-434.399961E-6,1.3400,,,,,-434.399961E-6,-3.92000,
,,,-433.999958E-6,1.3400,,,,,-433.999958E-6,-3.92000,
,,,-433.599955E-6,1.3400,,,,,-433.599955E-6,-3.92000,
,,,-433.199952E-6,1.3400,,,,,-433.199952E-6,-3.92000,
,,,-432.799978E-6,1.3400,,,,,-432.799978E-6,-3.92000,
,,,-432.399975E-6,1.3400,,,,,-432.399975E-6,-3.92000,
,,,-431.999972E-6,1.3200,,,,,-431.999972E-6,-3.92000,
,,,-431.599969E-6,1.3400,,,,,-431.599969E-6,-3.92000,
,,,-431.199966E-6,1.3200,,,,,-431.199966E-6,-3.92000,
,,,-430.799962E-6,1.3400,,,,,-430.799962E-6,-3.92000,
,,,-430.399959E-6,1.3200,,,,,-430.399959E-6,-3.92000,
,,,-429.999956E-6,1.3200,,,,,-429.999956E-6,-3.84000,
,,,-429.599953E-6,1.3200,,,,,-429.599953E-6,-3.92000,
,,,-429.199950E-6,1.3000,,,,,-429.199950E-6,-3.84000,
,,,-428.799976E-6,1.3000,,,,,-428.799976E-6,-3.84000,
,,,-428.399973E-6,1.3000,,,,,-428.399973E-6,-3.84000,
,,,-427.999970E-6,1.3000,,,,,-427.999970E-6,-3.84000,
,,,-427.599967E-6,1.3000,,,,,-427.599967E-6,-3.84000,
,,,-427.199964E-6,1.3000,,,,,-427.199964E-6,-3.84000,
,,,-426.799961E-6,1.2800,,,,,-426.799961E-6,-3.84000,
,,,-426.399958E-6,1.3000,,,,,-426.399958E-6,-3.84000,
,,,-425.999955E-6,1.2800,,,,,-425.999955E-6,-3.76000,
,,,-425.599952E-6,1.2800,,,,,-425.599952E-6,-3.76000,
,,,-425.199978E-6,1.2800,,,,,-425.199978E-6,-3.76000,
,,,-424.799975E-6,1.2800,,,,,-424.799975E-6,-3.76000,
,,,-424.399972E-6,1.2800,,,,,-424.399972E-6,-3.76000,
,,,-423.999969E-6,1.2800,,,,,-423.999969E-6,-3.76000,
,,,-423.599966E-6,1.2600,,,,,-423.599966E-6,-3.68000,
,,,-423.199963E-6,1.2600,,,,,-423.199963E-6,-3.76000,
,,,-422.799960E-6,1.2600,,,,,-422.799960E-6,-3.68000,
,,,-422.399957E-6,1.2600,,,,,-422.399957E-6,-3.68000,
,,,-421.999954E-6,1.2400,,,,,-421.999954E-6,-3.68000,
,,,-421.599951E-6,1.2600,,,,,-421.599951E-6,-3.68000,
,,,-421.199977E-6,1.2600,,,,,-421.199977E-6,-3.68000,
,,,-420.799974E-6,1.2600,,,,,-420.799974E-6,-3.68000,
,,,-420.399971E-6,1.2400,,,,,-420.399971E-6,-3.68000,
,,,-419.999968E-6,1.2400,,,,,-419.999968E-6,-3.68000,
,,,-419.599965E-6,1.2200,,,,,-419.599965E-6,-3.60000,
,,,-419.199961E-6,1.2400,,,,,-419.199961E-6,-3.68000,
,,,-418.799958E-6,1.2200,,,,,-418.799958E-6,-3.60000,
,,,-418.399955E-6,1.2200,,,,,-418.399955E-6,-3.60000,
,,,-417.999952E-6,1.2200,,,,,-417.999952E-6,-3.60000,
,,,-417.599978E-6,1.2200,,,,,-417.599978E-6,-3.60000,
,,,-417.199975E-6,1.2200,,,,,-417.199975E-6,-3.60000,
,,,-416.799972E-6,1.2200,,,,,-416.799972E-6,-3.60000,
,,,-416.399969E-6,1.2000,,,,,-416.399969E-6,-3.60000,
,,,-415.999966E-6,1.2000,,,,,-415.999966E-6,-3.52000,
,,,-415.599963E-6,1.1800,,,,,-415.599963E-6,-3.60000,
,,,-415.199960E-6,1.2000,,,,,-415.199960E-6,-3.52000,
,,,-414.799957E-6,1.1800,,,,,-414.799957E-6,-3.52000,
,,,-414.399954E-6,1.1800,,,,,-414.399954E-6,-3.52000,
,,,-413.999951E-6,1.1800,,,,,-413.999951E-6,-3.52000,
,,,-413.599977E-6,1.1600,,,,,-413.599977E-6,-3.52000,
,,,-413.199974E-6,1.1800,,,,,-413.199974E-6,-3.44000,
,,,-412.799971E-6,1.1800,,,,,-412.799971E-6,-3.44000,
,,,-412.399968E-6,1.1600,,,,,-412.399968E-6,-3.44000,
,,,-411.999965E-6,1.1600,,,,,-411.999965E-6,-3.44000,
,,,-411.599962E-6,1.1600,,,,,-411.599962E-6,-3.44000,
,,,-411.199959E-6,1.1600,,,,,-411.199959E-6,-3.44000,
,,,-410.799956E-6,1.1400,,,,,-410.799956E-6,-3.44000,
,,,-410.399953E-6,1.1600,,,,,-410.399953E-6,-3.44000,
,,,-409.999979E-6,1.1600,,,,,-409.999979E-6,-3.44000,
,,,-409.599976E-6,1.1400,,,,,-409.599976E-6,-3.44000,
,,,-409.199973E-6,1.1400,,,,,-409.199973E-6,-3.44000,
,,,-408.799970E-6,1.1200,,,,,-408.799970E-6,-3.36000,
,,,-408.399967E-6,1.1400,,,,,-408.399967E-6,-3.44000,
,,,-407.999963E-6,1.1200,,,,,-407.999963E-6,-3.36000,
,,,-407.599960E-6,1.1200,,,,,-407.599960E-6,-3.36000,
,,,-407.199957E-6,1.1200,,,,,-407.199957E-6,-3.36000,
,,,-406.799954E-6,1.1000,,,,,-406.799954E-6,-3.36000,
,,,-406.399951E-6,1.1000,,,,,-406.399951E-6,-3.36000,
,,,-405.999977E-6,1.1000,,,,,-405.999977E-6,-3.28000,
,,,-405.599974E-6,1.1000,,,,,-405.599974E-6,-3.28000,
,,,-405.199971E-6,1.0800,,,,,-405.199971E-6,-3.36000,
,,,-404.799968E-6,1.0800,,,,,-404.799968E-6,-3.28000,
,,,-404.399965E-6,1.0800,,,,,-404.399965E-6,-3.36000,
,,,-403.999962E-6,1.0800,,,,,-403.999962E-6,-3.20000,
,,,-403.599959E-6,1.0600,,,,,-403.599959E-6,-3.28000,
,,,-403.19996E-6,1.0800,,,,,-403.19996E-6,-3.20000,
,,,-402.79995E-6,1.0800,,,,,-402.79995E-6,-3.20000,
,,,-402.39995E-6,1.0600,,,,,-402.39995E-6,-3.20000,
,,,-401.99998E-6,1.0600,,,,,-401.99998E-6,-3.20000,
,,,-401.59997E-6,1.0600,,,,,-401.59997E-6,-3.20000,
,,,-401.19997E-6,1.0600,,,,,-401.19997E-6,-3.20000,
,,,-400.79997E-6,1.0600,,,,,-400.79997E-6,-3.20000,
,,,-400.39996E-6,1.0600,,,,,-400.39996E-6,-3.20000,
,,,-399.99996E-6,1.0400,,,,,-399.99996E-6,-3.12000,
,,,-399.59996E-6,1.0200,,,,,-399.59996E-6,-3.12000,
,,,-399.19995E-6,1.0400,,,,,-399.19995E-6,-3.12000,
,,,-398.79995E-6,1.0200,,,,,-398.79995E-6,-3.12000,
,,,-398.39998E-6,1.0200,,,,,-398.39998E-6,-3.12000,
,,,-397.99997E-6,1.0200,,,,,-397.99997E-6,-3.12000,
,,,-397.59997E-6,1.0200,,,,,-397.59997E-6,-3.04000,
,,,-397.19997E-6,1.0200,,,,,-397.19997E-6,-3.12000,
,,,-396.79997E-6,1.000,,,,,-396.79997E-6,-3.12000,
,,,-396.39996E-6,1.0200,,,,,-396.39996E-6,-3.04000,
,,,-395.99996E-6,1.000,,,,,-395.99996E-6,-3.04000,
,,,-395.59996E-6,1.000,,,,,-395.59996E-6,-3.04000,
,,,-395.19995E-6,1.000,,,,,-395.19995E-6,-3.04000,
,,,-394.79995E-6,979.999959E-3,,,,,-394.79995E-6,-2.96000,
,,,-394.39998E-6,979.999959E-3,,,,,-394.39998E-6,-2.96000,
,,,-393.99997E-6,979.999959E-3,,,,,-393.99997E-6,-2.96000,
,,,-393.59997E-6,979.999959E-3,,,,,-393.59997E-6,-2.96000,
,,,-393.19997E-6,979.999959E-3,,,,,-393.19997E-6,-2.96000,
,,,-392.79996E-6,959.999979E-3,,,,,-392.79996E-6,-2.88000,
,,,-392.39996E-6,959.999979E-3,,,,,-392.39996E-6,-2.96000,
,,,-391.99996E-6,959.999979E-3,,,,,-391.99996E-6,-2.88000,
,,,-391.59996E-6,939.999998E-3,,,,,-391.59996E-6,-2.88000,
,,,-391.19995E-6,939.999998E-3,,,,,-391.19995E-6,-2.88000,
,,,-390.79998E-6,939.999998E-3,,,,,-390.79998E-6,-2.88000,
,,,-390.39998E-6,939.999998E-3,,,,,-390.39998E-6,-2.88000,
,,,-389.99997E-6,939.999998E-3,,,,,-389.99997E-6,-2.80000,
,,,-389.59997E-6,919.999957E-3,,,,,-389.59997E-6,-2.88000,
,,,-389.19997E-6,939.999998E-3,,,,,-389.19997E-6,-2.88000,
,,,-388.79996E-6,919.999957E-3,,,,,-388.79996E-6,-2.80000,
,,,-388.39996E-6,919.999957E-3,,,,,-388.39996E-6,-2.80000,
,,,-387.99996E-6,899.999976E-3,,,,,-387.99996E-6,-2.80000,
,,,-387.59995E-6,919.999957E-3,,,,,-387.59995E-6,-2.80000,
,,,-387.19995E-6,899.999976E-3,,,,,-387.19995E-6,-2.72000,
,,,-386.79998E-6,899.999976E-3,,,,,-386.79998E-6,-2.80000,
,,,-386.39997E-6,899.999976E-3,,,,,-386.39997E-6,-2.72000,
,,,-385.99997E-6,899.999976E-3,,,,,-385.99997E-6,-2.80000,
,,,-385.59997E-6,879.999995E-3,,,,,-385.59997E-6,-2.72000,
,,,-385.19996E-6,879.999995E-3,,,,,-385.19996E-6,-2.72000,
,,,-384.79996E-6,879.999995E-3,,,,,-384.79996E-6,-2.6400,
,,,-384.39996E-6,859.999955E-3,,,,,-384.39996E-6,-2.72000,
,,,-383.99996E-6,879.999995E-3,,,,,-383.99996E-6,-2.72000,
,,,-383.59995E-6,859.999955E-3,,,,,-383.59995E-6,-2.6400,
,,,-383.19998E-6,859.999955E-3,,,,,-383.19998E-6,-2.6400,
,,,-382.79998E-6,839.999974E-3,,,,,-382.79998E-6,-2.6400,
,,,-382.39997E-6,839.999974E-3,,,,,-382.39997E-6,-2.6400,
,,,-381.99997E-6,839.999974E-3,,,,,-381.99997E-6,-2.6400,
,,,-381.59997E-6,839.999974E-3,,,,,-381.59997E-6,-2.6400,
,,,-381.19996E-6,839.999974E-3,,,,,-381.19996E-6,-2.5600,
,,,-380.79996E-6,819.999993E-3,,,,,-380.79996E-6,-2.5600,
,,,-380.39996E-6,819.999993E-3,,,,,-380.39996E-6,-2.5600,
,,,-379.99995E-6,819.999993E-3,,,,,-379.99995E-6,-2.5600,
,,,-379.59995E-6,819.999993E-3,,,,,-379.59995E-6,-2.5600,
,,,-379.19998E-6,799.999952E-3,,,,,-379.19998E-6,-2.5600,
,,,-378.79997E-6,799.999952E-3,,,,,-378.79997E-6,-2.4800,
,,,-378.39997E-6,779.999971E-3,,,,,-378.39997E-6,-2.4800,
,,,-377.99997E-6,799.999952E-3,,,,,-377.99997E-6,-2.4800,
,,,-377.59996E-6,799.999952E-3,,,,,-377.59996E-6,-2.4800,
,,,-377.19996E-6,779.999971E-3,,,,,-377.19996E-6,-2.4800,
,,,-376.79996E-6,779.999971E-3,,,,,-376.79996E-6,-2.4800,
,,,-376.39996E-6,779.999971E-3,,,,,-376.39996E-6,-2.4000,
,,,-375.99995E-6,759.999990E-3,,,,,-375.99995E-6,-2.4000,
,,,-375.59995E-6,779.999971E-3,,,,,-375.59995E-6,-2.4000,
,,,-375.19998E-6,779.999971E-3,,,,,-375.19998E-6,-2.4800,
,,,-374.79997E-6,759.999990E-3,,,,,-374.79997E-6,-2.4000,
,,,-374.39997E-6,740.000010E-3,,,,,-374.39997E-6,-2.4000,
,,,-373.99997E-6,740.000010E-3,,,,,-373.99997E-6,-2.4000,
,,,-373.59996E-6,740.000010E-3,,,,,-373.59996E-6,-2.3200,
,,,-373.19996E-6,740.000010E-3,,,,,-373.19996E-6,-2.3200,
,,,-372.79996E-6,740.000010E-3,,,,,-372.79996E-6,-2.3200,
,,,-372.39995E-6,719.999969E-3,,,,,-372.39995E-6,-2.3200,
,,,-371.99995E-6,719.999969E-3,,,,,-371.99995E-6,-2.3200,
,,,-371.59998E-6,719.999969E-3,,,,,-371.59998E-6,-2.2400,
,,,-371.19997E-6,719.999969E-3,,,,,-371.19997E-6,-2.2400,
,,,-370.79997E-6,719.999969E-3,,,,,-370.79997E-6,-2.2400,
,,,-370.39997E-6,699.999988E-3,,,,,-370.39997E-6,-2.2400,
,,,-369.99997E-6,699.999988E-3,,,,,-369.99997E-6,-2.2400,
,,,-369.59996E-6,680.000007E-3,,,,,-369.59996E-6,-2.2400,
,,,-369.19996E-6,699.999988E-3,,,,,-369.19996E-6,-2.2400,
,,,-368.79996E-6,699.999988E-3,,,,,-368.79996E-6,-2.1600,
,,,-368.39995E-6,680.000007E-3,,,,,-368.39995E-6,-2.1600,
,,,-367.99995E-6,680.000007E-3,,,,,-367.99995E-6,-2.1600,
,,,-367.59998E-6,659.999967E-3,,,,,-367.59998E-6,-2.1600,
,,,-367.19997E-6,659.999967E-3,,,,,-367.19997E-6,-2.1600,
,,,-366.79997E-6,659.999967E-3,,,,,-366.79997E-6,-2.0800,
,,,-366.39997E-6,639.999986E-3,,,,,-366.39997E-6,-2.0800,
,,,-365.99996E-6,659.999967E-3,,,,,-365.99996E-6,-2.0800,
,,,-365.59996E-6,659.999967E-3,,,,,-365.59996E-6,-2.0800,
,,,-365.19996E-6,639.999986E-3,,,,,-365.19996E-6,-2.0800,
,,,-364.79995E-6,639.999986E-3,,,,,-364.79995E-6,-2.0000,
,,,-364.39995E-6,620.000005E-3,,,,,-364.39995E-6,-2.0000,
,,,-363.99998E-6,620.000005E-3,,,,,-363.99998E-6,-2.0000,
,,,-363.59997E-6,620.000005E-3,,,,,-363.59997E-6,-2.0000,
,,,-363.19997E-6,599.999964E-3,,,,,-363.19997E-6,-2.0000,
,,,-362.79997E-6,599.999964E-3,,,,,-362.79997E-6,-2.0000,
,,,-362.39997E-6,599.999964E-3,,,,,-362.39997E-6,-1.9200,
,,,-361.99996E-6,599.999964E-3,,,,,-361.99996E-6,-1.9200,
,,,-361.59996E-6,599.999964E-3,,,,,-361.59996E-6,-1.9200,
,,,-361.19996E-6,599.999964E-3,,,,,-361.19996E-6,-1.9200,
,,,-360.79995E-6,579.999983E-3,,,,,-360.79995E-6,-1.9200,
,,,-360.39995E-6,579.999983E-3,,,,,-360.39995E-6,-1.9200,
,,,-359.99998E-6,560.000002E-3,,,,,-359.99998E-6,-1.9200,
,,,-359.59997E-6,579.999983E-3,,,,,-359.59997E-6,-1.8400,
,,,-359.19997E-6,560.000002E-3,,,,,-359.19997E-6,-1.8400,
,,,-358.79997E-6,560.000002E-3,,,,,-358.79997E-6,-1.8400,
