04/Dati/a.txt

Record Length,2500,Points,1.4750E-3,72.000004E-3,,Record Length,2500,Points,1.4750E-3,-5.60000,
Sample Interval,100.0000E-9,s,1.4751E-3,80.000006E-3,,Sample Interval,100.0000E-9,s,1.4751E-3,-5.60000,
Trigger Point,-14.7500E3,Samples,1.4752E-3,72.000004E-3,,Trigger Point,-14.7500E3,Samples,1.4752E-3,-5.60000,
,,,1.4753E-3,72.000004E-3,,,,,1.4753E-3,-5.60000,
,,,1.4754E-3,72.000004E-3,,,,,1.4754E-3,-6.00000,
,,,1.4755E-3,76.000005E-3,,,,,1.4755E-3,-5.80000,
Source,CH1,,1.4756E-3,76.000005E-3,,Source,CH2,,1.4756E-3,-5.60000,
Vertical Units,Volts,,1.4757E-3,76.000005E-3,,Vertical Units,Volts,,1.4757E-3,-5.80000,
Vertical Scale,100.0000E-3,,1.4758E-3,76.000005E-3,,Vertical Scale,5.00000,,1.4758E-3,-5.80000,
Vertical Offset,0,,1.4759E-3,76.000005E-3,,Vertical Offset,0,,1.4759E-3,-6.00000,
Horizontal Units,s,,1.4760E-3,72.000004E-3,,Horizontal Units,s,,1.4760E-3,-6.00000,
Horizontal Scale,25.00000E-6,,1.4761E-3,76.000005E-3,,Horizontal Scale,25.00000E-6,,1.4761E-3,-6.00000,
Pt Fmt,Y,,1.4762E-3,72.000004E-3,,Pt Fmt,Y,,1.4762E-3,-6.00000,
Yzero,0.0,,1.4763E-3,76.000005E-3,,Yzero,0.0,,1.4763E-3,-6.00000,
Probe Atten,1.000,,1.4764E-3,76.000005E-3,,Probe Atten,1.000,,1.4764E-3,-6.00000,
,,,1.4765E-3,84.000006E-3,,,,,1.4765E-3,-6.20000,
Note,TDS 1012B - 18:36:48   24/10/2016,,1.4766E-3,84.000006E-3,,Note,TDS 1012B - 18:36:48   24/10/2016,,1.4766E-3,-6.00000,
,,,1.4767E-3,80.000006E-3,,,,,1.4767E-3,-6.00000,
,,,1.4768E-3,84.000006E-3,,,,,1.4768E-3,-6.40000,
,,,1.4769E-3,84.000006E-3,,,,,1.4769E-3,-6.40000,
,,,1.4770E-3,84.000006E-3,,,,,1.4770E-3,-6.60000,
,,,1.4771E-3,80.000006E-3,,,,,1.4771E-3,-6.40000,
,,,1.4772E-3,80.000006E-3,,,,,1.4772E-3,-6.40000,
,,,1.4773E-3,84.000006E-3,,,,,1.4773E-3,-6.40000,
,,,1.4774E-3,84.000006E-3,,,,,1.4774E-3,-6.60000,
,,,1.4775E-3,88.000007E-3,,,,,1.4775E-3,-6.60000,
,,,1.4776E-3,88.000007E-3,,,,,1.4776E-3,-6.80000,
,,,1.4777E-3,88.000007E-3,,,,,1.4777E-3,-6.60000,
,,,1.4778E-3,88.000007E-3,,,,,1.4778E-3,-6.60000,
,,,1.4779E-3,88.000007E-3,,,,,1.4779E-3,-6.80000,
,,,1.4780E-3,84.000006E-3,,,,,1.4780E-3,-6.80000,
,,,1.4781E-3,84.000006E-3,,,,,1.4781E-3,-6.60000,
,,,1.4782E-3,92.000008E-3,,,,,1.4782E-3,-7.00000,
,,,1.4783E-3,92.000008E-3,,,,,1.4783E-3,-7.00000,
,,,1.4784E-3,88.000007E-3,,,,,1.4784E-3,-7.00000,
,,,1.4785E-3,88.000007E-3,,,,,1.4785E-3,-7.20000,
,,,1.4786E-3,92.000008E-3,,,,,1.4786E-3,-7.20000,
,,,1.4787E-3,84.000006E-3,,,,,1.4787E-3,-7.00000,
,,,1.4788E-3,88.000007E-3,,,,,1.4788E-3,-7.20000,
,,,1.4789E-3,92.000008E-3,,,,,1.4789E-3,-7.20000,
,,,1.4790E-3,92.000008E-3,,,,,1.4790E-3,-7.20000,
,,,1.4791E-3,88.000007E-3,,,,,1.4791E-3,-7.400000,
,,,1.4792E-3,96.000001E-3,,,,,1.4792E-3,-7.400000,
,,,1.4793E-3,92.000008E-3,,,,,1.4793E-3,-7.400000,
,,,1.4794E-3,92.000008E-3,,,,,1.4794E-3,-7.400000,
,,,1.4795E-3,92.000008E-3,,,,,1.4795E-3,-7.600000,
,,,1.4796E-3,88.000007E-3,,,,,1.4796E-3,-7.600000,
,,,1.4797E-3,88.000007E-3,,,,,1.4797E-3,-7.600000,
,,,1.4798E-3,100.0000E-3,,,,,1.4798E-3,-7.600000,
,,,1.4799E-3,96.000001E-3,,,,,1.4799E-3,-7.600000,
,,,1.4800E-3,96.000001E-3,,,,,1.4800E-3,-8.000000,
,,,1.4801E-3,96.000001E-3,,,,,1.4801E-3,-8.000000,
,,,1.4802E-3,100.0000E-3,,,,,1.4802E-3,-7.800000,
,,,1.4803E-3,92.000008E-3,,,,,1.4803E-3,-8.000000,
,,,1.4804E-3,96.000001E-3,,,,,1.4804E-3,-7.800000,
,,,1.4805E-3,100.0000E-3,,,,,1.4805E-3,-7.800000,
,,,1.4806E-3,104.0000E-3,,,,,1.4806E-3,-8.000000,
,,,1.4807E-3,104.0000E-3,,,,,1.4807E-3,-8.000000,
,,,1.4808E-3,104.0000E-3,,,,,1.4808E-3,-8.200000,
,,,1.4809E-3,100.0000E-3,,,,,1.4809E-3,-8.200000,
,,,1.4810E-3,104.0000E-3,,,,,1.4810E-3,-8.200000,
,,,1.4811E-3,104.0000E-3,,,,,1.4811E-3,-8.000000,
,,,1.4812E-3,96.000001E-3,,,,,1.4812E-3,-8.200000,
,,,1.4813E-3,96.000001E-3,,,,,1.4813E-3,-8.200000,
,,,1.4814E-3,104.0000E-3,,,,,1.4814E-3,-8.400001,
,,,1.4815E-3,104.0000E-3,,,,,1.4815E-3,-8.400001,
,,,1.4816E-3,104.0000E-3,,,,,1.4816E-3,-8.400001,
,,,1.4817E-3,104.0000E-3,,,,,1.4817E-3,-8.400001,
,,,1.4818E-3,104.0000E-3,,,,,1.4818E-3,-8.400001,
,,,1.4819E-3,108.0000E-3,,,,,1.4819E-3,-8.600000,
,,,1.4820E-3,108.0000E-3,,,,,1.4820E-3,-8.600000,
,,,1.4821E-3,108.0000E-3,,,,,1.4821E-3,-8.400001,
,,,1.4822E-3,108.0000E-3,,,,,1.4822E-3,-8.600000,
,,,1.4823E-3,108.0000E-3,,,,,1.4823E-3,-8.600000,
,,,1.4824E-3,108.0000E-3,,,,,1.4824E-3,-8.600000,
,,,1.4825E-3,112.0000E-3,,,,,1.4825E-3,-8.800000,
,,,1.4826E-3,104.0000E-3,,,,,1.4826E-3,-8.800000,
,,,1.4827E-3,108.0000E-3,,,,,1.4827E-3,-8.800000,
,,,1.4828E-3,108.0000E-3,,,,,1.4828E-3,-9.000000,
,,,1.4829E-3,104.0000E-3,,,,,1.4829E-3,-8.800000,
,,,1.4830E-3,108.0000E-3,,,,,1.4830E-3,-9.200000,
,,,1.4831E-3,108.0000E-3,,,,,1.4831E-3,-8.800000,
,,,1.4832E-3,112.0000E-3,,,,,1.4832E-3,-9.000000,
,,,1.4833E-3,112.0000E-3,,,,,1.4833E-3,-8.800000,
,,,1.4834E-3,112.0000E-3,,,,,1.4834E-3,-9.000000,
,,,1.4835E-3,112.0000E-3,,,,,1.4835E-3,-9.000000,
,,,1.4836E-3,112.0000E-3,,,,,1.4836E-3,-9.200000,
,,,1.4837E-3,112.0000E-3,,,,,1.4837E-3,-9.000000,
,,,1.4838E-3,112.0000E-3,,,,,1.4838E-3,-9.200000,
,,,1.4839E-3,116.0000E-3,,,,,1.4839E-3,-9.400001,
,,,1.4840E-3,116.0000E-3,,,,,1.4840E-3,-9.400001,
,,,1.4841E-3,116.0000E-3,,,,,1.4841E-3,-9.200000,
,,,1.4842E-3,116.0000E-3,,,,,1.4842E-3,-9.400001,
,,,1.4843E-3,116.0000E-3,,,,,1.4843E-3,-9.600000,
,,,1.4844E-3,116.0000E-3,,,,,1.4844E-3,-9.400001,
,,,1.4845E-3,116.0000E-3,,,,,1.4845E-3,-9.600000,
,,,1.4846E-3,108.0000E-3,,,,,1.4846E-3,-9.200000,
,,,1.4847E-3,120.0000E-3,,,,,1.4847E-3,-9.600000,
,,,1.4848E-3,116.0000E-3,,,,,1.4848E-3,-9.400001,
,,,1.4849E-3,120.0000E-3,,,,,1.4849E-3,-9.600000,
,,,1.4850E-3,124.0000E-3,,,,,1.4850E-3,-9.800000,
,,,1.4851E-3,124.0000E-3,,,,,1.4851E-3,-9.800000,
,,,1.4852E-3,116.0000E-3,,,,,1.4852E-3,-9.800000,
,,,1.4853E-3,116.0000E-3,,,,,1.4853E-3,-9.800000,
,,,1.4854E-3,120.0000E-3,,,,,1.4854E-3,-9.800000,
,,,1.4855E-3,120.0000E-3,,,,,1.4855E-3,-9.800000,
,,,1.4856E-3,120.0000E-3,,,,,1.4856E-3,-10.0000,
,,,1.4857E-3,120.0000E-3,,,,,1.4857E-3,-10.0000,
,,,1.4858E-3,124.0000E-3,,,,,1.4858E-3,-10.0000,
,,,1.4859E-3,120.0000E-3,,,,,1.4859E-3,-10.0000,
,,,1.4860E-3,120.0000E-3,,,,,1.4860E-3,-10.0000,
,,,1.4861E-3,124.0000E-3,,,,,1.4861E-3,-10.2000,
,,,1.4862E-3,120.0000E-3,,,,,1.4862E-3,-10.0000,
,,,1.4863E-3,120.0000E-3,,,,,1.4863E-3,-10.0000,
,,,1.4864E-3,128.0000E-3,,,,,1.4864E-3,-10.2000,
,,,1.4865E-3,128.0000E-3,,,,,1.4865E-3,-10.0000,
,,,1.4866E-3,124.0000E-3,,,,,1.4866E-3,-10.2000,
,,,1.4867E-3,120.0000E-3,,,,,1.4867E-3,-10.4000,
,,,1.4868E-3,128.0000E-3,,,,,1.4868E-3,-10.4000,
,,,1.4869E-3,124.0000E-3,,,,,1.4869E-3,-10.4000,
,,,1.4870E-3,124.0000E-3,,,,,1.4870E-3,-10.2000,
,,,1.4871E-3,124.0000E-3,,,,,1.4871E-3,-10.4000,
,,,1.4872E-3,124.0000E-3,,,,,1.4872E-3,-10.4000,
,,,1.4873E-3,124.0000E-3,,,,,1.4873E-3,-10.4000,
,,,1.4874E-3,128.0000E-3,,,,,1.4874E-3,-10.6000,
,,,1.4875E-3,132.0000E-3,,,,,1.4875E-3,-10.6000,
,,,1.4876E-3,128.0000E-3,,,,,1.4876E-3,-10.6000,
,,,1.4877E-3,128.0000E-3,,,,,1.4877E-3,-10.6000,
,,,1.4878E-3,128.0000E-3,,,,,1.4878E-3,-10.4000,
,,,1.4879E-3,124.0000E-3,,,,,1.4879E-3,-10.4000,
,,,1.4880E-3,124.0000E-3,,,,,1.4880E-3,-10.6000,
,,,1.4881E-3,128.0000E-3,,,,,1.4881E-3,-10.8000,
,,,1.4882E-3,128.0000E-3,,,,,1.4882E-3,-10.8000,
,,,1.4883E-3,132.0000E-3,,,,,1.4883E-3,-10.8000,
,,,1.4884E-3,128.0000E-3,,,,,1.4884E-3,-10.6000,
,,,1.4885E-3,132.0000E-3,,,,,1.4885E-3,-10.8000,
,,,1.4886E-3,124.0000E-3,,,,,1.4886E-3,-10.8000,
,,,1.4887E-3,128.0000E-3,,,,,1.4887E-3,-10.6000,
,,,1.4888E-3,128.0000E-3,,,,,1.4888E-3,-10.8000,
,,,1.4889E-3,128.0000E-3,,,,,1.4889E-3,-10.8000,
,,,1.4890E-3,136.0000E-3,,,,,1.4890E-3,-11.0000,
,,,1.4891E-3,132.0000E-3,,,,,1.4891E-3,-10.8000,
,,,1.4892E-3,132.0000E-3,,,,,1.4892E-3,-11.0000,
,,,1.4893E-3,128.0000E-3,,,,,1.4893E-3,-10.6000,
,,,1.4894E-3,128.0000E-3,,,,,1.4894E-3,-10.6000,
,,,1.4895E-3,132.0000E-3,,,,,1.4895E-3,-11.0000,
,,,1.4896E-3,128.0000E-3,,,,,1.4896E-3,-10.6000,
,,,1.4897E-3,132.0000E-3,,,,,1.4897E-3,-11.0000,
,,,1.4898E-3,136.0000E-3,,,,,1.4898E-3,-10.8000,
,,,1.4899E-3,136.0000E-3,,,,,1.4899E-3,-11.0000,
,,,1.4900E-3,136.0000E-3,,,,,1.4900E-3,-11.0000,
,,,1.4901E-3,136.0000E-3,,,,,1.4901E-3,-10.8000,
,,,1.4902E-3,132.0000E-3,,,,,1.4902E-3,-10.8000,
,,,1.4903E-3,136.0000E-3,,,,,1.4903E-3,-11.0000,
,,,1.4904E-3,132.0000E-3,,,,,1.4904E-3,-10.8000,
,,,1.4905E-3,136.0000E-3,,,,,1.4905E-3,-11.0000,
,,,1.4906E-3,136.0000E-3,,,,,1.4906E-3,-11.0000,
,,,1.4907E-3,140.0000E-3,,,,,1.4907E-3,-11.0000,
,,,1.4908E-3,144.0000E-3,,,,,1.4908E-3,-10.8000,
,,,1.4909E-3,140.0000E-3,,,,,1.4909E-3,-10.8000,
,,,1.4910E-3,140.0000E-3,,,,,1.4910E-3,-10.8000,
,,,1.4911E-3,132.0000E-3,,,,,1.4911E-3,-10.8000,
,,,1.4912E-3,132.0000E-3,,,,,1.4912E-3,-10.8000,
,,,1.4913E-3,136.0000E-3,,,,,1.4913E-3,-10.8000,
,,,1.4914E-3,140.0000E-3,,,,,1.4914E-3,-11.0000,
,,,1.4915E-3,140.0000E-3,,,,,1.4915E-3,-10.6000,
,,,1.4916E-3,140.0000E-3,,,,,1.4916E-3,-10.8000,
,,,1.4917E-3,136.0000E-3,,,,,1.4917E-3,-10.8000,
,,,1.4918E-3,136.0000E-3,,,,,1.4918E-3,-10.8000,
,,,1.4919E-3,132.0000E-3,,,,,1.4919E-3,-11.0000,
,,,1.4920E-3,144.0000E-3,,,,,1.4920E-3,-10.8000,
,,,1.4921E-3,140.0000E-3,,,,,1.4921E-3,-10.8000,
,,,1.4922E-3,140.0000E-3,,,,,1.4922E-3,-11.0000,
,,,1.4923E-3,148.0000E-3,,,,,1.4923E-3,-11.0000,
,,,1.4924E-3,144.0000E-3,,,,,1.4924E-3,-11.0000,
,,,1.4925E-3,140.0000E-3,,,,,1.4925E-3,-10.6000,
,,,1.4926E-3,136.0000E-3,,,,,1.4926E-3,-11.0000,
,,,1.4927E-3,136.0000E-3,,,,,1.4927E-3,-11.0000,
,,,1.4928E-3,136.0000E-3,,,,,1.4928E-3,-10.8000,
,,,1.4929E-3,144.0000E-3,,,,,1.4929E-3,-11.0000,
,,,1.4930E-3,144.0000E-3,,,,,1.4930E-3,-10.8000,
,,,1.4931E-3,140.0000E-3,,,,,1.4931E-3,-10.6000,
,,,1.4932E-3,144.0000E-3,,,,,1.4932E-3,-10.8000,
,,,1.4933E-3,144.0000E-3,,,,,1.4933E-3,-10.8000,
,,,1.4934E-3,144.0000E-3,,,,,1.4934E-3,-10.8000,
,,,1.4935E-3,148.0000E-3,,,,,1.4935E-3,-10.8000,
,,,1.4936E-3,148.0000E-3,,,,,1.4936E-3,-10.8000,
,,,1.4937E-3,140.0000E-3,,,,,1.4937E-3,-11.0000,
,,,1.4938E-3,148.0000E-3,,,,,1.4938E-3,-10.8000,
,,,1.4939E-3,140.0000E-3,,,,,1.4939E-3,-10.8000,
,,,1.4940E-3,148.0000E-3,,,,,1.4940E-3,-10.8000,
,,,1.4941E-3,148.0000E-3,,,,,1.4941E-3,-10.8000,
,,,1.4942E-3,148.0000E-3,,,,,1.4942E-3,-11.0000,
,,,1.4943E-3,144.0000E-3,,,,,1.4943E-3,-10.8000,
,,,1.4944E-3,144.0000E-3,,,,,1.4944E-3,-10.8000,
,,,1.4945E-3,140.0000E-3,,,,,1.4945E-3,-10.8000,
,,,1.4946E-3,148.0000E-3,,,,,1.4946E-3,-10.8000,
,,,1.4947E-3,148.0000E-3,,,,,1.4947E-3,-10.8000,
,,,1.4948E-3,148.0000E-3,,,,,1.4948E-3,-11.0000,
,,,1.4949E-3,148.0000E-3,,,,,1.4949E-3,-11.0000,
,,,1.4950E-3,152.00001E-3,,,,,1.4950E-3,-10.8000,
,,,1.4951E-3,140.0000E-3,,,,,1.4951E-3,-11.0000,
,,,1.4952E-3,148.0000E-3,,,,,1.4952E-3,-11.0000,
,,,1.4953E-3,148.0000E-3,,,,,1.4953E-3,-10.8000,
,,,1.4954E-3,148.0000E-3,,,,,1.4954E-3,-10.8000,
,,,1.4955E-3,152.00001E-3,,,,,1.4955E-3,-10.8000,
,,,1.4956E-3,152.00001E-3,,,,,1.4956E-3,-11.0000,
,,,1.4957E-3,152.00001E-3,,,,,1.4957E-3,-10.8000,
,,,1.4958E-3,148.0000E-3,,,,,1.4958E-3,-11.0000,
,,,1.4959E-3,152.00001E-3,,,,,1.4959E-3,-11.0000,
,,,1.4960E-3,144.0000E-3,,,,,1.4960E-3,-10.6000,
,,,1.4961E-3,148.0000E-3,,,,,1.4961E-3,-10.8000,
,,,1.4962E-3,144.0000E-3,,,,,1.4962E-3,-10.8000,
,,,1.4963E-3,148.0000E-3,,,,,1.4963E-3,-11.0000,
,,,1.4964E-3,152.00001E-3,,,,,1.4964E-3,-11.0000,
,,,1.4965E-3,152.00001E-3,,,,,1.4965E-3,-10.8000,
,,,1.4966E-3,152.00001E-3,,,,,1.4966E-3,-11.0000,
,,,1.4967E-3,152.00001E-3,,,,,1.4967E-3,-11.0000,
,,,1.4968E-3,148.0000E-3,,,,,1.4968E-3,-10.8000,
,,,1.4969E-3,148.0000E-3,,,,,1.4969E-3,-10.8000,
,,,1.4970E-3,148.0000E-3,,,,,1.4970E-3,-10.6000,
,,,1.4971E-3,152.00001E-3,,,,,1.4971E-3,-10.8000,
,,,1.4972E-3,152.00001E-3,,,,,1.4972E-3,-11.0000,
,,,1.4973E-3,152.00001E-3,,,,,1.4973E-3,-11.0000,
,,,1.4974E-3,156.00000E-3,,,,,1.4974E-3,-11.0000,
,,,1.4975E-3,156.00000E-3,,,,,1.4975E-3,-10.8000,
,,,1.4976E-3,152.00001E-3,,,,,1.4976E-3,-11.0000,
,,,1.4977E-3,148.0000E-3,,,,,1.4977E-3,-10.6000,
,,,1.4978E-3,152.00001E-3,,,,,1.4978E-3,-10.8000,
,,,1.4979E-3,152.00001E-3,,,,,1.4979E-3,-10.8000,
,,,1.4980E-3,156.00000E-3,,,,,1.4980E-3,-10.8000,
,,,1.4981E-3,156.00000E-3,,,,,1.4981E-3,-10.8000,
,,,1.4982E-3,156.00000E-3,,,,,1.4982E-3,-11.0000,
,,,1.4983E-3,156.00000E-3,,,,,1.4983E-3,-11.0000,
,,,1.4984E-3,160.00001E-3,,,,,1.4984E-3,-10.6000,
,,,1.4985E-3,156.00000E-3,,,,,1.4985E-3,-10.8000,
,,,1.4986E-3,152.00001E-3,,,,,1.4986E-3,-10.8000,
,,,1.4987E-3,156.00000E-3,,,,,1.4987E-3,-10.8000,
,,,1.4988E-3,152.00001E-3,,,,,1.4988E-3,-10.8000,
,,,1.4989E-3,152.00001E-3,,,,,1.4989E-3,-10.8000,
,,,1.4990E-3,156.00000E-3,,,,,1.4990E-3,-11.0000,
,,,1.4991E-3,160.00001E-3,,,,,1.4991E-3,-11.0000,
,,,1.4992E-3,152.00001E-3,,,,,1.4992E-3,-10.8000,
,,,1.4993E-3,160.00001E-3,,,,,1.4993E-3,-10.8000,
,,,1.4994E-3,156.00000E-3,,,,,1.4994E-3,-11.0000,
,,,1.4995E-3,156.00000E-3,,,,,1.4995E-3,-11.0000,
,,,1.4996E-3,160.00001E-3,,,,,1.4996E-3,-10.8000,
,,,1.4997E-3,156.00000E-3,,,,,1.4997E-3,-11.0000,
,,,1.4998E-3,156.00000E-3,,,,,1.4998E-3,-11.0000,
,,,1.4999E-3,156.00000E-3,,,,,1.4999E-3,-11.0000,
,,,1.5000E-3,164.00000E-3,,,,,1.5000E-3,-11.0000,
,,,1.5001E-3,156.00000E-3,,,,,1.5001E-3,-11.0000,
,,,1.5002E-3,156.00000E-3,,,,,1.5002E-3,-11.0000,
,,,1.5003E-3,160.00001E-3,,,,,1.5003E-3,-11.2000,
,,,1.5004E-3,160.00001E-3,,,,,1.5004E-3,-11.0000,
,,,1.5005E-3,160.00001E-3,,,,,1.5005E-3,-11.0000,
,,,1.5006E-3,160.00001E-3,,,,,1.5006E-3,-10.8000,
,,,1.5007E-3,164.00000E-3,,,,,1.5007E-3,-11.0000,
,,,1.5008E-3,160.00001E-3,,,,,1.5008E-3,-11.0000,
,,,1.5009E-3,160.00001E-3,,,,,1.5009E-3,-11.0000,
,,,1.5010E-3,160.00001E-3,,,,,1.5010E-3,-10.8000,
,,,1.5011E-3,156.00000E-3,,,,,1.5011E-3,-11.0000,
,,,1.5012E-3,156.00000E-3,,,,,1.5012E-3,-10.8000,
,,,1.5013E-3,160.00001E-3,,,,,1.5013E-3,-11.0000,
,,,1.5014E-3,164.00000E-3,,,,,1.5014E-3,-11.0000,
,,,1.5015E-3,160.00001E-3,,,,,1.5015E-3,-10.8000,
,,,1.5016E-3,160.00001E-3,,,,,1.5016E-3,-10.8000,
,,,1.5017E-3,160.00001E-3,,,,,1.5017E-3,-10.6000,
,,,1.5018E-3,160.00001E-3,,,,,1.5018E-3,-10.8000,
,,,1.5019E-3,164.00000E-3,,,,,1.5019E-3,-10.8000,
,,,1.5020E-3,164.00000E-3,,,,,1.5020E-3,-11.0000,
,,,1.5021E-3,160.00001E-3,,,,,1.5021E-3,-10.8000,
,,,1.5022E-3,164.00000E-3,,,,,1.5022E-3,-10.8000,
,,,1.5023E-3,164.00000E-3,,,,,1.5023E-3,-11.0000,
,,,1.5024E-3,164.00000E-3,,,,,1.5024E-3,-11.0000,
,,,1.5025E-3,160.00001E-3,,,,,1.5025E-3,-11.0000,
,,,1.5026E-3,160.00001E-3,,,,,1.5026E-3,-11.0000,
,,,1.5027E-3,156.00000E-3,,,,,1.5027E-3,-10.8000,
,,,1.5028E-3,160.00001E-3,,,,,1.5028E-3,-10.8000,
,,,1.5029E-3,160.00001E-3,,,,,1.5029E-3,-11.0000,
,,,1.5030E-3,164.00000E-3,,,,,1.5030E-3,-11.0000,
,,,1.5031E-3,164.00000E-3,,,,,1.5031E-3,-11.0000,
,,,1.5032E-3,168.00001E-3,,,,,1.5032E-3,-10.8000,
,,,1.5033E-3,164.00000E-3,,,,,1.5033E-3,-10.8000,
,,,1.5034E-3,164.00000E-3,,,,,1.5034E-3,-10.8000,
,,,1.5035E-3,168.00001E-3,,,,,1.5035E-3,-11.0000,
,,,1.5036E-3,160.00001E-3,,,,,1.5036E-3,-10.8000,
,,,1.5037E-3,164.00000E-3,,,,,1.5037E-3,-10.8000,
,,,1.5038E-3,164.00000E-3,,,,,1.5038E-3,-10.8000,
,,,1.5039E-3,168.00001E-3,,,,,1.5039E-3,-10.8000,
,,,1.5040E-3,168.00001E-3,,,,,1.5040E-3,-10.8000,
,,,1.5041E-3,164.00000E-3,,,,,1.5041E-3,-11.0000,
,,,1.5042E-3,168.00001E-3,,,,,1.5042E-3,-11.0000,
,,,1.5043E-3,160.00001E-3,,,,,1.5043E-3,-10.8000,
,,,1.5044E-3,160.00001E-3,,,,,1.5044E-3,-11.0000,
,,,1.5045E-3,168.00001E-3,,,,,1.5045E-3,-11.0000,
,,,1.5046E-3,168.00001E-3,,,,,1.5046E-3,-10.8000,
,,,1.5047E-3,168.00001E-3,,,,,1.5047E-3,-11.0000,
,,,1.5048E-3,168.00001E-3,,,,,1.5048E-3,-11.2000,
,,,1.5049E-3,164.00000E-3,,,,,1.5049E-3,-10.6000,
,,,1.5050E-3,164.00000E-3,,,,,1.5050E-3,-11.0000,
,,,1.5051E-3,164.00000E-3,,,,,1.5051E-3,-11.0000,
,,,1.5052E-3,164.00000E-3,,,,,1.5052E-3,-10.8000,
,,,1.5053E-3,168.00001E-3,,,,,1.5053E-3,-11.0000,
,,,1.5054E-3,168.00001E-3,,,,,1.5054E-3,-11.0000,
,,,1.5055E-3,164.00000E-3,,,,,1.5055E-3,-11.0000,
,,,1.5056E-3,168.00001E-3,,,,,1.5056E-3,-11.0000,
,,,1.5057E-3,164.00000E-3,,,,,1.5057E-3,-11.2000,
,,,1.5058E-3,168.00001E-3,,,,,1.5058E-3,-11.0000,
,,,1.5059E-3,160.00001E-3,,,,,1.5059E-3,-11.0000,
,,,1.5060E-3,164.00000E-3,,,,,1.5060E-3,-10.6000,
,,,1.5061E-3,164.00000E-3,,,,,1.5061E-3,-11.0000,
,,,1.5062E-3,160.00001E-3,,,,,1.5062E-3,-10.8000,
,,,1.5063E-3,168.00001E-3,,,,,1.5063E-3,-10.8000,
,,,1.5064E-3,164.00000E-3,,,,,1.5064E-3,-10.8000,
,,,1.5065E-3,164.00000E-3,,,,,1.5065E-3,-10.8000,
,,,1.5066E-3,168.00001E-3,,,,,1.5066E-3,-10.8000,
,,,1.5067E-3,160.00001E-3,,,,,1.5067E-3,-11.0000,
,,,1.5068E-3,164.00000E-3,,,,,1.5068E-3,-10.8000,
,,,1.5069E-3,160.00001E-3,,,,,1.5069E-3,-10.8000,
,,,1.5070E-3,164.00000E-3,,,,,1.5070E-3,-10.8000,
,,,1.5071E-3,168.00001E-3,,,,,1.5071E-3,-11.0000,
,,,1.5072E-3,168.00001E-3,,,,,1.5072E-3,-10.8000,
,,,1.5073E-3,168.00001E-3,,,,,1.5073E-3,-10.8000,
,,,1.5074E-3,168.00001E-3,,,,,1.5074E-3,-10.8000,
,,,1.5075E-3,168.00001E-3,,,,,1.5075E-3,-11.0000,
,,,1.5076E-3,164.00000E-3,,,,,1.5076E-3,-11.0000,
,,,1.5077E-3,168.00001E-3,,,,,1.5077E-3,-11.0000,
,,,1.5078E-3,160.00001E-3,,,,,1.5078E-3,-11.0000,
,,,1.5079E-3,168.00001E-3,,,,,1.5079E-3,-10.8000,
,,,1.5080E-3,168.00001E-3,,,,,1.5080E-3,-10.8000,
,,,1.5081E-3,164.00000E-3,,,,,1.5081E-3,-11.0000,
,,,1.5082E-3,164.00000E-3,,,,,1.5082E-3,-10.8000,
,,,1.5083E-3,168.00001E-3,,,,,1.5083E-3,-11.0000,
,,,1.5084E-3,164.00000E-3,,,,,1.5084E-3,-11.0000,
,,,1.5085E-3,164.00000E-3,,,,,1.5085E-3,-11.0000,
,,,1.5086E-3,164.00000E-3,,,,,1.5086E-3,-10.8000,
,,,1.5087E-3,168.00001E-3,,,,,1.5087E-3,-11.0000,
,,,1.5088E-3,168.00001E-3,,,,,1.5088E-3,-10.8000,
,,,1.5089E-3,172.00001E-3,,,,,1.5089E-3,-11.0000,
,,,1.5090E-3,164.00000E-3,,,,,1.5090E-3,-11.0000,
,,,1.5091E-3,168.00001E-3,,,,,1.5091E-3,-10.6000,
,,,1.5092E-3,164.00000E-3,,,,,1.5092E-3,-10.8000,
,,,1.5093E-3,164.00000E-3,,,,,1.5093E-3,-11.2000,
,,,1.5094E-3,168.00001E-3,,,,,1.5094E-3,-11.0000,
,,,1.5095E-3,168.00001E-3,,,,,1.5095E-3,-11.0000,
,,,1.5096E-3,172.00001E-3,,,,,1.5096E-3,-11.0000,
,,,1.5097E-3,168.00001E-3,,,,,1.5097E-3,-11.0000,
,,,1.5098E-3,168.00001E-3,,,,,1.5098E-3,-11.2000,
,,,1.5099E-3,172.00001E-3,,,,,1.5099E-3,-11.0000,
,,,1.5100E-3,168.00001E-3,,,,,1.5100E-3,-10.8000,
,,,1.5101E-3,164.00000E-3,,,,,1.5101E-3,-11.0000,
,,,1.5102E-3,168.00001E-3,,,,,1.5102E-3,-11.0000,
,,,1.5103E-3,172.00001E-3,,,,,1.5103E-3,-11.0000,
,,,1.5104E-3,172.00001E-3,,,,,1.5104E-3,-11.2000,
,,,1.5105E-3,176.00001E-3,,,,,1.5105E-3,-11.0000,
,,,1.5106E-3,168.00001E-3,,,,,1.5106E-3,-11.0000,
,,,1.5107E-3,172.00001E-3,,,,,1.5107E-3,-11.0000,
,,,1.5108E-3,164.00000E-3,,,,,1.5108E-3,-10.8000,
,,,1.5109E-3,164.00000E-3,,,,,1.5109E-3,-10.8000,
,,,1.5110E-3,164.00000E-3,,,,,1.5110E-3,-10.8000,
,,,1.5111E-3,168.00001E-3,,,,,1.5111E-3,-10.6000,
,,,1.5112E-3,176.00001E-3,,,,,1.5112E-3,-10.8000,
,,,1.5113E-3,168.00001E-3,,,,,1.5113E-3,-10.8000,
,,,1.5114E-3,168.00001E-3,,,,,1.5114E-3,-11.0000,
,,,1.5115E-3,168.00001E-3,,,,,1.5115E-3,-10.8000,
,,,1.5116E-3,164.00000E-3,,,,,1.5116E-3,-10.6000,
,,,1.5117E-3,176.00001E-3,,,,,1.5117E-3,-10.6000,
,,,1.5118E-3,168.00001E-3,,,,,1.5118E-3,-10.6000,
,,,1.5119E-3,172.00001E-3,,,,,1.5119E-3,-10.8000,
,,,1.5120E-3,168.00001E-3,,,,,1.5120E-3,-11.0000,
,,,1.5121E-3,172.00001E-3,,,,,1.5121E-3,-10.8000,
,,,1.5122E-3,172.00001E-3,,,,,1.5122E-3,-11.0000,
,,,1.5123E-3,172.00001E-3,,,,,1.5123E-3,-11.0000,
,,,1.5124E-3,172.00001E-3,,,,,1.5124E-3,-11.0000,
,,,1.5125E-3,168.00001E-3,,,,,1.5125E-3,-11.0000,
,,,1.5126E-3,164.00000E-3,,,,,1.5126E-3,-11.0000,
,,,1.5127E-3,168.00001E-3,,,,,1.5127E-3,-11.0000,
,,,1.5128E-3,172.00001E-3,,,,,1.5128E-3,-11.0000,
,,,1.5129E-3,172.00001E-3,,,,,1.5129E-3,-10.8000,
,,,1.5130E-3,172.00001E-3,,,,,1.5130E-3,-10.8000,
,,,1.5131E-3,168.00001E-3,,,,,1.5131E-3,-11.0000,
,,,1.5132E-3,168.00001E-3,,,,,1.5132E-3,-11.0000,
,,,1.5133E-3,168.00001E-3,,,,,1.5133E-3,-11.0000,
,,,1.5134E-3,172.00001E-3,,,,,1.5134E-3,-10.8000,
,,,1.5135E-3,164.00000E-3,,,,,1.5135E-3,-10.8000,
,,,1.5136E-3,168.00001E-3,,,,,1.5136E-3,-11.0000,
,,,1.5137E-3,168.00001E-3,,,,,1.5137E-3,-11.0000,
,,,1.5138E-3,172.00001E-3,,,,,1.5138E-3,-10.8000,
,,,1.5139E-3,176.00001E-3,,,,,1.5139E-3,-11.0000,
,,,1.5140E-3,168.00001E-3,,,,,1.5140E-3,-10.8000,
