04/Dati/datarelli1.txt

Record Length,2500,Points,-249.99998E-6,459.999979E-3,,Record Length,2500,Points,-249.99998E-6,-4.40000,
Sample Interval,200.00000E-9,s,-249.79998E-6,479.999989E-3,,Sample Interval,200.00000E-9,s,-249.79998E-6,-4.60000,
Trigger Point,1.2500E3,Samples,-249.59998E-6,479.999989E-3,,Trigger Point,1.2500E3,Samples,-249.59998E-6,-4.60000,
,,,-249.39998E-6,500.000000E-3,,,,,-249.39998E-6,-4.60000,
,,,-249.19998E-6,500.000000E-3,,,,,-249.19998E-6,-4.80000,
,,,-248.99998E-6,500.000000E-3,,,,,-248.99998E-6,-5.00000,
Source,CH1,,-248.79997E-6,479.999989E-3,,Source,CH2,,-248.79997E-6,-4.80000,
Vertical Units,Volts,,-248.59997E-6,500.000000E-3,,Vertical Units,Volts,,-248.59997E-6,-5.00000,
Vertical Scale,499.999989E-3,,-248.39997E-6,519.999981E-3,,Vertical Scale,5.00000,,-248.39997E-6,-5.00000,
Vertical Offset,0,,-248.19997E-6,519.999981E-3,,Vertical Offset,0,,-248.19997E-6,-5.00000,
Horizontal Units,s,,-248.00000E-6,539.999962E-3,,Horizontal Units,s,,-248.00000E-6,-5.20000,
Horizontal Scale,50.00000E-6,,-247.80000E-6,519.999981E-3,,Horizontal Scale,50.00000E-6,,-247.80000E-6,-5.20000,
Pt Fmt,Y,,-247.59999E-6,539.999962E-3,,Pt Fmt,Y,,-247.59999E-6,-5.20000,
Yzero,440.000000E-3,,-247.39999E-6,560.000002E-3,,Yzero,0.0,,-247.39999E-6,-5.40000,
Probe Atten,1.000,,-247.19999E-6,560.000002E-3,,Probe Atten,1.000,,-247.19999E-6,-5.40000,
,,,-246.99999E-6,579.999983E-3,,,,,-246.99999E-6,-5.40000,
Note,TDS 1012B - 16:44:29   24/10/2016,,-246.79999E-6,560.000002E-3,,Note,TDS 1012B - 16:44:29   24/10/2016,,-246.79999E-6,-5.40000,
,,,-246.59999E-6,519.999981E-3,,,,,-246.59999E-6,-5.60000,
,,,-246.39998E-6,560.000002E-3,,,,,-246.39998E-6,-5.60000,
,,,-246.19998E-6,579.999983E-3,,,,,-246.19998E-6,-5.60000,
,,,-245.99998E-6,579.999983E-3,,,,,-245.99998E-6,-5.80000,
,,,-245.79998E-6,579.999983E-3,,,,,-245.79998E-6,-6.00000,
,,,-245.59998E-6,620.000005E-3,,,,,-245.59998E-6,-5.80000,
,,,-245.39998E-6,620.000005E-3,,,,,-245.39998E-6,-6.00000,
,,,-245.19998E-6,599.999964E-3,,,,,-245.19998E-6,-5.80000,
,,,-244.99997E-6,620.000005E-3,,,,,-244.99997E-6,-6.00000,
,,,-244.79997E-6,599.999964E-3,,,,,-244.79997E-6,-6.00000,
,,,-244.59997E-6,620.000005E-3,,,,,-244.59997E-6,-6.20000,
,,,-244.39997E-6,659.999967E-3,,,,,-244.39997E-6,-6.20000,
,,,-244.20000E-6,620.000005E-3,,,,,-244.20000E-6,-6.40000,
,,,-243.99998E-6,659.999967E-3,,,,,-243.99998E-6,-6.40000,
,,,-243.79998E-6,659.999967E-3,,,,,-243.79998E-6,-6.40000,
,,,-243.59998E-6,659.999967E-3,,,,,-243.59998E-6,-6.60000,
,,,-243.39998E-6,659.999967E-3,,,,,-243.39998E-6,-6.60000,
,,,-243.19999E-6,680.000007E-3,,,,,-243.19999E-6,-6.60000,
,,,-242.99999E-6,659.999967E-3,,,,,-242.99999E-6,-6.80000,
,,,-242.79999E-6,699.999988E-3,,,,,-242.79999E-6,-6.80000,
,,,-242.59998E-6,719.999969E-3,,,,,-242.59998E-6,-6.60000,
,,,-242.39998E-6,680.000007E-3,,,,,-242.39998E-6,-6.80000,
,,,-242.19998E-6,699.999988E-3,,,,,-242.19998E-6,-6.80000,
,,,-241.99998E-6,719.999969E-3,,,,,-241.99998E-6,-7.00000,
,,,-241.79998E-6,699.999988E-3,,,,,-241.79998E-6,-7.00000,
,,,-241.59998E-6,699.999988E-3,,,,,-241.59998E-6,-7.00000,
,,,-241.39998E-6,719.999969E-3,,,,,-241.39998E-6,-7.00000,
,,,-241.19999E-6,699.999988E-3,,,,,-241.19999E-6,-7.20000,
,,,-240.99999E-6,740.000010E-3,,,,,-240.99999E-6,-7.20000,
,,,-240.79999E-6,719.999969E-3,,,,,-240.79999E-6,-7.400000,
,,,-240.59998E-6,740.000010E-3,,,,,-240.59998E-6,-7.20000,
,,,-240.39998E-6,759.999990E-3,,,,,-240.39998E-6,-7.400000,
,,,-240.19998E-6,779.999971E-3,,,,,-240.19998E-6,-7.600000,
,,,-239.99998E-6,759.999990E-3,,,,,-239.99998E-6,-7.400000,
,,,-239.79998E-6,759.999990E-3,,,,,-239.79998E-6,-7.600000,
,,,-239.59998E-6,799.999952E-3,,,,,-239.59998E-6,-7.800000,
,,,-239.39999E-6,759.999990E-3,,,,,-239.39999E-6,-7.600000,
,,,-239.19999E-6,740.000010E-3,,,,,-239.19999E-6,-7.600000,
,,,-238.99999E-6,759.999990E-3,,,,,-238.99999E-6,-7.800000,
,,,-238.79998E-6,819.999993E-3,,,,,-238.79998E-6,-8.000000,
,,,-238.59998E-6,759.999990E-3,,,,,-238.59998E-6,-8.000000,
,,,-238.39998E-6,779.999971E-3,,,,,-238.39998E-6,-8.000000,
,,,-238.19998E-6,799.999952E-3,,,,,-238.19998E-6,-7.800000,
,,,-237.99998E-6,779.999971E-3,,,,,-237.99998E-6,-8.000000,
,,,-237.79998E-6,859.999955E-3,,,,,-237.79998E-6,-8.000000,
,,,-237.59998E-6,819.999993E-3,,,,,-237.59998E-6,-8.200000,
,,,-237.39999E-6,819.999993E-3,,,,,-237.39999E-6,-8.400001,
,,,-237.19999E-6,859.999955E-3,,,,,-237.19999E-6,-8.200000,
,,,-236.99999E-6,839.999974E-3,,,,,-236.99999E-6,-8.400001,
,,,-236.79998E-6,839.999974E-3,,,,,-236.79998E-6,-8.600000,
,,,-236.59998E-6,859.999955E-3,,,,,-236.59998E-6,-8.600000,
,,,-236.39998E-6,879.999995E-3,,,,,-236.39998E-6,-8.400001,
,,,-236.19998E-6,879.999995E-3,,,,,-236.19998E-6,-8.600000,
,,,-235.99998E-6,859.999955E-3,,,,,-235.99998E-6,-8.600000,
,,,-235.79998E-6,879.999995E-3,,,,,-235.79998E-6,-8.800000,
,,,-235.59999E-6,899.999976E-3,,,,,-235.59999E-6,-8.400001,
,,,-235.39999E-6,879.999995E-3,,,,,-235.39999E-6,-8.600000,
,,,-235.19999E-6,879.999995E-3,,,,,-235.19999E-6,-8.800000,
,,,-234.99998E-6,879.999995E-3,,,,,-234.99998E-6,-8.600000,
,,,-234.79998E-6,899.999976E-3,,,,,-234.79998E-6,-8.800000,
,,,-234.59998E-6,899.999976E-3,,,,,-234.59998E-6,-8.800000,
,,,-234.39998E-6,899.999976E-3,,,,,-234.39998E-6,-8.800000,
,,,-234.19998E-6,939.999998E-3,,,,,-234.19998E-6,-8.800000,
,,,-233.99998E-6,899.999976E-3,,,,,-233.99998E-6,-9.000000,
,,,-233.79998E-6,919.999957E-3,,,,,-233.79998E-6,-9.000000,
,,,-233.59999E-6,899.999976E-3,,,,,-233.59999E-6,-9.000000,
,,,-233.39999E-6,919.999957E-3,,,,,-233.39999E-6,-9.000000,
,,,-233.19999E-6,939.999998E-3,,,,,-233.19999E-6,-9.200000,
,,,-232.99998E-6,899.999976E-3,,,,,-232.99998E-6,-9.200000,
,,,-232.79998E-6,959.999979E-3,,,,,-232.79998E-6,-9.200000,
,,,-232.59998E-6,939.999998E-3,,,,,-232.59998E-6,-9.000000,
,,,-232.39998E-6,959.999979E-3,,,,,-232.39998E-6,-9.200000,
,,,-232.19998E-6,979.999959E-3,,,,,-232.19998E-6,-9.400001,
,,,-231.99998E-6,939.999998E-3,,,,,-231.99998E-6,-9.400001,
,,,-231.79999E-6,979.999959E-3,,,,,-231.79999E-6,-9.200000,
,,,-231.59999E-6,939.999998E-3,,,,,-231.59999E-6,-9.400001,
,,,-231.39999E-6,979.999959E-3,,,,,-231.39999E-6,-9.400001,
,,,-231.19999E-6,979.999959E-3,,,,,-231.19999E-6,-9.400001,
,,,-230.99998E-6,939.999998E-3,,,,,-230.99998E-6,-9.600000,
,,,-230.79998E-6,979.999959E-3,,,,,-230.79998E-6,-9.600000,
,,,-230.59998E-6,1.000,,,,,-230.59998E-6,-9.800000,
,,,-230.39998E-6,979.999959E-3,,,,,-230.39998E-6,-9.600000,
,,,-230.19998E-6,979.999959E-3,,,,,-230.19998E-6,-9.600000,
,,,-229.99998E-6,979.999959E-3,,,,,-229.99998E-6,-9.600000,
,,,-229.79999E-6,1.000,,,,,-229.79999E-6,-9.800000,
,,,-229.59999E-6,1.0200,,,,,-229.59999E-6,-9.600000,
,,,-229.39999E-6,979.999959E-3,,,,,-229.39999E-6,-9.600000,
,,,-229.19998E-6,979.999959E-3,,,,,-229.19998E-6,-9.600000,
,,,-228.99998E-6,1.0200,,,,,-228.99998E-6,-9.800000,
,,,-228.79998E-6,1.0200,,,,,-228.79998E-6,-9.600000,
,,,-228.59998E-6,1.0400,,,,,-228.59998E-6,-9.800000,
,,,-228.39998E-6,979.999959E-3,,,,,-228.39998E-6,-9.800000,
,,,-228.19998E-6,1.0200,,,,,-228.19998E-6,-9.800000,
,,,-227.99998E-6,1.0400,,,,,-227.99998E-6,-9.600000,
,,,-227.79999E-6,1.0200,,,,,-227.79999E-6,-9.600000,
,,,-227.59999E-6,1.0200,,,,,-227.59999E-6,-9.400001,
,,,-227.39999E-6,1.0400,,,,,-227.39999E-6,-9.600000,
,,,-227.19998E-6,1.0400,,,,,-227.19998E-6,-9.600000,
,,,-226.99998E-6,1.0200,,,,,-226.99998E-6,-10.0000,
,,,-226.79998E-6,1.0600,,,,,-226.79998E-6,-9.600000,
,,,-226.59998E-6,1.0600,,,,,-226.59998E-6,-9.600000,
,,,-226.39998E-6,1.0400,,,,,-226.39998E-6,-9.800000,
,,,-226.19998E-6,1.0800,,,,,-226.19998E-6,-9.400001,
,,,-225.99999E-6,1.0600,,,,,-225.99999E-6,-9.600000,
,,,-225.79999E-6,1.0400,,,,,-225.79999E-6,-9.600000,
,,,-225.59999E-6,1.0800,,,,,-225.59999E-6,-9.600000,
,,,-225.39998E-6,1.0800,,,,,-225.39998E-6,-9.800000,
,,,-225.19998E-6,1.0800,,,,,-225.19998E-6,-9.600000,
,,,-224.99998E-6,1.0600,,,,,-224.99998E-6,-9.600000,
,,,-224.79998E-6,1.1000,,,,,-224.79998E-6,-9.600000,
,,,-224.59998E-6,1.1000,,,,,-224.59998E-6,-9.800000,
,,,-224.39998E-6,1.0800,,,,,-224.39998E-6,-9.600000,
,,,-224.19998E-6,1.1000,,,,,-224.19998E-6,-9.800000,
,,,-223.99999E-6,1.1000,,,,,-223.99999E-6,-9.600000,
,,,-223.79999E-6,1.1000,,,,,-223.79999E-6,-9.800000,
,,,-223.59999E-6,1.0800,,,,,-223.59999E-6,-9.800000,
,,,-223.39998E-6,1.1000,,,,,-223.39998E-6,-9.800000,
,,,-223.19998E-6,1.1200,,,,,-223.19998E-6,-9.800000,
,,,-222.99998E-6,1.1000,,,,,-222.99998E-6,-9.800000,
,,,-222.79998E-6,1.1200,,,,,-222.79998E-6,-9.600000,
,,,-222.59998E-6,1.1000,,,,,-222.59998E-6,-9.600000,
,,,-222.39998E-6,1.0800,,,,,-222.39998E-6,-9.400001,
,,,-222.19999E-6,1.1200,,,,,-222.19999E-6,-9.600000,
,,,-221.99999E-6,1.1200,,,,,-221.99999E-6,-9.600000,
,,,-221.79999E-6,1.1000,,,,,-221.79999E-6,-9.600000,
,,,-221.59998E-6,1.1400,,,,,-221.59998E-6,-9.600000,
,,,-221.39998E-6,1.1400,,,,,-221.39998E-6,-9.600000,
,,,-221.19998E-6,1.1200,,,,,-221.19998E-6,-9.800000,
,,,-220.99998E-6,1.1000,,,,,-220.99998E-6,-9.600000,
,,,-220.79998E-6,1.1400,,,,,-220.79998E-6,-9.600000,
,,,-220.59998E-6,1.1000,,,,,-220.59998E-6,-9.600000,
,,,-220.39998E-6,1.1400,,,,,-220.39998E-6,-9.600000,
,,,-220.19999E-6,1.1200,,,,,-220.19999E-6,-9.600000,
,,,-219.99999E-6,1.1600,,,,,-219.99999E-6,-9.600000,
,,,-219.79999E-6,1.1400,,,,,-219.79999E-6,-9.600000,
,,,-219.59998E-6,1.1200,,,,,-219.59998E-6,-9.400001,
,,,-219.39998E-6,1.1200,,,,,-219.39998E-6,-9.600000,
,,,-219.19998E-6,1.1600,,,,,-219.19998E-6,-9.600000,
,,,-218.99998E-6,1.1400,,,,,-218.99998E-6,-9.800000,
,,,-218.79998E-6,1.1600,,,,,-218.79998E-6,-9.800000,
,,,-218.59998E-6,1.1400,,,,,-218.59998E-6,-9.600000,
,,,-218.39999E-6,1.1400,,,,,-218.39999E-6,-9.800000,
,,,-218.19999E-6,1.1200,,,,,-218.19999E-6,-9.800000,
,,,-217.99999E-6,1.1400,,,,,-217.99999E-6,-9.800000,
,,,-217.79998E-6,1.1200,,,,,-217.79998E-6,-9.600000,
,,,-217.59998E-6,1.1400,,,,,-217.59998E-6,-9.800000,
,,,-217.39998E-6,1.1800,,,,,-217.39998E-6,-9.600000,
,,,-217.19998E-6,1.1800,,,,,-217.19998E-6,-9.800000,
,,,-216.99998E-6,1.1400,,,,,-216.99998E-6,-9.600000,
,,,-216.79998E-6,1.1600,,,,,-216.79998E-6,-9.600000,
,,,-216.59998E-6,1.1800,,,,,-216.59998E-6,-9.600000,
,,,-216.39999E-6,1.1800,,,,,-216.39999E-6,-9.600000,
,,,-216.19999E-6,1.1600,,,,,-216.19999E-6,-9.400001,
,,,-215.99999E-6,1.1400,,,,,-215.99999E-6,-9.400001,
,,,-215.79998E-6,1.1400,,,,,-215.79998E-6,-9.600000,
,,,-215.59998E-6,1.1600,,,,,-215.59998E-6,-9.400001,
,,,-215.39998E-6,1.1600,,,,,-215.39998E-6,-9.600000,
,,,-215.19998E-6,1.1200,,,,,-215.19998E-6,-9.400001,
,,,-214.99998E-6,1.1600,,,,,-214.99998E-6,-9.600000,
,,,-214.79998E-6,1.1600,,,,,-214.79998E-6,-9.600000,
,,,-214.59998E-6,1.1600,,,,,-214.59998E-6,-9.600000,
,,,-214.39999E-6,1.1600,,,,,-214.39999E-6,-9.600000,
,,,-214.19999E-6,1.1600,,,,,-214.19999E-6,-9.600000,
,,,-213.99999E-6,1.1600,,,,,-213.99999E-6,-9.600000,
,,,-213.79998E-6,1.1600,,,,,-213.79998E-6,-9.600000,
,,,-213.59998E-6,1.1400,,,,,-213.59998E-6,-9.600000,
,,,-213.39998E-6,1.1800,,,,,-213.39998E-6,-9.600000,
,,,-213.19998E-6,1.1400,,,,,-213.19998E-6,-9.600000,
,,,-212.99998E-6,1.1800,,,,,-212.99998E-6,-9.600000,
,,,-212.79998E-6,1.1600,,,,,-212.79998E-6,-9.400001,
,,,-212.59999E-6,1.1600,,,,,-212.59999E-6,-9.600000,
,,,-212.39999E-6,1.1400,,,,,-212.39999E-6,-9.400001,
,,,-212.19999E-6,1.1800,,,,,-212.19999E-6,-9.600000,
,,,-211.99998E-6,1.1600,,,,,-211.99998E-6,-9.600000,
,,,-211.79998E-6,1.1600,,,,,-211.79998E-6,-9.400001,
,,,-211.59998E-6,1.1600,,,,,-211.59998E-6,-9.600000,
,,,-211.39998E-6,1.1600,,,,,-211.39998E-6,-9.800000,
,,,-211.19998E-6,1.1400,,,,,-211.19998E-6,-9.800000,
,,,-210.99998E-6,1.1800,,,,,-210.99998E-6,-9.600000,
,,,-210.79998E-6,1.1600,,,,,-210.79998E-6,-9.600000,
,,,-210.59999E-6,1.1800,,,,,-210.59999E-6,-9.800000,
,,,-210.39999E-6,1.1600,,,,,-210.39999E-6,-9.600000,
,,,-210.19999E-6,1.1600,,,,,-210.19999E-6,-9.600000,
,,,-209.99998E-6,1.1800,,,,,-209.99998E-6,-9.600000,
,,,-209.79998E-6,1.2000,,,,,-209.79998E-6,-9.600000,
,,,-209.59998E-6,1.1600,,,,,-209.59998E-6,-9.600000,
,,,-209.39998E-6,1.1600,,,,,-209.39998E-6,-9.600000,
,,,-209.19998E-6,1.1600,,,,,-209.19998E-6,-9.800000,
,,,-208.99998E-6,1.1600,,,,,-208.99998E-6,-9.600000,
,,,-208.79999E-6,1.1600,,,,,-208.79999E-6,-9.800000,
,,,-208.59999E-6,1.2000,,,,,-208.59999E-6,-9.800000,
,,,-208.39999E-6,1.1400,,,,,-208.39999E-6,-9.800000,
,,,-208.19998E-6,1.1600,,,,,-208.19998E-6,-9.600000,
,,,-207.99998E-6,1.1800,,,,,-207.99998E-6,-9.600000,
,,,-207.79998E-6,1.1600,,,,,-207.79998E-6,-9.600000,
,,,-207.59998E-6,1.1600,,,,,-207.59998E-6,-9.600000,
,,,-207.39998E-6,1.1600,,,,,-207.39998E-6,-9.600000,
,,,-207.19998E-6,1.1600,,,,,-207.19998E-6,-9.600000,
,,,-206.99998E-6,1.1400,,,,,-206.99998E-6,-9.400001,
,,,-206.79999E-6,1.1800,,,,,-206.79999E-6,-9.600000,
,,,-206.59999E-6,1.1800,,,,,-206.59999E-6,-9.600000,
,,,-206.39999E-6,1.1600,,,,,-206.39999E-6,-9.600000,
,,,-206.19998E-6,1.1400,,,,,-206.19998E-6,-9.600000,
,,,-205.99998E-6,1.1200,,,,,-205.99998E-6,-9.400001,
,,,-205.79998E-6,1.1400,,,,,-205.79998E-6,-9.600000,
,,,-205.59998E-6,1.1400,,,,,-205.59998E-6,-9.600000,
,,,-205.39998E-6,1.1600,,,,,-205.39998E-6,-9.600000,
,,,-205.19998E-6,1.1200,,,,,-205.19998E-6,-9.600000,
,,,-204.99999E-6,1.1400,,,,,-204.99999E-6,-9.600000,
,,,-204.79999E-6,1.1600,,,,,-204.79999E-6,-9.800000,
,,,-204.59999E-6,1.1200,,,,,-204.59999E-6,-9.600000,
,,,-204.39998E-6,1.1400,,,,,-204.39998E-6,-9.800000,
,,,-204.19998E-6,1.1400,,,,,-204.19998E-6,-9.600000,
,,,-203.99998E-6,1.1400,,,,,-203.99998E-6,-9.800000,
,,,-203.79998E-6,1.1200,,,,,-203.79998E-6,-9.800000,
,,,-203.59998E-6,1.1200,,,,,-203.59998E-6,-9.800000,
,,,-203.39998E-6,1.1000,,,,,-203.39998E-6,-9.800000,
,,,-203.19998E-6,1.1200,,,,,-203.19998E-6,-9.600000,
,,,-202.99999E-6,1.1200,,,,,-202.99999E-6,-9.400001,
,,,-202.79999E-6,1.1000,,,,,-202.79999E-6,-9.600000,
,,,-202.59999E-6,1.1200,,,,,-202.59999E-6,-9.600000,
,,,-202.39998E-6,1.1200,,,,,-202.39998E-6,-9.600000,
,,,-202.19998E-6,1.1200,,,,,-202.19998E-6,-9.800000,
,,,-201.99998E-6,1.1000,,,,,-201.99998E-6,-9.600000,
,,,-201.79998E-6,1.1200,,,,,-201.79998E-6,-9.800000,
,,,-201.59998E-6,1.1200,,,,,-201.59998E-6,-9.800000,
,,,-201.39998E-6,1.1000,,,,,-201.39998E-6,-9.800000,
,,,-201.19997E-6,1.0800,,,,,-201.19997E-6,-9.800000,
,,,-200.99999E-6,1.1200,,,,,-200.99999E-6,-9.800000,
,,,-200.79999E-6,1.0800,,,,,-200.79999E-6,-9.600000,
,,,-200.59998E-6,1.0800,,,,,-200.59998E-6,-9.600000,
,,,-200.39998E-6,1.1000,,,,,-200.39998E-6,-9.400001,
,,,-200.19998E-6,1.0800,,,,,-200.19998E-6,-9.600000,
,,,-199.99998E-6,1.1000,,,,,-199.99998E-6,-9.800000,
,,,-199.79998E-6,1.0800,,,,,-199.79998E-6,-9.600000,
,,,-199.59998E-6,1.0600,,,,,-199.59998E-6,-9.800000,
,,,-199.39998E-6,1.0800,,,,,-199.39998E-6,-9.800000,
,,,-199.19999E-6,1.0800,,,,,-199.19999E-6,-9.800000,
,,,-198.99999E-6,1.1000,,,,,-198.99999E-6,-9.800000,
,,,-198.79999E-6,1.0600,,,,,-198.79999E-6,-9.600000,
,,,-198.59998E-6,1.0400,,,,,-198.59998E-6,-9.400001,
,,,-198.39998E-6,1.0400,,,,,-198.39998E-6,-9.600000,
,,,-198.19998E-6,1.0800,,,,,-198.19998E-6,-9.800000,
,,,-197.99998E-6,1.0600,,,,,-197.99998E-6,-9.600000,
,,,-197.79998E-6,1.0600,,,,,-197.79998E-6,-9.800000,
,,,-197.59998E-6,1.0400,,,,,-197.59998E-6,-9.600000,
,,,-197.39998E-6,1.0400,,,,,-197.39998E-6,-9.600000,
,,,-197.19999E-6,1.0200,,,,,-197.19999E-6,-9.800000,
,,,-196.99999E-6,1.0200,,,,,-196.99999E-6,-9.600000,
,,,-196.79999E-6,1.0800,,,,,-196.79999E-6,-9.800000,
,,,-196.59998E-6,1.0600,,,,,-196.59998E-6,-9.600000,
,,,-196.39998E-6,1.0600,,,,,-196.39998E-6,-9.600000,
,,,-196.19998E-6,1.0400,,,,,-196.19998E-6,-9.600000,
,,,-195.99998E-6,1.0400,,,,,-195.99998E-6,-9.800000,
,,,-195.79998E-6,1.0200,,,,,-195.79998E-6,-9.600000,
,,,-195.59998E-6,1.0200,,,,,-195.59998E-6,-9.800000,
,,,-195.39999E-6,1.000,,,,,-195.39999E-6,-9.600000,
,,,-195.19999E-6,1.000,,,,,-195.19999E-6,-9.600000,
,,,-194.99999E-6,1.000,,,,,-194.99999E-6,-9.800000,
,,,-194.79998E-6,1.000,,,,,-194.79998E-6,-10.0000,
,,,-194.59998E-6,979.999959E-3,,,,,-194.59998E-6,-9.800000,
,,,-194.39998E-6,979.999959E-3,,,,,-194.39998E-6,-9.800000,
,,,-194.19998E-6,1.0200,,,,,-194.19998E-6,-9.800000,
,,,-193.99998E-6,1.000,,,,,-193.99998E-6,-9.600000,
,,,-193.79998E-6,1.000,,,,,-193.79998E-6,-9.800000,
,,,-193.59998E-6,979.999959E-3,,,,,-193.59998E-6,-9.800000,
,,,-193.39999E-6,979.999959E-3,,,,,-193.39999E-6,-10.0000,
,,,-193.19999E-6,1.000,,,,,-193.19999E-6,-9.600000,
,,,-192.99999E-6,959.999979E-3,,,,,-192.99999E-6,-9.600000,
,,,-192.79998E-6,959.999979E-3,,,,,-192.79998E-6,-9.800000,
,,,-192.59998E-6,979.999959E-3,,,,,-192.59998E-6,-9.800000,
,,,-192.39998E-6,939.999998E-3,,,,,-192.39998E-6,-9.600000,
,,,-192.19998E-6,939.999998E-3,,,,,-192.19998E-6,-9.800000,
,,,-191.99998E-6,939.999998E-3,,,,,-191.99998E-6,-9.800000,
,,,-191.79998E-6,939.999998E-3,,,,,-191.79998E-6,-9.600000,
,,,-191.59999E-6,919.999957E-3,,,,,-191.59999E-6,-9.800000,
,,,-191.39999E-6,899.999976E-3,,,,,-191.39999E-6,-9.800000,
,,,-191.19999E-6,919.999957E-3,,,,,-191.19999E-6,-9.800000,
,,,-190.99998E-6,919.999957E-3,,,,,-190.99998E-6,-9.800000,
,,,-190.79998E-6,899.999976E-3,,,,,-190.79998E-6,-9.800000,
,,,-190.59998E-6,939.999998E-3,,,,,-190.59998E-6,-9.600000,
,,,-190.39998E-6,919.999957E-3,,,,,-190.39998E-6,-9.600000,
,,,-190.19998E-6,879.999995E-3,,,,,-190.19998E-6,-9.400001,
,,,-189.99998E-6,919.999957E-3,,,,,-189.99998E-6,-9.200000,
,,,-189.79998E-6,879.999995E-3,,,,,-189.79998E-6,-9.400001,
,,,-189.59999E-6,859.999955E-3,,,,,-189.59999E-6,-9.400001,
,,,-189.39999E-6,899.999976E-3,,,,,-189.39999E-6,-9.600000,
,,,-189.19999E-6,859.999955E-3,,,,,-189.19999E-6,-9.400001,
,,,-188.99998E-6,879.999995E-3,,,,,-188.99998E-6,-9.000000,
,,,-188.79998E-6,839.999974E-3,,,,,-188.79998E-6,-9.400001,
,,,-188.59998E-6,859.999955E-3,,,,,-188.59998E-6,-9.200000,
,,,-188.39998E-6,839.999974E-3,,,,,-188.39998E-6,-9.200000,
,,,-188.19998E-6,879.999995E-3,,,,,-188.19998E-6,-9.000000,
,,,-187.99998E-6,859.999955E-3,,,,,-187.99998E-6,-8.600000,
,,,-187.79997E-6,839.999974E-3,,,,,-187.79997E-6,-8.800000,
,,,-187.59999E-6,819.999993E-3,,,,,-187.59999E-6,-8.800000,
,,,-187.39999E-6,819.999993E-3,,,,,-187.39999E-6,-9.000000,
,,,-187.19998E-6,819.999993E-3,,,,,-187.19998E-6,-8.800000,
,,,-186.99998E-6,839.999974E-3,,,,,-186.99998E-6,-8.800000,
,,,-186.79998E-6,819.999993E-3,,,,,-186.79998E-6,-8.600000,
,,,-186.59998E-6,839.999974E-3,,,,,-186.59998E-6,-8.600000,
,,,-186.39998E-6,819.999993E-3,,,,,-186.39998E-6,-8.400001,
,,,-186.19998E-6,819.999993E-3,,,,,-186.19998E-6,-8.600000,
,,,-185.99998E-6,819.999993E-3,,,,,-185.99998E-6,-8.400001,
,,,-185.79999E-6,819.999993E-3,,,,,-185.79999E-6,-8.400001,
,,,-185.59999E-6,779.999971E-3,,,,,-185.59999E-6,-8.600000,
,,,-185.39999E-6,759.999990E-3,,,,,-185.39999E-6,-8.000000,
,,,-185.19998E-6,759.999990E-3,,,,,-185.19998E-6,-8.200000,
,,,-184.99998E-6,779.999971E-3,,,,,-184.99998E-6,-8.200000,
,,,-184.79998E-6,719.999969E-3,,,,,-184.79998E-6,-8.200000,
,,,-184.59998E-6,740.000010E-3,,,,,-184.59998E-6,-8.200000,
,,,-184.39998E-6,740.000010E-3,,,,,-184.39998E-6,-8.200000,
,,,-184.19998E-6,740.000010E-3,,,,,-184.19998E-6,-8.000000,
,,,-183.99997E-6,759.999990E-3,,,,,-183.99997E-6,-8.000000,
,,,-183.79999E-6,740.000010E-3,,,,,-183.79999E-6,-8.000000,
,,,-183.59999E-6,719.999969E-3,,,,,-183.59999E-6,-7.800000,
,,,-183.39998E-6,740.000010E-3,,,,,-183.39998E-6,-7.800000,
,,,-183.19998E-6,719.999969E-3,,,,,-183.19998E-6,-7.600000,
,,,-182.99998E-6,719.999969E-3,,,,,-182.99998E-6,-7.600000,
,,,-182.79998E-6,659.999967E-3,,,,,-182.79998E-6,-7.600000,
,,,-182.59998E-6,719.999969E-3,,,,,-182.59998E-6,-7.600000,
,,,-182.39998E-6,699.999988E-3,,,,,-182.39998E-6,-7.400000,
,,,-182.19998E-6,699.999988E-3,,,,,-182.19998E-6,-7.400000,
,,,-181.99999E-6,680.000007E-3,,,,,-181.99999E-6,-7.400000,
,,,-181.79999E-6,659.999967E-3,,,,,-181.79999E-6,-7.20000,
,,,-181.59999E-6,680.000007E-3,,,,,-181.59999E-6,-7.20000,
,,,-181.39998E-6,639.999986E-3,,,,,-181.39998E-6,-7.20000,
,,,-181.19998E-6,659.999967E-3,,,,,-181.19998E-6,-7.00000,
,,,-180.99998E-6,639.999986E-3,,,,,-180.99998E-6,-7.00000,
