08/Dati/parte1/parte1_684.csv

Record Length,2500,Points,-2.4960E-3,240.00001E-3,,Record Length,2500,Points,-2.4960E-3,-128.0000E-3,
Sample Interval,2.0000E-6,s,-2.4940E-3,236.00002E-3,,Sample Interval,2.0000E-6,s,-2.4940E-3,-128.0000E-3,
Trigger Point,1.2480E3,Samples,-2.4920E-3,236.00002E-3,,Trigger Point,1.2480E3,Samples,-2.4920E-3,-128.0000E-3,
,,,-2.4900E-3,236.00002E-3,,,,,-2.4900E-3,-128.0000E-3,
,,,-2.4880E-3,236.00002E-3,,,,,-2.4880E-3,-124.0000E-3,
,,,-2.4860E-3,236.00002E-3,,,,,-2.4860E-3,-124.0000E-3,
Source,CH1,,-2.4840E-3,236.00002E-3,,Source,CH2,,-2.4840E-3,-120.0000E-3,
Vertical Units,Volts,,-2.4820E-3,232.00001E-3,,Vertical Units,Volts,,-2.4820E-3,-120.0000E-3,
Vertical Scale,100.0000E-3,,-2.4800E-3,232.00001E-3,,Vertical Scale,100.0000E-3,,-2.4800E-3,-116.0000E-3,
Vertical Offset,0,,-2.4780E-3,232.00001E-3,,Vertical Offset,0,,-2.4780E-3,-116.0000E-3,
Horizontal Units,s,,-2.4760E-3,228.00002E-3,,Horizontal Units,s,,-2.4760E-3,-116.0000E-3,
Horizontal Scale,499.999999E-6,,-2.4740E-3,228.00002E-3,,Horizontal Scale,499.999999E-6,,-2.4740E-3,-112.0000E-3,
Pt Fmt,Y,,-2.4720E-3,228.00002E-3,,Pt Fmt,Y,,-2.4720E-3,-112.0000E-3,
Yzero,0.0,,-2.4700E-3,228.00002E-3,,Yzero,0.0,,-2.4700E-3,-108.0000E-3,
Probe Atten,1.000,,-2.4680E-3,224.00001E-3,,Probe Atten,1.000,,-2.4680E-3,-108.0000E-3,
,,,-2.4660E-3,224.00001E-3,,,,,-2.4660E-3,-108.0000E-3,
Note,TDS 1012B - 16:23:27   28/11/2016,,-2.4640E-3,224.00001E-3,,Note,TDS 1012B - 16:23:27   28/11/2016,,-2.4640E-3,-104.0000E-3,
,,,-2.4620E-3,220.00001E-3,,,,,-2.4620E-3,-104.0000E-3,
,,,-2.4600E-3,220.00001E-3,,,,,-2.4600E-3,-100.0000E-3,
,,,-2.4580E-3,220.00001E-3,,,,,-2.4580E-3,-100.0000E-3,
,,,-2.4560E-3,216.00001E-3,,,,,-2.4560E-3,-100.0000E-3,
,,,-2.4540E-3,216.00001E-3,,,,,-2.4540E-3,-96.000001E-3,
,,,-2.4520E-3,216.00001E-3,,,,,-2.4520E-3,-92.000008E-3,
,,,-2.4500E-3,216.00001E-3,,,,,-2.4500E-3,-92.000008E-3,
,,,-2.4480E-3,216.00001E-3,,,,,-2.4480E-3,-92.000008E-3,
,,,-2.4460E-3,212.00001E-3,,,,,-2.4460E-3,-88.000007E-3,
,,,-2.4440E-3,212.00001E-3,,,,,-2.4440E-3,-88.000007E-3,
,,,-2.4420E-3,208.00000E-3,,,,,-2.4420E-3,-84.000006E-3,
,,,-2.4400E-3,208.00000E-3,,,,,-2.4400E-3,-84.000006E-3,
,,,-2.4380E-3,208.00000E-3,,,,,-2.4380E-3,-80.000006E-3,
,,,-2.4360E-3,204.00001E-3,,,,,-2.4360E-3,-80.000006E-3,
,,,-2.4340E-3,204.00001E-3,,,,,-2.4340E-3,-80.000006E-3,
,,,-2.4320E-3,204.00001E-3,,,,,-2.4320E-3,-76.000005E-3,
,,,-2.4300E-3,204.00001E-3,,,,,-2.4300E-3,-76.000005E-3,
,,,-2.4280E-3,200.00000E-3,,,,,-2.4280E-3,-76.000005E-3,
,,,-2.4260E-3,200.00000E-3,,,,,-2.4260E-3,-72.000004E-3,
,,,-2.4240E-3,200.00000E-3,,,,,-2.4240E-3,-68.000004E-3,
,,,-2.4220E-3,196.00001E-3,,,,,-2.4220E-3,-68.000004E-3,
,,,-2.4200E-3,196.00001E-3,,,,,-2.4200E-3,-64.000003E-3,
,,,-2.4180E-3,192.00000E-3,,,,,-2.4180E-3,-64.000003E-3,
,,,-2.4160E-3,192.00000E-3,,,,,-2.4160E-3,-64.000003E-3,
,,,-2.4140E-3,192.00000E-3,,,,,-2.4140E-3,-60.000002E-3,
,,,-2.4120E-3,192.00000E-3,,,,,-2.4120E-3,-60.000002E-3,
,,,-2.4100E-3,188.00001E-3,,,,,-2.4100E-3,-60.000002E-3,
,,,-2.4080E-3,184.00002E-3,,,,,-2.4080E-3,-56.000002E-3,
,,,-2.4060E-3,184.00002E-3,,,,,-2.4060E-3,-52.00000E-3,
,,,-2.4040E-3,180.00001E-3,,,,,-2.4040E-3,-52.00000E-3,
,,,-2.4020E-3,180.00001E-3,,,,,-2.4020E-3,-48.00000E-3,
,,,-2.4000E-3,180.00001E-3,,,,,-2.4000E-3,-48.00000E-3,
,,,-2.3980E-3,176.00001E-3,,,,,-2.3980E-3,-48.00000E-3,
,,,-2.3960E-3,176.00001E-3,,,,,-2.3960E-3,-44.00000E-3,
,,,-2.3940E-3,176.00001E-3,,,,,-2.3940E-3,-44.00000E-3,
,,,-2.3920E-3,172.00001E-3,,,,,-2.3920E-3,-40.00000E-3,
,,,-2.3900E-3,172.00001E-3,,,,,-2.3900E-3,-36.00000E-3,
,,,-2.3880E-3,168.00001E-3,,,,,-2.3880E-3,-36.00000E-3,
,,,-2.3860E-3,168.00001E-3,,,,,-2.3860E-3,-36.00000E-3,
,,,-2.3840E-3,168.00001E-3,,,,,-2.3840E-3,-32.00000E-3,
,,,-2.3820E-3,164.00000E-3,,,,,-2.3820E-3,-32.00000E-3,
,,,-2.3800E-3,164.00000E-3,,,,,-2.3800E-3,-28.00000E-3,
,,,-2.3780E-3,160.00001E-3,,,,,-2.3780E-3,-28.00000E-3,
,,,-2.3760E-3,160.00001E-3,,,,,-2.3760E-3,-24.00000E-3,
,,,-2.3740E-3,156.00000E-3,,,,,-2.3740E-3,-24.00000E-3,
,,,-2.3720E-3,156.00000E-3,,,,,-2.3720E-3,-20.0000E-3,
,,,-2.3700E-3,152.00001E-3,,,,,-2.3700E-3,-20.0000E-3,
,,,-2.3680E-3,152.00001E-3,,,,,-2.3680E-3,-20.0000E-3,
,,,-2.3660E-3,148.0000E-3,,,,,-2.3660E-3,-16.0000E-3,
,,,-2.3640E-3,148.0000E-3,,,,,-2.3640E-3,-16.0000E-3,
,,,-2.3620E-3,148.0000E-3,,,,,-2.3620E-3,-12.0000E-3,
,,,-2.3600E-3,144.0000E-3,,,,,-2.3600E-3,-8.000000E-3,
,,,-2.3580E-3,144.0000E-3,,,,,-2.3580E-3,-8.000000E-3,
,,,-2.3560E-3,144.0000E-3,,,,,-2.3560E-3,-4.00000E-3,
,,,-2.3540E-3,140.0000E-3,,,,,-2.3540E-3,-4.00000E-3,
,,,-2.3520E-3,140.0000E-3,,,,,-2.3520E-3,-4.00000E-3,
,,,-2.3500E-3,136.0000E-3,,,,,-2.3500E-3,0.0,
,,,-2.3480E-3,136.0000E-3,,,,,-2.3480E-3,0.0,
,,,-2.3460E-3,132.0000E-3,,,,,-2.3460E-3,4.00000E-3,
,,,-2.3440E-3,132.0000E-3,,,,,-2.3440E-3,4.00000E-3,
,,,-2.3420E-3,128.0000E-3,,,,,-2.3420E-3,8.000000E-3,
,,,-2.3400E-3,128.0000E-3,,,,,-2.3400E-3,8.000000E-3,
,,,-2.3380E-3,124.0000E-3,,,,,-2.3380E-3,12.0000E-3,
,,,-2.3360E-3,124.0000E-3,,,,,-2.3360E-3,12.0000E-3,
,,,-2.3340E-3,120.0000E-3,,,,,-2.3340E-3,16.0000E-3,
,,,-2.3320E-3,120.0000E-3,,,,,-2.3320E-3,16.0000E-3,
,,,-2.3300E-3,116.0000E-3,,,,,-2.3300E-3,20.0000E-3,
,,,-2.3280E-3,116.0000E-3,,,,,-2.3280E-3,20.0000E-3,
,,,-2.3260E-3,112.0000E-3,,,,,-2.3260E-3,24.00000E-3,
,,,-2.3240E-3,112.0000E-3,,,,,-2.3240E-3,24.00000E-3,
,,,-2.3220E-3,112.0000E-3,,,,,-2.3220E-3,28.00000E-3,
,,,-2.3200E-3,108.0000E-3,,,,,-2.3200E-3,28.00000E-3,
,,,-2.3180E-3,104.0000E-3,,,,,-2.3180E-3,32.00000E-3,
,,,-2.3160E-3,100.0000E-3,,,,,-2.3160E-3,32.00000E-3,
,,,-2.3140E-3,100.0000E-3,,,,,-2.3140E-3,32.00000E-3,
,,,-2.3120E-3,96.000001E-3,,,,,-2.3120E-3,36.00000E-3,
,,,-2.3100E-3,96.000001E-3,,,,,-2.3100E-3,40.00000E-3,
,,,-2.3080E-3,92.000008E-3,,,,,-2.3080E-3,40.00000E-3,
,,,-2.3060E-3,92.000008E-3,,,,,-2.3060E-3,40.00000E-3,
,,,-2.3040E-3,92.000008E-3,,,,,-2.3040E-3,44.00000E-3,
,,,-2.3020E-3,88.000007E-3,,,,,-2.3020E-3,44.00000E-3,
,,,-2.3000E-3,88.000007E-3,,,,,-2.3000E-3,48.00000E-3,
,,,-2.2980E-3,84.000006E-3,,,,,-2.2980E-3,48.00000E-3,
,,,-2.2960E-3,84.000006E-3,,,,,-2.2960E-3,48.00000E-3,
,,,-2.2940E-3,80.000006E-3,,,,,-2.2940E-3,52.00000E-3,
,,,-2.2920E-3,76.000005E-3,,,,,-2.2920E-3,52.00000E-3,
,,,-2.2900E-3,76.000005E-3,,,,,-2.2900E-3,56.000002E-3,
,,,-2.2880E-3,72.000004E-3,,,,,-2.2880E-3,56.000002E-3,
,,,-2.2860E-3,72.000004E-3,,,,,-2.2860E-3,60.000002E-3,
,,,-2.2840E-3,68.000004E-3,,,,,-2.2840E-3,60.000002E-3,
,,,-2.2820E-3,68.000004E-3,,,,,-2.2820E-3,64.000003E-3,
,,,-2.2800E-3,64.000003E-3,,,,,-2.2800E-3,64.000003E-3,
,,,-2.2780E-3,60.000002E-3,,,,,-2.2780E-3,68.000004E-3,
,,,-2.2760E-3,60.000002E-3,,,,,-2.2760E-3,68.000004E-3,
,,,-2.2740E-3,60.000002E-3,,,,,-2.2740E-3,68.000004E-3,
,,,-2.2720E-3,56.000002E-3,,,,,-2.2720E-3,72.000004E-3,
,,,-2.2700E-3,52.00000E-3,,,,,-2.2700E-3,76.000005E-3,
,,,-2.2680E-3,52.00000E-3,,,,,-2.2680E-3,76.000005E-3,
,,,-2.2660E-3,48.00000E-3,,,,,-2.2660E-3,80.000006E-3,
,,,-2.2640E-3,48.00000E-3,,,,,-2.2640E-3,80.000006E-3,
,,,-2.2620E-3,44.00000E-3,,,,,-2.2620E-3,84.000006E-3,
,,,-2.2600E-3,44.00000E-3,,,,,-2.2600E-3,84.000006E-3,
,,,-2.2580E-3,40.00000E-3,,,,,-2.2580E-3,88.000007E-3,
,,,-2.2560E-3,36.00000E-3,,,,,-2.2560E-3,88.000007E-3,
,,,-2.2540E-3,36.00000E-3,,,,,-2.2540E-3,88.000007E-3,
,,,-2.2520E-3,32.00000E-3,,,,,-2.2520E-3,92.000008E-3,
,,,-2.2500E-3,32.00000E-3,,,,,-2.2500E-3,92.000008E-3,
,,,-2.2480E-3,28.00000E-3,,,,,-2.2480E-3,96.000001E-3,
,,,-2.2460E-3,28.00000E-3,,,,,-2.2460E-3,96.000001E-3,
,,,-2.2440E-3,24.00000E-3,,,,,-2.2440E-3,96.000001E-3,
,,,-2.2420E-3,24.00000E-3,,,,,-2.2420E-3,100.0000E-3,
,,,-2.2400E-3,20.0000E-3,,,,,-2.2400E-3,100.0000E-3,
,,,-2.2380E-3,16.0000E-3,,,,,-2.2380E-3,104.0000E-3,
,,,-2.2360E-3,16.0000E-3,,,,,-2.2360E-3,104.0000E-3,
,,,-2.2340E-3,12.0000E-3,,,,,-2.2340E-3,104.0000E-3,
,,,-2.2320E-3,12.0000E-3,,,,,-2.2320E-3,108.0000E-3,
,,,-2.2300E-3,12.0000E-3,,,,,-2.2300E-3,108.0000E-3,
,,,-2.2280E-3,4.00000E-3,,,,,-2.2280E-3,112.0000E-3,
,,,-2.2260E-3,4.00000E-3,,,,,-2.2260E-3,112.0000E-3,
,,,-2.2240E-3,4.00000E-3,,,,,-2.2240E-3,112.0000E-3,
,,,-2.2220E-3,0.0,,,,,-2.2220E-3,116.0000E-3,
,,,-2.2200E-3,-4.00000E-3,,,,,-2.2200E-3,120.0000E-3,
,,,-2.2180E-3,-4.00000E-3,,,,,-2.2180E-3,120.0000E-3,
,,,-2.2160E-3,-8.000000E-3,,,,,-2.2160E-3,120.0000E-3,
,,,-2.2140E-3,-12.0000E-3,,,,,-2.2140E-3,120.0000E-3,
,,,-2.2120E-3,-12.0000E-3,,,,,-2.2120E-3,124.0000E-3,
,,,-2.2100E-3,-12.0000E-3,,,,,-2.2100E-3,124.0000E-3,
,,,-2.2080E-3,-16.0000E-3,,,,,-2.2080E-3,128.0000E-3,
,,,-2.2060E-3,-16.0000E-3,,,,,-2.2060E-3,128.0000E-3,
,,,-2.2040E-3,-20.0000E-3,,,,,-2.2040E-3,128.0000E-3,
,,,-2.2020E-3,-20.0000E-3,,,,,-2.2020E-3,132.0000E-3,
,,,-2.2000E-3,-24.00000E-3,,,,,-2.2000E-3,132.0000E-3,
,,,-2.1980E-3,-28.00000E-3,,,,,-2.1980E-3,132.0000E-3,
,,,-2.1960E-3,-28.00000E-3,,,,,-2.1960E-3,136.0000E-3,
,,,-2.1940E-3,-32.00000E-3,,,,,-2.1940E-3,136.0000E-3,
,,,-2.1920E-3,-36.00000E-3,,,,,-2.1920E-3,136.0000E-3,
,,,-2.1900E-3,-36.00000E-3,,,,,-2.1900E-3,140.0000E-3,
,,,-2.1880E-3,-40.00000E-3,,,,,-2.1880E-3,140.0000E-3,
,,,-2.1860E-3,-40.00000E-3,,,,,-2.1860E-3,140.0000E-3,
,,,-2.1840E-3,-44.00000E-3,,,,,-2.1840E-3,144.0000E-3,
,,,-2.1820E-3,-44.00000E-3,,,,,-2.1820E-3,144.0000E-3,
,,,-2.1800E-3,-48.00000E-3,,,,,-2.1800E-3,144.0000E-3,
,,,-2.1780E-3,-48.00000E-3,,,,,-2.1780E-3,148.0000E-3,
,,,-2.1760E-3,-52.00000E-3,,,,,-2.1760E-3,148.0000E-3,
,,,-2.1740E-3,-52.00000E-3,,,,,-2.1740E-3,148.0000E-3,
,,,-2.1720E-3,-56.000002E-3,,,,,-2.1720E-3,152.00001E-3,
,,,-2.1700E-3,-56.000002E-3,,,,,-2.1700E-3,152.00001E-3,
,,,-2.1680E-3,-60.000002E-3,,,,,-2.1680E-3,156.00000E-3,
,,,-2.1660E-3,-64.000003E-3,,,,,-2.1660E-3,156.00000E-3,
,,,-2.1640E-3,-64.000003E-3,,,,,-2.1640E-3,156.00000E-3,
,,,-2.1620E-3,-68.000004E-3,,,,,-2.1620E-3,160.00001E-3,
,,,-2.1600E-3,-68.000004E-3,,,,,-2.1600E-3,160.00001E-3,
,,,-2.1580E-3,-68.000004E-3,,,,,-2.1580E-3,160.00001E-3,
,,,-2.1560E-3,-72.000004E-3,,,,,-2.1560E-3,164.00000E-3,
,,,-2.1540E-3,-76.000005E-3,,,,,-2.1540E-3,164.00000E-3,
,,,-2.1520E-3,-76.000005E-3,,,,,-2.1520E-3,164.00000E-3,
,,,-2.1500E-3,-80.000006E-3,,,,,-2.1500E-3,164.00000E-3,
,,,-2.1480E-3,-80.000006E-3,,,,,-2.1480E-3,168.00001E-3,
,,,-2.1460E-3,-84.000006E-3,,,,,-2.1460E-3,168.00001E-3,
,,,-2.1440E-3,-88.000007E-3,,,,,-2.1440E-3,168.00001E-3,
,,,-2.1420E-3,-88.000007E-3,,,,,-2.1420E-3,172.00001E-3,
,,,-2.1400E-3,-88.000007E-3,,,,,-2.1400E-3,172.00001E-3,
,,,-2.1380E-3,-92.000008E-3,,,,,-2.1380E-3,172.00001E-3,
,,,-2.1360E-3,-96.000001E-3,,,,,-2.1360E-3,172.00001E-3,
,,,-2.1340E-3,-96.000001E-3,,,,,-2.1340E-3,176.00001E-3,
,,,-2.1320E-3,-100.0000E-3,,,,,-2.1320E-3,176.00001E-3,
,,,-2.1300E-3,-100.0000E-3,,,,,-2.1300E-3,176.00001E-3,
,,,-2.1280E-3,-104.0000E-3,,,,,-2.1280E-3,176.00001E-3,
,,,-2.1260E-3,-104.0000E-3,,,,,-2.1260E-3,180.00001E-3,
,,,-2.1240E-3,-108.0000E-3,,,,,-2.1240E-3,180.00001E-3,
,,,-2.1220E-3,-108.0000E-3,,,,,-2.1220E-3,180.00001E-3,
,,,-2.1200E-3,-112.0000E-3,,,,,-2.1200E-3,184.00002E-3,
,,,-2.1180E-3,-112.0000E-3,,,,,-2.1180E-3,184.00002E-3,
,,,-2.1160E-3,-116.0000E-3,,,,,-2.1160E-3,184.00002E-3,
,,,-2.1140E-3,-116.0000E-3,,,,,-2.1140E-3,188.00001E-3,
,,,-2.1120E-3,-120.0000E-3,,,,,-2.1120E-3,188.00001E-3,
,,,-2.1100E-3,-120.0000E-3,,,,,-2.1100E-3,188.00001E-3,
,,,-2.1080E-3,-124.0000E-3,,,,,-2.1080E-3,188.00001E-3,
,,,-2.1060E-3,-128.0000E-3,,,,,-2.1060E-3,188.00001E-3,
,,,-2.1040E-3,-128.0000E-3,,,,,-2.1040E-3,188.00001E-3,
,,,-2.1020E-3,-128.0000E-3,,,,,-2.1020E-3,192.00000E-3,
,,,-2.1000E-3,-132.0000E-3,,,,,-2.1000E-3,192.00000E-3,
,,,-2.0980E-3,-132.0000E-3,,,,,-2.0980E-3,192.00000E-3,
,,,-2.0960E-3,-136.0000E-3,,,,,-2.0960E-3,192.00000E-3,
,,,-2.0940E-3,-136.0000E-3,,,,,-2.0940E-3,196.00001E-3,
,,,-2.0920E-3,-136.0000E-3,,,,,-2.0920E-3,196.00001E-3,
,,,-2.0900E-3,-140.0000E-3,,,,,-2.0900E-3,196.00001E-3,
,,,-2.0880E-3,-140.0000E-3,,,,,-2.0880E-3,196.00001E-3,
,,,-2.0860E-3,-144.0000E-3,,,,,-2.0860E-3,200.00000E-3,
,,,-2.0840E-3,-144.0000E-3,,,,,-2.0840E-3,200.00000E-3,
,,,-2.0820E-3,-148.0000E-3,,,,,-2.0820E-3,200.00000E-3,
,,,-2.0800E-3,-148.0000E-3,,,,,-2.0800E-3,200.00000E-3,
,,,-2.0780E-3,-152.00001E-3,,,,,-2.0780E-3,200.00000E-3,
,,,-2.0760E-3,-152.00001E-3,,,,,-2.0760E-3,200.00000E-3,
,,,-2.0740E-3,-156.00000E-3,,,,,-2.0740E-3,204.00001E-3,
,,,-2.0720E-3,-156.00000E-3,,,,,-2.0720E-3,204.00001E-3,
,,,-2.0700E-3,-160.00001E-3,,,,,-2.0700E-3,204.00001E-3,
,,,-2.0680E-3,-160.00001E-3,,,,,-2.0680E-3,204.00001E-3,
,,,-2.0660E-3,-164.00000E-3,,,,,-2.0660E-3,204.00001E-3,
,,,-2.0640E-3,-164.00000E-3,,,,,-2.0640E-3,204.00001E-3,
,,,-2.0620E-3,-164.00000E-3,,,,,-2.0620E-3,208.00000E-3,
,,,-2.0600E-3,-168.00001E-3,,,,,-2.0600E-3,208.00000E-3,
,,,-2.0580E-3,-168.00001E-3,,,,,-2.0580E-3,208.00000E-3,
,,,-2.0560E-3,-172.00001E-3,,,,,-2.0560E-3,208.00000E-3,
,,,-2.0540E-3,-172.00001E-3,,,,,-2.0540E-3,208.00000E-3,
,,,-2.0520E-3,-172.00001E-3,,,,,-2.0520E-3,208.00000E-3,
,,,-2.0500E-3,-176.00001E-3,,,,,-2.0500E-3,212.00001E-3,
,,,-2.0480E-3,-176.00001E-3,,,,,-2.0480E-3,212.00001E-3,
,,,-2.0460E-3,-180.00001E-3,,,,,-2.0460E-3,212.00001E-3,
,,,-2.0440E-3,-180.00001E-3,,,,,-2.0440E-3,212.00001E-3,
,,,-2.0420E-3,-180.00001E-3,,,,,-2.0420E-3,212.00001E-3,
,,,-2.0400E-3,-184.00002E-3,,,,,-2.0400E-3,212.00001E-3,
,,,-2.0380E-3,-184.00002E-3,,,,,-2.0380E-3,212.00001E-3,
,,,-2.0360E-3,-188.00001E-3,,,,,-2.0360E-3,212.00001E-3,
,,,-2.0340E-3,-188.00001E-3,,,,,-2.0340E-3,212.00001E-3,
,,,-2.0320E-3,-192.00000E-3,,,,,-2.0320E-3,216.00001E-3,
,,,-2.0300E-3,-192.00000E-3,,,,,-2.0300E-3,216.00001E-3,
,,,-2.0280E-3,-192.00000E-3,,,,,-2.0280E-3,216.00001E-3,
,,,-2.0260E-3,-196.00001E-3,,,,,-2.0260E-3,216.00001E-3,
,,,-2.0240E-3,-196.00001E-3,,,,,-2.0240E-3,216.00001E-3,
,,,-2.0220E-3,-200.00000E-3,,,,,-2.0220E-3,216.00001E-3,
,,,-2.0200E-3,-200.00000E-3,,,,,-2.0200E-3,216.00001E-3,
,,,-2.0180E-3,-200.00000E-3,,,,,-2.0180E-3,216.00001E-3,
,,,-2.0160E-3,-204.00001E-3,,,,,-2.0160E-3,216.00001E-3,
,,,-2.0140E-3,-204.00001E-3,,,,,-2.0140E-3,216.00001E-3,
,,,-2.0120E-3,-208.00000E-3,,,,,-2.0120E-3,220.00001E-3,
,,,-2.0100E-3,-208.00000E-3,,,,,-2.0100E-3,220.00001E-3,
,,,-2.0080E-3,-208.00000E-3,,,,,-2.0080E-3,216.00001E-3,
,,,-2.0060E-3,-212.00001E-3,,,,,-2.0060E-3,216.00001E-3,
,,,-2.0040E-3,-212.00001E-3,,,,,-2.0040E-3,216.00001E-3,
,,,-2.0020E-3,-212.00001E-3,,,,,-2.0020E-3,220.00001E-3,
,,,-2.0000E-3,-216.00001E-3,,,,,-2.0000E-3,220.00001E-3,
,,,-1.9980E-3,-216.00001E-3,,,,,-1.9980E-3,220.00001E-3,
,,,-1.9960E-3,-216.00001E-3,,,,,-1.9960E-3,220.00001E-3,
,,,-1.9940E-3,-216.00001E-3,,,,,-1.9940E-3,220.00001E-3,
,,,-1.9920E-3,-220.00001E-3,,,,,-1.9920E-3,220.00001E-3,
,,,-1.9900E-3,-220.00001E-3,,,,,-1.9900E-3,216.00001E-3,
,,,-1.9880E-3,-220.00001E-3,,,,,-1.9880E-3,220.00001E-3,
,,,-1.9860E-3,-224.00001E-3,,,,,-1.9860E-3,220.00001E-3,
,,,-1.9840E-3,-224.00001E-3,,,,,-1.9840E-3,220.00001E-3,
,,,-1.9820E-3,-228.00002E-3,,,,,-1.9820E-3,220.00001E-3,
,,,-1.9800E-3,-224.00001E-3,,,,,-1.9800E-3,220.00001E-3,
,,,-1.9780E-3,-228.00002E-3,,,,,-1.9780E-3,216.00001E-3,
,,,-1.9760E-3,-228.00002E-3,,,,,-1.9760E-3,220.00001E-3,
,,,-1.9740E-3,-228.00002E-3,,,,,-1.9740E-3,220.00001E-3,
,,,-1.9720E-3,-232.00001E-3,,,,,-1.9720E-3,220.00001E-3,
,,,-1.9700E-3,-232.00001E-3,,,,,-1.9700E-3,220.00001E-3,
,,,-1.9680E-3,-232.00001E-3,,,,,-1.9680E-3,220.00001E-3,
,,,-1.9660E-3,-232.00001E-3,,,,,-1.9660E-3,220.00001E-3,
,,,-1.9640E-3,-236.00002E-3,,,,,-1.9640E-3,220.00001E-3,
,,,-1.9620E-3,-236.00002E-3,,,,,-1.9620E-3,220.00001E-3,
,,,-1.9600E-3,-236.00002E-3,,,,,-1.9600E-3,220.00001E-3,
,,,-1.9580E-3,-240.00001E-3,,,,,-1.9580E-3,220.00001E-3,
,,,-1.9560E-3,-240.00001E-3,,,,,-1.9560E-3,216.00001E-3,
,,,-1.9540E-3,-240.00001E-3,,,,,-1.9540E-3,220.00001E-3,
,,,-1.9520E-3,-244.00002E-3,,,,,-1.9520E-3,216.00001E-3,
,,,-1.9500E-3,-244.00002E-3,,,,,-1.9500E-3,216.00001E-3,
,,,-1.9480E-3,-244.00002E-3,,,,,-1.9480E-3,220.00001E-3,
,,,-1.9460E-3,-248.00001E-3,,,,,-1.9460E-3,216.00001E-3,
,,,-1.9440E-3,-244.00002E-3,,,,,-1.9440E-3,220.00001E-3,
,,,-1.9420E-3,-248.00001E-3,,,,,-1.9420E-3,216.00001E-3,
,,,-1.9400E-3,-248.00001E-3,,,,,-1.9400E-3,216.00001E-3,
,,,-1.9380E-3,-248.00001E-3,,,,,-1.9380E-3,216.00001E-3,
,,,-1.9360E-3,-248.00001E-3,,,,,-1.9360E-3,216.00001E-3,
,,,-1.9340E-3,-252.00000E-3,,,,,-1.9340E-3,216.00001E-3,
,,,-1.9320E-3,-252.00000E-3,,,,,-1.9320E-3,216.00001E-3,
,,,-1.9300E-3,-252.00000E-3,,,,,-1.9300E-3,216.00001E-3,
,,,-1.9280E-3,-252.00000E-3,,,,,-1.9280E-3,216.00001E-3,
,,,-1.9260E-3,-252.00000E-3,,,,,-1.9260E-3,216.00001E-3,
,,,-1.9240E-3,-256.00001E-3,,,,,-1.9240E-3,212.00001E-3,
,,,-1.9220E-3,-256.00001E-3,,,,,-1.9220E-3,212.00001E-3,
,,,-1.9200E-3,-256.00001E-3,,,,,-1.9200E-3,212.00001E-3,
,,,-1.9180E-3,-256.00001E-3,,,,,-1.9180E-3,212.00001E-3,
,,,-1.9160E-3,-256.00001E-3,,,,,-1.9160E-3,212.00001E-3,
,,,-1.9140E-3,-256.00001E-3,,,,,-1.9140E-3,212.00001E-3,
,,,-1.9120E-3,-260.00002E-3,,,,,-1.9120E-3,212.00001E-3,
,,,-1.9100E-3,-260.00002E-3,,,,,-1.9100E-3,212.00001E-3,
,,,-1.9080E-3,-260.00002E-3,,,,,-1.9080E-3,212.00001E-3,
,,,-1.9060E-3,-260.00002E-3,,,,,-1.9060E-3,212.00001E-3,
,,,-1.9040E-3,-260.00002E-3,,,,,-1.9040E-3,208.00000E-3,
,,,-1.9020E-3,-260.00002E-3,,,,,-1.9020E-3,208.00000E-3,
,,,-1.9000E-3,-260.00002E-3,,,,,-1.9000E-3,208.00000E-3,
,,,-1.8980E-3,-264.00000E-3,,,,,-1.8980E-3,208.00000E-3,
,,,-1.8960E-3,-264.00000E-3,,,,,-1.8960E-3,208.00000E-3,
,,,-1.8940E-3,-264.00000E-3,,,,,-1.8940E-3,208.00000E-3,
,,,-1.8920E-3,-264.00000E-3,,,,,-1.8920E-3,208.00000E-3,
,,,-1.8900E-3,-264.00000E-3,,,,,-1.8900E-3,204.00001E-3,
,,,-1.8880E-3,-264.00000E-3,,,,,-1.8880E-3,204.00001E-3,
,,,-1.8860E-3,-264.00000E-3,,,,,-1.8860E-3,204.00001E-3,
,,,-1.8840E-3,-264.00000E-3,,,,,-1.8840E-3,204.00001E-3,
,,,-1.8820E-3,-264.00000E-3,,,,,-1.8820E-3,204.00001E-3,
,,,-1.8800E-3,-264.00000E-3,,,,,-1.8800E-3,200.00000E-3,
,,,-1.8780E-3,-268.00001E-3,,,,,-1.8780E-3,200.00000E-3,
,,,-1.8760E-3,-264.00000E-3,,,,,-1.8760E-3,200.00000E-3,
,,,-1.8740E-3,-268.00001E-3,,,,,-1.8740E-3,200.00000E-3,
,,,-1.8720E-3,-268.00001E-3,,,,,-1.8720E-3,196.00001E-3,
,,,-1.8700E-3,-264.00000E-3,,,,,-1.8700E-3,196.00001E-3,
,,,-1.8680E-3,-268.00001E-3,,,,,-1.8680E-3,196.00001E-3,
,,,-1.8660E-3,-268.00001E-3,,,,,-1.8660E-3,196.00001E-3,
,,,-1.8640E-3,-268.00001E-3,,,,,-1.8640E-3,196.00001E-3,
,,,-1.8620E-3,-268.00001E-3,,,,,-1.8620E-3,192.00000E-3,
,,,-1.8600E-3,-268.00001E-3,,,,,-1.8600E-3,192.00000E-3,
,,,-1.8580E-3,-268.00001E-3,,,,,-1.8580E-3,192.00000E-3,
,,,-1.8560E-3,-268.00001E-3,,,,,-1.8560E-3,192.00000E-3,
,,,-1.8540E-3,-268.00001E-3,,,,,-1.8540E-3,188.00001E-3,
,,,-1.8520E-3,-272.00001E-3,,,,,-1.8520E-3,192.00000E-3,
,,,-1.8500E-3,-268.00001E-3,,,,,-1.8500E-3,188.00001E-3,
,,,-1.8480E-3,-268.00001E-3,,,,,-1.8480E-3,188.00001E-3,
,,,-1.8460E-3,-268.00001E-3,,,,,-1.8460E-3,188.00001E-3,
,,,-1.8440E-3,-268.00001E-3,,,,,-1.8440E-3,184.00002E-3,
,,,-1.8420E-3,-268.00001E-3,,,,,-1.8420E-3,184.00002E-3,
,,,-1.8400E-3,-268.00001E-3,,,,,-1.8400E-3,184.00002E-3,
,,,-1.8380E-3,-268.00001E-3,,,,,-1.8380E-3,184.00002E-3,
,,,-1.8360E-3,-268.00001E-3,,,,,-1.8360E-3,180.00001E-3,
,,,-1.8340E-3,-268.00001E-3,,,,,-1.8340E-3,180.00001E-3,
,,,-1.8320E-3,-268.00001E-3,,,,,-1.8320E-3,176.00001E-3,
,,,-1.8300E-3,-268.00001E-3,,,,,-1.8300E-3,180.00001E-3,
,,,-1.8280E-3,-268.00001E-3,,,,,-1.8280E-3,176.00001E-3,
,,,-1.8260E-3,-268.00001E-3,,,,,-1.8260E-3,176.00001E-3,
,,,-1.8240E-3,-268.00001E-3,,,,,-1.8240E-3,176.00001E-3,
,,,-1.8220E-3,-268.00001E-3,,,,,-1.8220E-3,176.00001E-3,
,,,-1.8200E-3,-264.00000E-3,,,,,-1.8200E-3,172.00001E-3,
,,,-1.8180E-3,-264.00000E-3,,,,,-1.8180E-3,172.00001E-3,
,,,-1.8160E-3,-264.00000E-3,,,,,-1.8160E-3,168.00001E-3,
,,,-1.8140E-3,-264.00000E-3,,,,,-1.8140E-3,168.00001E-3,
,,,-1.8120E-3,-264.00000E-3,,,,,-1.8120E-3,168.00001E-3,
,,,-1.8100E-3,-264.00000E-3,,,,,-1.8100E-3,168.00001E-3,
,,,-1.8080E-3,-264.00000E-3,,,,,-1.8080E-3,164.00000E-3,
,,,-1.8060E-3,-264.00000E-3,,,,,-1.8060E-3,164.00000E-3,
,,,-1.8040E-3,-264.00000E-3,,,,,-1.8040E-3,160.00001E-3,
