07/Figs-Tabs/slew_1.csv

Record Length,2500,Points,-2.5000E-6,-120.0000E-3,,Record Length,2500,Points,-2.5000E-6,14.8000,
Sample Interval,2.0000E-9,s,-2.4980E-6,-120.0000E-3,,Sample Interval,2.0000E-9,s,-2.4980E-6,14.8000,
Trigger Point,1.2500E3,Samples,-2.4960E-6,-120.0000E-3,,Trigger Point,1.2500E3,Samples,-2.4960E-6,15.0000,
,,,-2.4940E-6,-120.0000E-3,,,,,-2.4940E-6,14.8000,
,,,-2.4920E-6,-160.00000E-3,,,,,-2.4920E-6,15.0000,
,,,-2.4900E-6,-120.0000E-3,,,,,-2.4900E-6,15.0000,
Source,CH1,,-2.4880E-6,-120.0000E-3,,Source,CH2,,-2.4880E-6,14.6000,
Vertical Units,Volts,,-2.4860E-6,-79.999998E-3,,Vertical Units,Volts,,-2.4860E-6,15.0000,
Vertical Scale,1.000,,-2.4840E-6,-79.999998E-3,,Vertical Scale,5.00000,,-2.4840E-6,15.0000,
Vertical Offset,0,,-2.4820E-6,-120.0000E-3,,Vertical Offset,0,,-2.4820E-6,15.0000,
Horizontal Units,s,,-2.4800E-6,-120.0000E-3,,Horizontal Units,s,,-2.4800E-6,15.0000,
Horizontal Scale,499.999986E-9,,-2.4780E-6,-120.0000E-3,,Horizontal Scale,499.999986E-9,,-2.4780E-6,14.8000,
Pt Fmt,Y,,-2.4760E-6,-120.0000E-3,,Pt Fmt,Y,,-2.4760E-6,14.8000,
Yzero,0.0,,-2.4740E-6,-120.0000E-3,,Yzero,40.00000E-3,,-2.4740E-6,14.8000,
Probe Atten,1.000,,-2.4720E-6,-79.999998E-3,,Probe Atten,1.000,,-2.4720E-6,15.2000,
,,,-2.4700E-6,-120.0000E-3,,,,,-2.4700E-6,15.0000,
Note,TDS 1012B - 15:49:51   21/11/2016,,-2.4680E-6,-120.0000E-3,,Note,TDS 1012B - 15:49:51   21/11/2016,,-2.4680E-6,14.8000,
,,,-2.4660E-6,-79.999998E-3,,,,,-2.4660E-6,14.8000,
,,,-2.4640E-6,-160.00000E-3,,,,,-2.4640E-6,14.8000,
,,,-2.4620E-6,-79.999998E-3,,,,,-2.4620E-6,14.8000,
,,,-2.4600E-6,-120.0000E-3,,,,,-2.4600E-6,14.8000,
,,,-2.4580E-6,-79.999998E-3,,,,,-2.4580E-6,15.0000,
,,,-2.4560E-6,-79.999998E-3,,,,,-2.4560E-6,15.0000,
,,,-2.4540E-6,-120.0000E-3,,,,,-2.4540E-6,15.0000,
,,,-2.4520E-6,-120.0000E-3,,,,,-2.4520E-6,15.0000,
,,,-2.4500E-6,-79.999998E-3,,,,,-2.4500E-6,15.2000,
,,,-2.4480E-6,-79.999998E-3,,,,,-2.4480E-6,14.8000,
,,,-2.4460E-6,-79.999998E-3,,,,,-2.4460E-6,14.6000,
,,,-2.4440E-6,-120.0000E-3,,,,,-2.4440E-6,15.0000,
,,,-2.4420E-6,-79.999998E-3,,,,,-2.4420E-6,14.8000,
,,,-2.4400E-6,-79.999998E-3,,,,,-2.4400E-6,14.8000,
,,,-2.4380E-6,-79.999998E-3,,,,,-2.4380E-6,15.0000,
,,,-2.4360E-6,-79.999998E-3,,,,,-2.4360E-6,15.0000,
,,,-2.4340E-6,-79.999998E-3,,,,,-2.4340E-6,15.0000,
,,,-2.4320E-6,-79.999998E-3,,,,,-2.4320E-6,15.0000,
,,,-2.4300E-6,-79.999998E-3,,,,,-2.4300E-6,15.0000,
,,,-2.4280E-6,-79.999998E-3,,,,,-2.4280E-6,14.6000,
,,,-2.4260E-6,-40.00000E-3,,,,,-2.4260E-6,15.0000,
,,,-2.4240E-6,-40.00000E-3,,,,,-2.4240E-6,14.8000,
,,,-2.4220E-6,-79.999998E-3,,,,,-2.4220E-6,15.0000,
,,,-2.4200E-6,-40.00000E-3,,,,,-2.4200E-6,14.8000,
,,,-2.4180E-6,-40.00000E-3,,,,,-2.4180E-6,15.0000,
,,,-2.4160E-6,-120.0000E-3,,,,,-2.4160E-6,15.2000,
,,,-2.4140E-6,-79.999998E-3,,,,,-2.4140E-6,14.8000,
,,,-2.4120E-6,-40.00000E-3,,,,,-2.4120E-6,15.0000,
,,,-2.4100E-6,-79.999998E-3,,,,,-2.4100E-6,15.0000,
,,,-2.4080E-6,-79.999998E-3,,,,,-2.4080E-6,14.8000,
,,,-2.4060E-6,-79.999998E-3,,,,,-2.4060E-6,15.0000,
,,,-2.4040E-6,-40.00000E-3,,,,,-2.4040E-6,15.0000,
,,,-2.4020E-6,-79.999998E-3,,,,,-2.4020E-6,14.8000,
,,,-2.4000E-6,-79.999998E-3,,,,,-2.4000E-6,14.8000,
,,,-2.3980E-6,-40.00000E-3,,,,,-2.3980E-6,15.0000,
,,,-2.3960E-6,-40.00000E-3,,,,,-2.3960E-6,14.8000,
,,,-2.3940E-6,-40.00000E-3,,,,,-2.3940E-6,14.8000,
,,,-2.3920E-6,-79.999998E-3,,,,,-2.3920E-6,14.8000,
,,,-2.3900E-6,-40.00000E-3,,,,,-2.3900E-6,14.8000,
,,,-2.3880E-6,-40.00000E-3,,,,,-2.3880E-6,14.8000,
,,,-2.3860E-6,-79.999998E-3,,,,,-2.3860E-6,14.8000,
,,,-2.3840E-6,0.0,,,,,-2.3840E-6,14.8000,
,,,-2.3820E-6,-79.999998E-3,,,,,-2.3820E-6,15.0000,
,,,-2.3800E-6,-40.00000E-3,,,,,-2.3800E-6,15.0000,
,,,-2.3780E-6,-40.00000E-3,,,,,-2.3780E-6,14.8000,
,,,-2.3760E-6,-40.00000E-3,,,,,-2.3760E-6,15.0000,
,,,-2.3740E-6,-40.00000E-3,,,,,-2.3740E-6,14.8000,
,,,-2.3720E-6,-40.00000E-3,,,,,-2.3720E-6,15.0000,
,,,-2.3700E-6,-40.00000E-3,,,,,-2.3700E-6,14.8000,
,,,-2.3680E-6,0.0,,,,,-2.3680E-6,15.0000,
,,,-2.3660E-6,0.0,,,,,-2.3660E-6,15.0000,
,,,-2.3640E-6,-40.00000E-3,,,,,-2.3640E-6,15.2000,
,,,-2.3620E-6,0.0,,,,,-2.3620E-6,15.0000,
,,,-2.3600E-6,-40.00000E-3,,,,,-2.3600E-6,15.0000,
,,,-2.3580E-6,0.0,,,,,-2.3580E-6,15.0000,
,,,-2.3560E-6,0.0,,,,,-2.3560E-6,14.8000,
,,,-2.3540E-6,-40.00000E-3,,,,,-2.3540E-6,14.8000,
,,,-2.3520E-6,-40.00000E-3,,,,,-2.3520E-6,15.0000,
,,,-2.3500E-6,0.0,,,,,-2.3500E-6,15.0000,
,,,-2.3480E-6,-40.00000E-3,,,,,-2.3480E-6,15.0000,
,,,-2.3460E-6,0.0,,,,,-2.3460E-6,14.8000,
,,,-2.3440E-6,-40.00000E-3,,,,,-2.3440E-6,15.0000,
,,,-2.3420E-6,-40.00000E-3,,,,,-2.3420E-6,14.8000,
,,,-2.3400E-6,0.0,,,,,-2.3400E-6,15.0000,
,,,-2.3380E-6,-40.00000E-3,,,,,-2.3380E-6,14.8000,
,,,-2.3360E-6,-40.00000E-3,,,,,-2.3360E-6,15.0000,
,,,-2.3340E-6,0.0,,,,,-2.3340E-6,14.8000,
,,,-2.3320E-6,0.0,,,,,-2.3320E-6,14.8000,
,,,-2.3300E-6,-40.00000E-3,,,,,-2.3300E-6,14.8000,
,,,-2.3280E-6,-40.00000E-3,,,,,-2.3280E-6,14.6000,
,,,-2.3260E-6,0.0,,,,,-2.3260E-6,14.8000,
,,,-2.3240E-6,0.0,,,,,-2.3240E-6,14.8000,
,,,-2.3220E-6,0.0,,,,,-2.3220E-6,15.0000,
,,,-2.3200E-6,-40.00000E-3,,,,,-2.3200E-6,14.8000,
,,,-2.3180E-6,0.0,,,,,-2.3180E-6,15.0000,
,,,-2.3160E-6,-40.00000E-3,,,,,-2.3160E-6,15.2000,
,,,-2.3140E-6,-40.00000E-3,,,,,-2.3140E-6,15.0000,
,,,-2.3120E-6,0.0,,,,,-2.3120E-6,15.0000,
,,,-2.3100E-6,40.00000E-3,,,,,-2.3100E-6,15.0000,
,,,-2.3080E-6,79.999998E-3,,,,,-2.3080E-6,15.0000,
,,,-2.3060E-6,0.0,,,,,-2.3060E-6,14.8000,
,,,-2.3040E-6,40.00000E-3,,,,,-2.3040E-6,15.2000,
,,,-2.3020E-6,0.0,,,,,-2.3020E-6,14.8000,
,,,-2.3000E-6,0.0,,,,,-2.3000E-6,15.0000,
,,,-2.2980E-6,40.00000E-3,,,,,-2.2980E-6,14.8000,
,,,-2.2960E-6,-40.00000E-3,,,,,-2.2960E-6,15.0000,
,,,-2.2940E-6,0.0,,,,,-2.2940E-6,15.0000,
,,,-2.2920E-6,0.0,,,,,-2.2920E-6,15.0000,
,,,-2.2900E-6,0.0,,,,,-2.2900E-6,14.8000,
,,,-2.2880E-6,0.0,,,,,-2.2880E-6,14.8000,
,,,-2.2860E-6,0.0,,,,,-2.2860E-6,15.0000,
,,,-2.2840E-6,40.00000E-3,,,,,-2.2840E-6,15.0000,
,,,-2.2820E-6,0.0,,,,,-2.2820E-6,15.0000,
,,,-2.2800E-6,0.0,,,,,-2.2800E-6,14.6000,
,,,-2.2780E-6,40.00000E-3,,,,,-2.2780E-6,14.8000,
,,,-2.2760E-6,40.00000E-3,,,,,-2.2760E-6,15.0000,
,,,-2.2740E-6,40.00000E-3,,,,,-2.2740E-6,15.0000,
,,,-2.2720E-6,79.999998E-3,,,,,-2.2720E-6,14.8000,
,,,-2.2700E-6,0.0,,,,,-2.2700E-6,15.0000,
,,,-2.2680E-6,40.00000E-3,,,,,-2.2680E-6,15.0000,
,,,-2.2660E-6,40.00000E-3,,,,,-2.2660E-6,14.8000,
,,,-2.2640E-6,0.0,,,,,-2.2640E-6,15.0000,
,,,-2.2620E-6,40.00000E-3,,,,,-2.2620E-6,14.8000,
,,,-2.2600E-6,40.00000E-3,,,,,-2.2600E-6,14.8000,
,,,-2.2580E-6,0.0,,,,,-2.2580E-6,14.8000,
,,,-2.2560E-6,40.00000E-3,,,,,-2.2560E-6,14.8000,
,,,-2.2540E-6,40.00000E-3,,,,,-2.2540E-6,14.8000,
,,,-2.2520E-6,40.00000E-3,,,,,-2.2520E-6,15.0000,
,,,-2.2500E-6,0.0,,,,,-2.2500E-6,14.8000,
,,,-2.2480E-6,40.00000E-3,,,,,-2.2480E-6,14.8000,
,,,-2.2460E-6,79.999998E-3,,,,,-2.2460E-6,14.8000,
,,,-2.2440E-6,40.00000E-3,,,,,-2.2440E-6,14.8000,
,,,-2.2420E-6,40.00000E-3,,,,,-2.2420E-6,14.8000,
,,,-2.2400E-6,0.0,,,,,-2.2400E-6,14.8000,
,,,-2.2380E-6,0.0,,,,,-2.2380E-6,14.8000,
,,,-2.2360E-6,40.00000E-3,,,,,-2.2360E-6,15.0000,
,,,-2.2340E-6,79.999998E-3,,,,,-2.2340E-6,14.8000,
,,,-2.2320E-6,0.0,,,,,-2.2320E-6,14.8000,
,,,-2.2300E-6,79.999998E-3,,,,,-2.2300E-6,14.8000,
,,,-2.2280E-6,40.00000E-3,,,,,-2.2280E-6,15.0000,
,,,-2.2260E-6,79.999998E-3,,,,,-2.2260E-6,14.8000,
,,,-2.2240E-6,40.00000E-3,,,,,-2.2240E-6,15.0000,
,,,-2.2220E-6,40.00000E-3,,,,,-2.2220E-6,15.0000,
,,,-2.2200E-6,79.999998E-3,,,,,-2.2200E-6,14.8000,
,,,-2.2180E-6,0.0,,,,,-2.2180E-6,15.0000,
,,,-2.2160E-6,40.00000E-3,,,,,-2.2160E-6,15.0000,
,,,-2.2140E-6,79.999998E-3,,,,,-2.2140E-6,14.8000,
,,,-2.2120E-6,40.00000E-3,,,,,-2.2120E-6,14.8000,
,,,-2.2100E-6,120.0000E-3,,,,,-2.2100E-6,14.8000,
,,,-2.2080E-6,79.999998E-3,,,,,-2.2080E-6,14.8000,
,,,-2.2060E-6,40.00000E-3,,,,,-2.2060E-6,14.8000,
,,,-2.2040E-6,79.999998E-3,,,,,-2.2040E-6,15.0000,
,,,-2.2020E-6,40.00000E-3,,,,,-2.2020E-6,14.8000,
,,,-2.2000E-6,40.00000E-3,,,,,-2.2000E-6,14.8000,
,,,-2.1980E-6,120.0000E-3,,,,,-2.1980E-6,15.0000,
,,,-2.1960E-6,79.999998E-3,,,,,-2.1960E-6,15.0000,
,,,-2.1940E-6,0.0,,,,,-2.1940E-6,14.8000,
,,,-2.1920E-6,120.0000E-3,,,,,-2.1920E-6,14.8000,
,,,-2.1900E-6,79.999998E-3,,,,,-2.1900E-6,15.0000,
,,,-2.1880E-6,79.999998E-3,,,,,-2.1880E-6,15.0000,
,,,-2.1860E-6,120.0000E-3,,,,,-2.1860E-6,14.8000,
,,,-2.1840E-6,40.00000E-3,,,,,-2.1840E-6,15.0000,
,,,-2.1820E-6,40.00000E-3,,,,,-2.1820E-6,15.0000,
,,,-2.1800E-6,79.999998E-3,,,,,-2.1800E-6,14.8000,
,,,-2.1780E-6,79.999998E-3,,,,,-2.1780E-6,14.6000,
,,,-2.1760E-6,120.0000E-3,,,,,-2.1760E-6,14.8000,
,,,-2.1740E-6,120.0000E-3,,,,,-2.1740E-6,15.0000,
,,,-2.1720E-6,120.0000E-3,,,,,-2.1720E-6,14.8000,
,,,-2.1700E-6,120.0000E-3,,,,,-2.1700E-6,15.0000,
,,,-2.1680E-6,79.999998E-3,,,,,-2.1680E-6,15.0000,
,,,-2.1660E-6,120.0000E-3,,,,,-2.1660E-6,14.8000,
,,,-2.1640E-6,79.999998E-3,,,,,-2.1640E-6,14.8000,
,,,-2.1620E-6,120.0000E-3,,,,,-2.1620E-6,15.0000,
,,,-2.1600E-6,120.0000E-3,,,,,-2.1600E-6,14.8000,
,,,-2.1580E-6,120.0000E-3,,,,,-2.1580E-6,14.6000,
,,,-2.1560E-6,120.0000E-3,,,,,-2.1560E-6,14.8000,
,,,-2.1540E-6,79.999998E-3,,,,,-2.1540E-6,14.8000,
,,,-2.1520E-6,79.999998E-3,,,,,-2.1520E-6,14.8000,
,,,-2.1500E-6,160.00000E-3,,,,,-2.1500E-6,15.0000,
,,,-2.1480E-6,79.999998E-3,,,,,-2.1480E-6,15.0000,
,,,-2.1460E-6,79.999998E-3,,,,,-2.1460E-6,15.0000,
,,,-2.1440E-6,120.0000E-3,,,,,-2.1440E-6,14.8000,
,,,-2.1420E-6,120.0000E-3,,,,,-2.1420E-6,14.8000,
,,,-2.1400E-6,120.0000E-3,,,,,-2.1400E-6,14.8000,
,,,-2.1380E-6,120.0000E-3,,,,,-2.1380E-6,15.0000,
,,,-2.1360E-6,120.0000E-3,,,,,-2.1360E-6,15.0000,
,,,-2.1340E-6,120.0000E-3,,,,,-2.1340E-6,15.0000,
,,,-2.1320E-6,120.0000E-3,,,,,-2.1320E-6,15.0000,
,,,-2.1300E-6,79.999998E-3,,,,,-2.1300E-6,14.8000,
,,,-2.1280E-6,120.0000E-3,,,,,-2.1280E-6,14.8000,
,,,-2.1260E-6,120.0000E-3,,,,,-2.1260E-6,14.8000,
,,,-2.1240E-6,120.0000E-3,,,,,-2.1240E-6,15.0000,
,,,-2.1220E-6,79.999998E-3,,,,,-2.1220E-6,14.8000,
,,,-2.1200E-6,160.00000E-3,,,,,-2.1200E-6,15.0000,
,,,-2.1180E-6,160.00000E-3,,,,,-2.1180E-6,15.0000,
,,,-2.1160E-6,199.99999E-3,,,,,-2.1160E-6,15.0000,
,,,-2.1140E-6,160.00000E-3,,,,,-2.1140E-6,14.8000,
,,,-2.1120E-6,120.0000E-3,,,,,-2.1120E-6,15.0000,
,,,-2.1100E-6,120.0000E-3,,,,,-2.1100E-6,15.0000,
,,,-2.1080E-6,120.0000E-3,,,,,-2.1080E-6,15.0000,
,,,-2.1060E-6,160.00000E-3,,,,,-2.1060E-6,14.8000,
,,,-2.1040E-6,160.00000E-3,,,,,-2.1040E-6,14.8000,
,,,-2.1020E-6,120.0000E-3,,,,,-2.1020E-6,15.0000,
,,,-2.1000E-6,120.0000E-3,,,,,-2.1000E-6,15.0000,
,,,-2.0980E-6,120.0000E-3,,,,,-2.0980E-6,15.0000,
,,,-2.0960E-6,120.0000E-3,,,,,-2.0960E-6,14.8000,
,,,-2.0940E-6,160.00000E-3,,,,,-2.0940E-6,14.8000,
,,,-2.0920E-6,79.999998E-3,,,,,-2.0920E-6,15.0000,
,,,-2.0900E-6,120.0000E-3,,,,,-2.0900E-6,14.8000,
,,,-2.0880E-6,160.00000E-3,,,,,-2.0880E-6,15.0000,
,,,-2.0860E-6,160.00000E-3,,,,,-2.0860E-6,15.2000,
,,,-2.0840E-6,120.0000E-3,,,,,-2.0840E-6,15.2000,
,,,-2.0820E-6,120.0000E-3,,,,,-2.0820E-6,14.8000,
,,,-2.0800E-6,160.00000E-3,,,,,-2.0800E-6,15.0000,
,,,-2.0780E-6,120.0000E-3,,,,,-2.0780E-6,14.8000,
,,,-2.0760E-6,160.00000E-3,,,,,-2.0760E-6,14.8000,
,,,-2.0740E-6,160.00000E-3,,,,,-2.0740E-6,14.8000,
,,,-2.0720E-6,160.00000E-3,,,,,-2.0720E-6,14.8000,
,,,-2.0700E-6,160.00000E-3,,,,,-2.0700E-6,14.8000,
,,,-2.0680E-6,160.00000E-3,,,,,-2.0680E-6,14.8000,
,,,-2.0660E-6,120.0000E-3,,,,,-2.0660E-6,15.0000,
,,,-2.0640E-6,160.00000E-3,,,,,-2.0640E-6,14.6000,
,,,-2.0620E-6,160.00000E-3,,,,,-2.0620E-6,14.8000,
,,,-2.0600E-6,160.00000E-3,,,,,-2.0600E-6,15.0000,
,,,-2.0580E-6,160.00000E-3,,,,,-2.0580E-6,14.8000,
,,,-2.0560E-6,120.0000E-3,,,,,-2.0560E-6,14.8000,
,,,-2.0540E-6,160.00000E-3,,,,,-2.0540E-6,15.0000,
,,,-2.0520E-6,160.00000E-3,,,,,-2.0520E-6,15.0000,
,,,-2.0500E-6,160.00000E-3,,,,,-2.0500E-6,15.0000,
,,,-2.0480E-6,160.00000E-3,,,,,-2.0480E-6,15.0000,
,,,-2.0460E-6,160.00000E-3,,,,,-2.0460E-6,15.0000,
,,,-2.0440E-6,160.00000E-3,,,,,-2.0440E-6,15.0000,
,,,-2.0420E-6,199.99999E-3,,,,,-2.0420E-6,14.8000,
,,,-2.0400E-6,199.99999E-3,,,,,-2.0400E-6,14.8000,
,,,-2.0380E-6,239.99999E-3,,,,,-2.0380E-6,14.8000,
,,,-2.0360E-6,160.00000E-3,,,,,-2.0360E-6,14.8000,
,,,-2.0340E-6,160.00000E-3,,,,,-2.0340E-6,15.0000,
,,,-2.0320E-6,160.00000E-3,,,,,-2.0320E-6,14.8000,
,,,-2.0300E-6,160.00000E-3,,,,,-2.0300E-6,15.0000,
,,,-2.0280E-6,160.00000E-3,,,,,-2.0280E-6,14.8000,
,,,-2.0260E-6,160.00000E-3,,,,,-2.0260E-6,15.0000,
,,,-2.0240E-6,199.99999E-3,,,,,-2.0240E-6,15.0000,
,,,-2.0220E-6,120.0000E-3,,,,,-2.0220E-6,15.0000,
,,,-2.0200E-6,160.00000E-3,,,,,-2.0200E-6,14.8000,
,,,-2.0180E-6,199.99999E-3,,,,,-2.0180E-6,14.8000,
,,,-2.0160E-6,199.99999E-3,,,,,-2.0160E-6,15.0000,
,,,-2.0140E-6,239.99999E-3,,,,,-2.0140E-6,15.0000,
,,,-2.0120E-6,199.99999E-3,,,,,-2.0120E-6,14.8000,
,,,-2.0100E-6,199.99999E-3,,,,,-2.0100E-6,15.0000,
,,,-2.0080E-6,239.99999E-3,,,,,-2.0080E-6,14.8000,
,,,-2.0060E-6,199.99999E-3,,,,,-2.0060E-6,15.0000,
,,,-2.0040E-6,199.99999E-3,,,,,-2.0040E-6,15.0000,
,,,-2.0020E-6,199.99999E-3,,,,,-2.0020E-6,15.0000,
,,,-2.0000E-6,199.99999E-3,,,,,-2.0000E-6,14.8000,
,,,-1.9980E-6,239.99999E-3,,,,,-1.9980E-6,14.8000,
,,,-1.9960E-6,199.99999E-3,,,,,-1.9960E-6,14.8000,
,,,-1.9940E-6,199.99999E-3,,,,,-1.9940E-6,14.8000,
,,,-1.9920E-6,160.00000E-3,,,,,-1.9920E-6,15.0000,
,,,-1.9900E-6,239.99999E-3,,,,,-1.9900E-6,15.0000,
,,,-1.9880E-6,239.99999E-3,,,,,-1.9880E-6,15.0000,
,,,-1.9860E-6,160.00000E-3,,,,,-1.9860E-6,14.8000,
,,,-1.9840E-6,199.99999E-3,,,,,-1.9840E-6,14.8000,
,,,-1.9820E-6,199.99999E-3,,,,,-1.9820E-6,14.8000,
,,,-1.9800E-6,239.99999E-3,,,,,-1.9800E-6,14.8000,
,,,-1.9780E-6,239.99999E-3,,,,,-1.9780E-6,14.8000,
,,,-1.9760E-6,199.99999E-3,,,,,-1.9760E-6,15.0000,
,,,-1.9740E-6,160.00000E-3,,,,,-1.9740E-6,14.6000,
,,,-1.9720E-6,199.99999E-3,,,,,-1.9720E-6,15.0000,
,,,-1.9700E-6,199.99999E-3,,,,,-1.9700E-6,15.2000,
,,,-1.9680E-6,199.99999E-3,,,,,-1.9680E-6,15.0000,
,,,-1.9660E-6,199.99999E-3,,,,,-1.9660E-6,15.0000,
,,,-1.9640E-6,239.99999E-3,,,,,-1.9640E-6,15.0000,
,,,-1.9620E-6,239.99999E-3,,,,,-1.9620E-6,15.0000,
,,,-1.9600E-6,199.99999E-3,,,,,-1.9600E-6,14.8000,
,,,-1.9580E-6,239.99999E-3,,,,,-1.9580E-6,14.8000,
,,,-1.9560E-6,280.00000E-3,,,,,-1.9560E-6,14.8000,
,,,-1.9540E-6,239.99999E-3,,,,,-1.9540E-6,15.0000,
,,,-1.9520E-6,239.99999E-3,,,,,-1.9520E-6,15.0000,
,,,-1.9500E-6,199.99999E-3,,,,,-1.9500E-6,14.8000,
,,,-1.9480E-6,239.99999E-3,,,,,-1.9480E-6,15.0000,
,,,-1.9460E-6,239.99999E-3,,,,,-1.9460E-6,15.0000,
,,,-1.9440E-6,239.99999E-3,,,,,-1.9440E-6,14.8000,
,,,-1.9420E-6,199.99999E-3,,,,,-1.9420E-6,14.6000,
,,,-1.9400E-6,239.99999E-3,,,,,-1.9400E-6,15.0000,
,,,-1.9380E-6,239.99999E-3,,,,,-1.9380E-6,14.8000,
,,,-1.9360E-6,239.99999E-3,,,,,-1.9360E-6,14.8000,
,,,-1.9340E-6,239.99999E-3,,,,,-1.9340E-6,14.8000,
,,,-1.9320E-6,239.99999E-3,,,,,-1.9320E-6,14.8000,
,,,-1.9300E-6,239.99999E-3,,,,,-1.9300E-6,14.6000,
,,,-1.9280E-6,239.99999E-3,,,,,-1.9280E-6,14.8000,
,,,-1.9260E-6,239.99999E-3,,,,,-1.9260E-6,15.0000,
,,,-1.9240E-6,239.99999E-3,,,,,-1.9240E-6,14.8000,
,,,-1.9220E-6,280.00000E-3,,,,,-1.9220E-6,15.0000,
,,,-1.9200E-6,239.99999E-3,,,,,-1.9200E-6,15.2000,
,,,-1.9180E-6,239.99999E-3,,,,,-1.9180E-6,15.2000,
,,,-1.9160E-6,280.00000E-3,,,,,-1.9160E-6,15.0000,
,,,-1.9140E-6,280.00000E-3,,,,,-1.9140E-6,14.8000,
,,,-1.9120E-6,280.00000E-3,,,,,-1.9120E-6,14.6000,
,,,-1.9100E-6,280.00000E-3,,,,,-1.9100E-6,14.8000,
,,,-1.9080E-6,239.99999E-3,,,,,-1.9080E-6,14.8000,
,,,-1.9060E-6,239.99999E-3,,,,,-1.9060E-6,14.8000,
,,,-1.9040E-6,280.00000E-3,,,,,-1.9040E-6,15.0000,
,,,-1.9020E-6,239.99999E-3,,,,,-1.9020E-6,15.0000,
,,,-1.9000E-6,239.99999E-3,,,,,-1.9000E-6,15.0000,
,,,-1.8980E-6,280.00000E-3,,,,,-1.8980E-6,15.2000,
,,,-1.8960E-6,239.99999E-3,,,,,-1.8960E-6,15.0000,
,,,-1.8940E-6,239.99999E-3,,,,,-1.8940E-6,14.8000,
,,,-1.8920E-6,239.99999E-3,,,,,-1.8920E-6,15.0000,
,,,-1.8900E-6,280.00000E-3,,,,,-1.8900E-6,14.8000,
,,,-1.8880E-6,280.00000E-3,,,,,-1.8880E-6,15.0000,
,,,-1.8860E-6,280.00000E-3,,,,,-1.8860E-6,14.8000,
,,,-1.8840E-6,280.00000E-3,,,,,-1.8840E-6,14.6000,
,,,-1.8820E-6,239.99999E-3,,,,,-1.8820E-6,15.0000,
,,,-1.8800E-6,319.99999E-3,,,,,-1.8800E-6,15.0000,
,,,-1.8780E-6,280.00000E-3,,,,,-1.8780E-6,14.8000,
,,,-1.8760E-6,319.99999E-3,,,,,-1.8760E-6,15.0000,
,,,-1.8740E-6,319.99999E-3,,,,,-1.8740E-6,14.8000,
,,,-1.8720E-6,239.99999E-3,,,,,-1.8720E-6,14.8000,
,,,-1.8700E-6,280.00000E-3,,,,,-1.8700E-6,14.8000,
,,,-1.8680E-6,319.99999E-3,,,,,-1.8680E-6,14.8000,
,,,-1.8660E-6,239.99999E-3,,,,,-1.8660E-6,14.8000,
,,,-1.8640E-6,280.00000E-3,,,,,-1.8640E-6,14.8000,
,,,-1.8620E-6,239.99999E-3,,,,,-1.8620E-6,14.8000,
,,,-1.8600E-6,280.00000E-3,,,,,-1.8600E-6,15.0000,
,,,-1.8580E-6,280.00000E-3,,,,,-1.8580E-6,15.0000,
,,,-1.8560E-6,319.99999E-3,,,,,-1.8560E-6,14.8000,
,,,-1.8540E-6,239.99999E-3,,,,,-1.8540E-6,14.8000,
,,,-1.8520E-6,239.99999E-3,,,,,-1.8520E-6,14.8000,
,,,-1.8500E-6,239.99999E-3,,,,,-1.8500E-6,14.8000,
,,,-1.8480E-6,239.99999E-3,,,,,-1.8480E-6,15.0000,
,,,-1.8460E-6,239.99999E-3,,,,,-1.8460E-6,14.8000,
,,,-1.8440E-6,319.99999E-3,,,,,-1.8440E-6,15.0000,
,,,-1.8420E-6,280.00000E-3,,,,,-1.8420E-6,14.8000,
,,,-1.8400E-6,280.00000E-3,,,,,-1.8400E-6,14.8000,
,,,-1.8380E-6,280.00000E-3,,,,,-1.8380E-6,15.0000,
,,,-1.8360E-6,319.99999E-3,,,,,-1.8360E-6,14.8000,
,,,-1.8340E-6,280.00000E-3,,,,,-1.8340E-6,14.8000,
,,,-1.8320E-6,319.99999E-3,,,,,-1.8320E-6,14.8000,
,,,-1.8300E-6,319.99999E-3,,,,,-1.8300E-6,14.8000,
,,,-1.8280E-6,280.00000E-3,,,,,-1.8280E-6,15.0000,
,,,-1.8260E-6,319.99999E-3,,,,,-1.8260E-6,14.8000,
,,,-1.8240E-6,280.00000E-3,,,,,-1.8240E-6,15.0000,
,,,-1.8220E-6,319.99999E-3,,,,,-1.8220E-6,14.8000,
,,,-1.8200E-6,280.00000E-3,,,,,-1.8200E-6,15.0000,
,,,-1.8180E-6,280.00000E-3,,,,,-1.8180E-6,15.0000,
,,,-1.8160E-6,319.99999E-3,,,,,-1.8160E-6,14.8000,
,,,-1.8140E-6,319.99999E-3,,,,,-1.8140E-6,15.0000,
,,,-1.8120E-6,280.00000E-3,,,,,-1.8120E-6,15.0000,
,,,-1.8100E-6,319.99999E-3,,,,,-1.8100E-6,14.8000,
,,,-1.8080E-6,359.99998E-3,,,,,-1.8080E-6,14.8000,
,,,-1.8060E-6,280.00000E-3,,,,,-1.8060E-6,14.8000,
,,,-1.8040E-6,280.00000E-3,,,,,-1.8040E-6,15.0000,
,,,-1.8020E-6,359.99998E-3,,,,,-1.8020E-6,14.8000,
,,,-1.8000E-6,280.00000E-3,,,,,-1.8000E-6,14.6000,
,,,-1.7980E-6,280.00000E-3,,,,,-1.7980E-6,14.8000,
,,,-1.7960E-6,319.99999E-3,,,,,-1.7960E-6,14.8000,
,,,-1.7940E-6,319.99999E-3,,,,,-1.7940E-6,15.2000,
,,,-1.7920E-6,319.99999E-3,,,,,-1.7920E-6,15.0000,
,,,-1.7900E-6,319.99999E-3,,,,,-1.7900E-6,14.8000,
,,,-1.7880E-6,319.99999E-3,,,,,-1.7880E-6,15.0000,
,,,-1.7860E-6,319.99999E-3,,,,,-1.7860E-6,14.8000,
,,,-1.7840E-6,359.99998E-3,,,,,-1.7840E-6,15.0000,
,,,-1.7820E-6,280.00000E-3,,,,,-1.7820E-6,14.8000,
,,,-1.7800E-6,319.99999E-3,,,,,-1.7800E-6,14.8000,
,,,-1.7780E-6,319.99999E-3,,,,,-1.7780E-6,15.0000,
,,,-1.7760E-6,359.99998E-3,,,,,-1.7760E-6,14.8000,
,,,-1.7740E-6,359.99998E-3,,,,,-1.7740E-6,15.0000,
,,,-1.7720E-6,319.99999E-3,,,,,-1.7720E-6,15.0000,
,,,-1.7700E-6,319.99999E-3,,,,,-1.7700E-6,15.0000,
,,,-1.7680E-6,280.00000E-3,,,,,-1.7680E-6,14.8000,
,,,-1.7660E-6,359.99998E-3,,,,,-1.7660E-6,15.0000,
,,,-1.7640E-6,359.99998E-3,,,,,-1.7640E-6,14.8000,
,,,-1.7620E-6,319.99999E-3,,,,,-1.7620E-6,14.8000,
,,,-1.7600E-6,319.99999E-3,,,,,-1.7600E-6,14.8000,
,,,-1.7580E-6,359.99998E-3,,,,,-1.7580E-6,14.8000,
,,,-1.7560E-6,319.99999E-3,,,,,-1.7560E-6,15.0000,
,,,-1.7540E-6,319.99999E-3,,,,,-1.7540E-6,15.0000,
,,,-1.7520E-6,359.99998E-3,,,,,-1.7520E-6,14.8000,
,,,-1.7500E-6,399.99998E-3,,,,,-1.7500E-6,14.8000,
,,,-1.7480E-6,359.99998E-3,,,,,-1.7480E-6,14.8000,
,,,-1.7460E-6,319.99999E-3,,,,,-1.7460E-6,14.8000,
,,,-1.7440E-6,359.99998E-3,,,,,-1.7440E-6,15.0000,
,,,-1.7420E-6,359.99998E-3,,,,,-1.7420E-6,15.2000,
,,,-1.7400E-6,399.99998E-3,,,,,-1.7400E-6,14.8000,
,,,-1.7380E-6,359.99998E-3,,,,,-1.7380E-6,15.0000,
,,,-1.7360E-6,319.99999E-3,,,,,-1.7360E-6,14.8000,
,,,-1.7340E-6,359.99998E-3,,,,,-1.7340E-6,15.0000,
,,,-1.7320E-6,359.99998E-3,,,,,-1.7320E-6,14.8000,
,,,-1.7300E-6,359.99998E-3,,,,,-1.7300E-6,15.0000,
,,,-1.7280E-6,319.99999E-3,,,,,-1.7280E-6,14.8000,
,,,-1.7260E-6,319.99999E-3,,,,,-1.7260E-6,14.8000,
